modules/hw5_6/simulation/qsim/double_trigger_one_shot.msim.vcd
$comment
	File created using the following command:
		vcd file double_trigger_one_shot.msim.vcd -direction
$end
$date
	Sun May 28 04:05:30 2023
$end
$version
	ModelSim Version 10.5b
$end
$timescale
	1ps
$end

$scope module double_trigger_one_shot_vhd_vec_tst $end
$var wire 1 ! clk $end
$var wire 1 " x1 $end
$var wire 1 # x2 $end
$var wire 1 $ y $end

$scope module i1 $end
$var wire 1 % gnd $end
$var wire 1 & vcc $end
$var wire 1 ' unknown $end
$var wire 1 ( devoe $end
$var wire 1 ) devclrn $end
$var wire 1 * devpor $end
$var wire 1 + ww_devoe $end
$var wire 1 , ww_devclrn $end
$var wire 1 - ww_devpor $end
$var wire 1 . ww_clk $end
$var wire 1 / ww_x1 $end
$var wire 1 0 ww_x2 $end
$var wire 1 1 ww_y $end
$var wire 1 2 \~QUARTUS_CREATED_GND~I_combout\ $end
$var wire 1 3 \clk~input_o\ $end
$var wire 1 4 \clk~inputCLKENA0_outclk\ $end
$var wire 1 5 \x1~input_o\ $end
$var wire 1 6 \x2~input_o\ $end
$var wire 1 7 \Mux2~0_combout\ $end
$var wire 1 8 \Mux0~0_combout\ $end
$var wire 1 9 pr_state [1] $end
$var wire 1 : pr_state [0] $end
$var wire 1 ; \ALT_INV_x2~input_o\ $end
$var wire 1 < \ALT_INV_x1~input_o\ $end
$var wire 1 = ALT_INV_pr_state [1] $end
$var wire 1 > ALT_INV_pr_state [0] $end
$upscope $end
$upscope $end
$enddefinitions $end
#0
$dumpvars
0!
0"
0#
0$
0%
1&
x'
1(
1)
1*
1+
1,
1-
0.
0/
00
01
x2
03
04
05
06
07
08
1;
1<
09
0:
1=
1>
$end
#2000
1!
1.
13
14
#4000
0!
0.
03
04
#6000
1!
1.
13
14
#8000
0!
0.
03
04
#10000
1!
1"
1#
1.
1/
10
16
15
13
14
0<
0;
17
19
0=
07
#12000
0!
0.
03
04
#14000
1!
1.
13
14
#16000
0!
0.
03
04
#18000
1!
1.
13
14
#20000
0!
0.
03
04
#22000
1!
1.
13
14
#24000
0!
0.
03
04
#26000
1!
1.
13
14
#28000
0!
0.
03
04
#30000
1!
0"
1.
0/
05
13
14
1<
09
1=
17
#32000
0!
0.
03
04
#34000
1!
1.
13
14
1:
0>
#36000
0!
0.
03
04
#38000
1!
1.
13
14
#40000
0!
0#
0.
00
06
03
04
1;
07
#42000
1!
1.
13
14
0:
1>
#44000
0!
0.
03
04
#46000
1!
1.
13
14
#48000
0!
0.
03
04
#50000
1!
1"
1.
1/
15
13
14
0<
19
0=
#52000
0!
0.
03
04
#54000
1!
1.
13
14
#56000
0!
0.
03
04
#58000
1!
1.
13
14
#60000
0!
1#
0.
10
16
03
04
0;
#62000
1!
1.
13
14
#64000
0!
0.
03
04
#66000
1!
1.
13
14
#68000
0!
0.
03
04
#70000
1!
0#
0"
1.
00
0/
05
06
13
14
1;
1<
09
1=
#72000
0!
0.
03
04
#74000
1!
1.
13
14
#76000
0!
0.
03
04
#78000
1!
1.
13
14
#80000
0!
1#
1"
0.
10
1/
15
16
03
04
0;
0<
17
#82000
1!
1.
13
14
19
1:
0>
0=
#84000
0!
0.
03
04
#86000
1!
1.
13
14
#88000
0!
0.
03
04
#90000
1!
0#
0"
1.
00
0/
05
06
13
14
1;
1<
18
07
09
1=
08
11
1$
01
0$
#92000
0!
0.
03
04
#94000
1!
1.
13
14
0:
1>
#96000
0!
0.
03
04
#98000
1!
1.
13
14
#100000
0!
1#
0.
10
16
03
04
0;
17
#102000
1!
1.
13
14
1:
0>
#104000
0!
0.
03
04
#106000
1!
1.
13
14
#108000
0!
0.
03
04
#110000
1!
1"
1.
1/
15
13
14
0<
19
0=
#112000
0!
0.
03
04
#114000
1!
1.
13
14
#116000
0!
0.
03
04
#118000
1!
1.
13
14
#120000
0!
0.
03
04
#122000
1!
1.
13
14
#124000
0!
0.
03
04
#126000
1!
1.
13
14
#128000
0!
0.
03
04
#130000
1!
0"
0#
1.
0/
00
06
05
13
14
1<
1;
07
18
09
1=
08
11
1$
01
0$
#132000
0!
0.
03
04
#134000
1!
1.
13
14
0:
1>
#136000
0!
0.
03
04
#138000
1!
1.
13
14
#140000
0!
1"
0.
1/
15
03
04
0<
#142000
1!
1.
13
14
19
0=
#144000
0!
0.
03
04
#146000
1!
1.
13
14
#148000
0!
0.
03
04
#150000
1!
0"
1.
0/
05
13
14
1<
09
1=
#152000
0!
0.
03
04
#154000
1!
1.
13
14
#156000
0!
0.
03
04
#158000
1!
1.
13
14
#160000
0!
1#
0.
10
16
03
04
0;
17
#162000
1!
1.
13
14
1:
0>
#164000
0!
0.
03
04
#166000
1!
1.
13
14
#168000
0!
0.
03
04
#170000
1!
1"
1.
1/
15
13
14
0<
19
0=
#172000
0!
0.
03
04
#174000
1!
1.
13
14
#176000
0!
0.
03
04
#178000
1!
1.
13
14
#180000
0!
0#
0.
00
06
03
04
1;
07
#182000
1!
1.
13
14
0:
1>
#184000
0!
0.
03
04
#186000
1!
1.
13
14
#188000
0!
0.
03
04
#190000
1!
1#
1.
10
16
13
14
0;
#192000
0!
0.
03
04
#194000
1!
1.
13
14
#196000
0!
0.
03
04
#198000
1!
1.
13
14
#200000
0!
0"
0.
0/
05
03
04
1<
#202000
1!
1.
13
14
09
1=
17
#204000
0!
0.
03
04
#206000
1!
1.
13
14
1:
0>
#208000
0!
0.
03
04
#210000
1!
1.
13
14
#212000
0!
0.
03
04
#214000
1!
1.
13
14
#216000
0!
0.
03
04
#218000
1!
1.
13
14
#220000
0!
0#
0.
00
06
03
04
1;
07
#222000
1!
1.
13
14
0:
1>
#224000
0!
0.
03
04
#226000
1!
1.
13
14
#228000
0!
0.
03
04
#230000
1!
1.
13
14
#232000
0!
0.
03
04
#234000
1!
1.
13
14
#236000
0!
0.
03
04
#238000
1!
1.
13
14
#240000
0!
0.
03
04
#242000
1!
1.
13
14
#244000
0!
0.
03
04
#246000
1!
1.
13
14
#248000
0!
0.
03
04
#250000
1!
1.
13
14
#252000
0!
0.
03
04
#254000
1!
1.
13
14
#256000
0!
0.
03
04
#258000
1!
1.
13
14
#260000
0!
0.
03
04
#262000
1!
1.
13
14
#264000
0!
0.
03
04
#266000
1!
1.
13
14
#268000
0!
0.
03
04
#270000
1!
1.
13
14
#272000
0!
0.
03
04
#274000
1!
1.
13
14
#276000
0!
0.
03
04
#278000
1!
1.
13
14
#280000
0!
0.
03
04
#282000
1!
1.
13
14
#284000
0!
0.
03
04
#286000
1!
1.
13
14
#288000
0!
0.
03
04
#290000
1!
1.
13
14
#292000
0!
0.
03
04
#294000
1!
1.
13
14
#296000
0!
0.
03
04
#298000
1!
1.
13
14
#300000
0!
0.
03
04
#302000
1!
1.
13
14
#304000
0!
0.
03
04
#306000
1!
1.
13
14
#308000
0!
0.
03
04
#310000
1!
1.
13
14
#312000
0!
0.
03
04
#314000
1!
1.
13
14
#316000
0!
0.
03
04
#318000
1!
1.
13
14
#320000
0!
0.
03
04
#322000
1!
1.
13
14
#324000
0!
0.
03
04
#326000
1!
1.
13
14
#328000
0!
0.
03
04
#330000
1!
1.
13
14
#332000
0!
0.
03
04
#334000
1!
1.
13
14
#336000
0!
0.
03
04
#338000
1!
1.
13
14
#340000
0!
0.
03
04
#342000
1!
1.
13
14
#344000
0!
0.
03
04
#346000
1!
1.
13
14
#348000
0!
0.
03
04
#350000
1!
1.
13
14
#352000
0!
0.
03
04
#354000
1!
1.
13
14
#356000
0!
0.
03
04
#358000
1!
1.
13
14
#360000
0!
0.
03
04
#362000
1!
1.
13
14
#364000
0!
0.
03
04
#366000
1!
1.
13
14
#368000
0!
0.
03
04
#370000
1!
1.
13
14
#372000
0!
0.
03
04
#374000
1!
1.
13
14
#376000
0!
0.
03
04
#378000
1!
1.
13
14
#380000
0!
0.
03
04
#382000
1!
1.
13
14
#384000
0!
0.
03
04
#386000
1!
1.
13
14
#388000
0!
0.
03
04
#390000
1!
1.
13
14
#392000
0!
0.
03
04
#394000
1!
1.
13
14
#396000
0!
0.
03
04
#398000
1!
1.
13
14
#400000
0!
0.
03
04
#402000
1!
1.
13
14
#404000
0!
0.
03
04
#406000
1!
1.
13
14
#408000
0!
0.
03
04
#410000
1!
1.
13
14
#412000
0!
0.
03
04
#414000
1!
1.
13
14
#416000
0!
0.
03
04
#418000
1!
1.
13
14
#420000
0!
0.
03
04
#422000
1!
1.
13
14
#424000
0!
0.
03
04
#426000
1!
1.
13
14
#428000
0!
0.
03
04
#430000
1!
1.
13
14
#432000
0!
0.
03
04
#434000
1!
1.
13
14
#436000
0!
0.
03
04
#438000
1!
1.
13
14
#440000
0!
0.
03
04
#442000
1!
1.
13
14
#444000
0!
0.
03
04
#446000
1!
1.
13
14
#448000
0!
0.
03
04
#450000
1!
1.
13
14
#452000
0!
0.
03
04
#454000
1!
1.
13
14
#456000
0!
0.
03
04
#458000
1!
1.
13
14
#460000
0!
0.
03
04
#462000
1!
1.
13
14
#464000
0!
0.
03
04
#466000
1!
1.
13
14
#468000
0!
0.
03
04
