modules/cordic/simulation/qsim/cordic.msim.vcd
$comment
	File created using the following command:
		vcd file cordic.msim.vcd -direction
$end
$date
	Tue Jul 04 13:57:09 2023
$end
$version
	ModelSim Version 10.5b
$end
$timescale
	1ps
$end

$scope module cordic_vlg_vec_tst $end
$var reg 1 ! clk $end
$var reg 1 " rstn $end
$var wire 1 # phase [2] $end
$var wire 1 $ phase [1] $end
$var wire 1 % phase [0] $end

$scope module i1 $end
$var wire 1 & gnd $end
$var wire 1 ' vcc $end
$var wire 1 ( unknown $end
$var tri1 1 ) devclrn $end
$var tri1 1 * devpor $end
$var tri1 1 + devoe $end
$var wire 1 , ~QUARTUS_CREATED_GND~I_combout $end
$var wire 1 - clk~input_o $end
$var wire 1 . clk~inputCLKENA0_outclk $end
$var wire 1 / rstn~input_o $end
$var wire 1 0 phase~0_combout $end
$var wire 1 1 phase[0]~reg0_q $end
$var wire 1 2 phase~1_combout $end
$var wire 1 3 phase[1]~reg0_q $end
$var wire 1 4 phase~2_combout $end
$var wire 1 5 phase[2]~reg0_q $end
$upscope $end
$upscope $end
$enddefinitions $end
#0
$dumpvars
0!
1"
0%
0$
0#
0&
1'
x(
1)
1*
1+
0,
0-
0.
1/
10
01
02
03
04
05
$end
#5000
1!
1-
1.
11
1%
12
00
#10000
0!
0-
0.
#15000
1!
1-
1.
13
01
0%
1$
10
#20000
0!
0-
0.
#25000
1!
1-
1.
11
1%
14
02
00
#30000
0!
0-
0.
#35000
1!
1-
1.
15
03
01
0%
0$
1#
10
#40000
0!
0-
0.
#45000
1!
1-
1.
11
1%
12
00
#50000
0!
0-
0.
#55000
1!
1-
1.
13
01
0%
1$
10
#60000
0!
0-
0.
#65000
1!
1-
1.
11
1%
04
02
00
#70000
0!
0-
0.
#75000
1!
1-
1.
05
03
01
0%
0$
0#
10
#80000
0!
0-
0.
#85000
1!
1-
1.
11
1%
12
00
#90000
0!
0-
0.
#95000
1!
1-
1.
13
01
0%
1$
10
#100000
0!
0-
0.
#105000
1!
1-
1.
11
1%
14
02
00
#110000
0!
0-
0.
#115000
1!
1-
1.
15
03
01
0%
0$
1#
10
#120000
0!
0-
0.
#125000
1!
1-
1.
11
1%
12
00
#130000
0!
0-
0.
#135000
1!
1-
1.
13
01
0%
1$
10
#140000
0!
0-
0.
#145000
1!
1-
1.
11
1%
04
02
00
#150000
0!
0-
0.
#155000
1!
1-
1.
05
03
01
0%
0$
0#
10
#160000
0!
0-
0.
#165000
1!
1-
1.
11
1%
12
00
#170000
0!
0-
0.
#175000
1!
1-
1.
13
01
0%
1$
10
#180000
0!
0-
0.
#185000
1!
1-
1.
11
1%
14
02
00
#190000
0!
0-
0.
#195000
1!
1-
1.
15
03
01
0%
0$
1#
10
#200000
0!
0-
0.
#205000
1!
1-
1.
11
1%
12
00
#210000
0!
0-
0.
#215000
1!
1-
1.
13
01
0%
1$
10
#220000
0!
0-
0.
#225000
1!
1-
1.
11
1%
04
02
00
#230000
0!
0-
0.
#235000
1!
1-
1.
05
03
01
0%
0$
0#
10
#240000
0!
0-
0.
#245000
1!
1-
1.
11
1%
12
00
#250000
0!
0-
0.
#255000
1!
1-
1.
13
01
0%
1$
10
#260000
0!
0-
0.
#265000
1!
1-
1.
11
1%
14
02
00
#270000
0!
0-
0.
#275000
1!
1-
1.
15
03
01
0%
0$
1#
10
#280000
0!
0-
0.
#285000
1!
1-
1.
11
1%
12
00
#290000
0!
0-
0.
#295000
1!
1-
1.
13
01
0%
1$
10
#300000
0!
0-
0.
#305000
1!
1-
1.
11
1%
04
02
00
#310000
0!
0-
0.
#315000
1!
1-
1.
05
03
01
0%
0$
0#
10
#320000
0!
0-
0.
#325000
1!
1-
1.
11
1%
12
00
#330000
0!
0-
0.
#335000
1!
1-
1.
13
01
0%
1$
10
#340000
0!
0-
0.
#345000
1!
1-
1.
11
1%
14
02
00
#350000
0!
0-
0.
#355000
1!
1-
1.
15
03
01
0%
0$
1#
10
#360000
0!
0-
0.
#365000
1!
1-
1.
11
1%
12
00
#370000
0!
0-
0.
#375000
1!
1-
1.
13
01
0%
1$
10
#380000
0!
0-
0.
#385000
1!
1-
1.
11
1%
04
02
00
#390000
0!
0-
0.
#395000
1!
1-
1.
05
03
01
0%
0$
0#
10
#400000
0!
0-
0.
#405000
1!
1-
1.
11
1%
12
00
#410000
0!
0-
0.
#415000
1!
1-
1.
13
01
0%
1$
10
#420000
0!
0-
0.
#425000
1!
1-
1.
11
1%
14
02
00
#430000
0!
0-
0.
#435000
1!
1-
1.
15
03
01
0%
0$
1#
10
#440000
0!
0-
0.
#445000
1!
1-
1.
11
1%
12
00
#450000
0!
0-
0.
#455000
1!
1-
1.
13
01
0%
1$
10
#460000
0!
0-
0.
#465000
1!
1-
1.
11
1%
04
02
00
#470000
0!
0-
0.
#475000
1!
1-
1.
05
03
01
0%
0$
0#
10
#480000
0!
0-
0.
#485000
1!
1-
1.
11
1%
12
00
#490000
0!
0-
0.
#495000
1!
1-
1.
13
01
0%
1$
10
#500000
0!
0-
0.
#505000
1!
1-
1.
11
1%
14
02
00
#510000
0!
0-
0.
#515000
1!
1-
1.
15
03
01
0%
0$
1#
10
#520000
0!
0-
0.
#525000
1!
1-
1.
11
1%
12
00
#530000
0!
0-
0.
#535000
1!
1-
1.
13
01
0%
1$
10
#540000
0!
0-
0.
#545000
1!
1-
1.
11
1%
04
02
00
#550000
0!
0-
0.
#555000
1!
1-
1.
05
03
01
0%
0$
0#
10
#560000
0!
0-
0.
#565000
1!
1-
1.
11
1%
12
00
#570000
0!
0-
0.
#575000
1!
1-
1.
13
01
0%
1$
10
#580000
0!
0-
0.
#585000
1!
1-
1.
11
1%
14
02
00
#590000
0!
0-
0.
#595000
1!
1-
1.
15
03
01
0%
0$
1#
10
#600000
0!
0-
0.
#605000
1!
1-
1.
11
1%
12
00
#610000
0!
0-
0.
#615000
1!
1-
1.
13
01
0%
1$
10
#620000
0!
0-
0.
#625000
1!
1-
1.
11
1%
04
02
00
#630000
0!
0-
0.
#635000
1!
1-
1.
05
03
01
0%
0$
0#
10
#640000
0!
0-
0.
#645000
1!
1-
1.
11
1%
12
00
#650000
0!
0-
0.
#655000
1!
1-
1.
13
01
0%
1$
10
#660000
0!
0-
0.
#665000
1!
1-
1.
11
1%
14
02
00
#670000
0!
0-
0.
#675000
1!
1-
1.
15
03
01
0%
0$
1#
10
#680000
0!
0-
0.
#685000
1!
1-
1.
11
1%
12
00
#690000
0!
0-
0.
#695000
1!
1-
1.
13
01
0%
1$
10
#700000
0!
0-
0.
#705000
1!
1-
1.
11
1%
04
02
00
#710000
0!
0-
0.
#715000
1!
1-
1.
05
03
01
0%
0$
0#
10
#720000
0!
0-
0.
#725000
1!
1-
1.
11
1%
12
00
#730000
0!
0-
0.
#735000
1!
1-
1.
13
01
0%
1$
10
#740000
0!
0-
0.
#745000
1!
1-
1.
11
1%
14
02
00
#750000
0!
0-
0.
#755000
1!
1-
1.
15
03
01
0%
0$
1#
10
#760000
0!
0-
0.
#765000
1!
1-
1.
11
1%
12
00
#770000
0!
0-
0.
#775000
1!
1-
1.
13
01
0%
1$
10
#780000
0!
0-
0.
#785000
1!
1-
1.
11
1%
04
02
00
#790000
0!
0-
0.
#795000
1!
1-
1.
05
03
01
0%
0$
0#
10
#800000
0!
0-
0.
#805000
1!
1-
1.
11
1%
12
00
#810000
0!
0-
0.
#815000
1!
1-
1.
13
01
0%
1$
10
#820000
0!
0-
0.
#825000
1!
1-
1.
11
1%
14
02
00
#830000
0!
0-
0.
#835000
1!
1-
1.
15
03
01
0%
0$
1#
10
#840000
0!
0-
0.
#845000
1!
1-
1.
11
1%
12
00
#850000
0!
0-
0.
#855000
1!
1-
1.
13
01
0%
1$
10
#860000
0!
0-
0.
#865000
1!
1-
1.
11
1%
04
02
00
#870000
0!
0-
0.
#875000
1!
1-
1.
05
03
01
0%
0$
0#
10
#880000
0!
0-
0.
#885000
1!
1-
1.
11
1%
12
00
#890000
0!
0-
0.
#895000
1!
1-
1.
13
01
0%
1$
10
#900000
0!
0-
0.
#905000
1!
1-
1.
11
1%
14
02
00
#910000
0!
0-
0.
#915000
1!
1-
1.
15
03
01
0%
0$
1#
10
#920000
0!
0-
0.
#925000
1!
1-
1.
11
1%
12
00
#930000
0!
0-
0.
#935000
1!
1-
1.
13
01
0%
1$
10
#940000
0!
0-
0.
#945000
1!
1-
1.
11
1%
04
02
00
#950000
0!
0-
0.
#955000
1!
1-
1.
05
03
01
0%
0$
0#
10
#960000
0!
0-
0.
#965000
1!
1-
1.
11
1%
12
00
#970000
0!
0-
0.
#975000
1!
1-
1.
13
01
0%
1$
10
#980000
0!
0-
0.
#985000
1!
1-
1.
11
1%
14
02
00
#990000
0!
0-
0.
#995000
1!
1-
1.
15
03
01
0%
0$
1#
10
