modules/hw5_1/simulation/qsim/frequency_meter.msim.vcd
$comment
	File created using the following command:
		vcd file frequency_meter.msim.vcd -direction
$end
$date
	Wed May 24 15:20:14 2023
$end
$version
	ModelSim Version 10.5b
$end
$timescale
	1ps
$end

$scope module frequency_meter_vhd_vec_tst $end
$var wire 1 ! clk $end
$var wire 1 " o_flow $end
$var wire 1 # ssd0 [6] $end
$var wire 1 $ ssd0 [5] $end
$var wire 1 % ssd0 [4] $end
$var wire 1 & ssd0 [3] $end
$var wire 1 ' ssd0 [2] $end
$var wire 1 ( ssd0 [1] $end
$var wire 1 ) ssd0 [0] $end
$var wire 1 * ssd1 [6] $end
$var wire 1 + ssd1 [5] $end
$var wire 1 , ssd1 [4] $end
$var wire 1 - ssd1 [3] $end
$var wire 1 . ssd1 [2] $end
$var wire 1 / ssd1 [1] $end
$var wire 1 0 ssd1 [0] $end
$var wire 1 1 ssd2 [6] $end
$var wire 1 2 ssd2 [5] $end
$var wire 1 3 ssd2 [4] $end
$var wire 1 4 ssd2 [3] $end
$var wire 1 5 ssd2 [2] $end
$var wire 1 6 ssd2 [1] $end
$var wire 1 7 ssd2 [0] $end
$var wire 1 8 ssd3 [6] $end
$var wire 1 9 ssd3 [5] $end
$var wire 1 : ssd3 [4] $end
$var wire 1 ; ssd3 [3] $end
$var wire 1 < ssd3 [2] $end
$var wire 1 = ssd3 [1] $end
$var wire 1 > ssd3 [0] $end
$var wire 1 ? x $end

$scope module i1 $end
$var wire 1 @ gnd $end
$var wire 1 A vcc $end
$var wire 1 B unknown $end
$var wire 1 C devoe $end
$var wire 1 D devclrn $end
$var wire 1 E devpor $end
$var wire 1 F ww_devoe $end
$var wire 1 G ww_devclrn $end
$var wire 1 H ww_devpor $end
$var wire 1 I ww_x $end
$var wire 1 J ww_clk $end
$var wire 1 K ww_ssd3 [6] $end
$var wire 1 L ww_ssd3 [5] $end
$var wire 1 M ww_ssd3 [4] $end
$var wire 1 N ww_ssd3 [3] $end
$var wire 1 O ww_ssd3 [2] $end
$var wire 1 P ww_ssd3 [1] $end
$var wire 1 Q ww_ssd3 [0] $end
$var wire 1 R ww_ssd2 [6] $end
$var wire 1 S ww_ssd2 [5] $end
$var wire 1 T ww_ssd2 [4] $end
$var wire 1 U ww_ssd2 [3] $end
$var wire 1 V ww_ssd2 [2] $end
$var wire 1 W ww_ssd2 [1] $end
$var wire 1 X ww_ssd2 [0] $end
$var wire 1 Y ww_ssd1 [6] $end
$var wire 1 Z ww_ssd1 [5] $end
$var wire 1 [ ww_ssd1 [4] $end
$var wire 1 \ ww_ssd1 [3] $end
$var wire 1 ] ww_ssd1 [2] $end
$var wire 1 ^ ww_ssd1 [1] $end
$var wire 1 _ ww_ssd1 [0] $end
$var wire 1 ` ww_ssd0 [6] $end
$var wire 1 a ww_ssd0 [5] $end
$var wire 1 b ww_ssd0 [4] $end
$var wire 1 c ww_ssd0 [3] $end
$var wire 1 d ww_ssd0 [2] $end
$var wire 1 e ww_ssd0 [1] $end
$var wire 1 f ww_ssd0 [0] $end
$var wire 1 g ww_o_flow $end
$var wire 1 h \~QUARTUS_CREATED_GND~I_combout\ $end
$var wire 1 i \clk~input_o\ $end
$var wire 1 j \clk~inputCLKENA0_outclk\ $end
$var wire 1 k \Add0~33_sumout\ $end
$var wire 1 l \Equal0~1_combout\ $end
$var wire 1 m \Equal0~2_combout\ $end
$var wire 1 n \Equal0~0_combout\ $end
$var wire 1 o \Equal0~3_combout\ $end
$var wire 1 p \Add0~34\ $end
$var wire 1 q \Add0~29_sumout\ $end
$var wire 1 r \Add0~30\ $end
$var wire 1 s \Add0~25_sumout\ $end
$var wire 1 t \clock_count[2]~DUPLICATE_q\ $end
$var wire 1 u \Add0~26\ $end
$var wire 1 v \Add0~21_sumout\ $end
$var wire 1 w \Add0~22\ $end
$var wire 1 x \Add0~57_sumout\ $end
$var wire 1 y \clock_count[4]~DUPLICATE_q\ $end
$var wire 1 z \Add0~58\ $end
$var wire 1 { \Add0~17_sumout\ $end
$var wire 1 | \clock_count[5]~DUPLICATE_q\ $end
$var wire 1 } \Add0~18\ $end
$var wire 1 ~ \Add0~53_sumout\ $end
$var wire 1 !! \Add0~54\ $end
$var wire 1 "! \Add0~13_sumout\ $end
$var wire 1 #! \clock_count[7]~DUPLICATE_q\ $end
$var wire 1 $! \Add0~14\ $end
$var wire 1 %! \Add0~49_sumout\ $end
$var wire 1 &! \Add0~50\ $end
$var wire 1 '! \Add0~45_sumout\ $end
$var wire 1 (! \Add0~46\ $end
$var wire 1 )! \Add0~9_sumout\ $end
$var wire 1 *! \clock_count[10]~DUPLICATE_q\ $end
$var wire 1 +! \Add0~10\ $end
$var wire 1 ,! \Add0~5_sumout\ $end
$var wire 1 -! \Add0~6\ $end
$var wire 1 .! \Add0~37_sumout\ $end
$var wire 1 /! \Add0~38\ $end
$var wire 1 0! \Add0~41_sumout\ $end
$var wire 1 1! \Add0~42\ $end
$var wire 1 2! \Add0~61_sumout\ $end
$var wire 1 3! \clock_count[14]~DUPLICATE_q\ $end
$var wire 1 4! \Add0~62\ $end
$var wire 1 5! \Add0~1_sumout\ $end
$var wire 1 6! \Equal1~0_combout\ $end
$var wire 1 7! \write_clear~0_combout\ $end
$var wire 1 8! \write_clear~q\ $end
$var wire 1 9! \x~input_o\ $end
$var wire 1 :! \pulse_cond|q0~feeder_combout\ $end
$var wire 1 ;! \pulse_cond|q0~q\ $end
$var wire 1 <! \pulse_cond|q1~q\ $end
$var wire 1 =! \pulse_cond|q2~q\ $end
$var wire 1 >! \pulse_count0~4_combout\ $end
$var wire 1 ?! \pulse_count1~0_combout\ $end
$var wire 1 @! \pulse_cond|q2~DUPLICATE_q\ $end
$var wire 1 A! \pulse_count1[3]~1_combout\ $end
$var wire 1 B! \pulse_count1~4_combout\ $end
$var wire 1 C! \pulse_count1~2_combout\ $end
$var wire 1 D! \pulse_count1~3_combout\ $end
$var wire 1 E! \Equal3~0_combout\ $end
$var wire 1 F! \ena2~0_combout\ $end
$var wire 1 G! \ena2~q\ $end
$var wire 1 H! \pulse_count0[3]~1_combout\ $end
$var wire 1 I! \pulse_count0~0_combout\ $end
$var wire 1 J! \pulse_count0~2_combout\ $end
$var wire 1 K! \pulse_count0~3_combout\ $end
$var wire 1 L! \Equal2~0_combout\ $end
$var wire 1 M! \ena1~0_combout\ $end
$var wire 1 N! \ena1~q\ $end
$var wire 1 O! \ena3~q\ $end
$var wire 1 P! \ena3~0_combout\ $end
$var wire 1 Q! \pulse_count2[0]~0_combout\ $end
$var wire 1 R! \pulse_count2[0]~2_combout\ $end
$var wire 1 S! \pulse_count2~6_combout\ $end
$var wire 1 T! \pulse_count2[3]~7_combout\ $end
$var wire 1 U! \pulse_count2~1_combout\ $end
$var wire 1 V! \pulse_count2[2]~3_combout\ $end
$var wire 1 W! \pulse_count2[1]~4_combout\ $end
$var wire 1 X! \Add3~0_combout\ $end
$var wire 1 Y! \pulse_count2[2]~5_combout\ $end
$var wire 1 Z! \Equal4~0_combout\ $end
$var wire 1 [! \ena3~1_combout\ $end
$var wire 1 \! \ena3~DUPLICATE_q\ $end
$var wire 1 ]! \pulse_count3~0_combout\ $end
$var wire 1 ^! \pulse_count3[3]~1_combout\ $end
$var wire 1 _! \pulse_count3~2_combout\ $end
$var wire 1 `! \pulse_count3~3_combout\ $end
$var wire 1 a! \pulse_count3~4_combout\ $end
$var wire 1 b! \Mux6~0_combout\ $end
$var wire 1 c! \Mux5~0_combout\ $end
$var wire 1 d! \Mux4~0_combout\ $end
$var wire 1 e! \Mux3~0_combout\ $end
$var wire 1 f! \Mux2~0_combout\ $end
$var wire 1 g! \Mux1~0_combout\ $end
$var wire 1 h! \Mux0~0_combout\ $end
$var wire 1 i! \Mux13~0_combout\ $end
$var wire 1 j! \Mux12~0_combout\ $end
$var wire 1 k! \Mux11~0_combout\ $end
$var wire 1 l! \Mux10~0_combout\ $end
$var wire 1 m! \Mux9~0_combout\ $end
$var wire 1 n! \Mux8~0_combout\ $end
$var wire 1 o! \Mux7~0_combout\ $end
$var wire 1 p! \fx[5]~feeder_combout\ $end
$var wire 1 q! \fx[4]~feeder_combout\ $end
$var wire 1 r! \Mux20~0_combout\ $end
$var wire 1 s! \Mux19~0_combout\ $end
$var wire 1 t! \Mux18~0_combout\ $end
$var wire 1 u! \Mux17~0_combout\ $end
$var wire 1 v! \Mux16~0_combout\ $end
$var wire 1 w! \Mux15~0_combout\ $end
$var wire 1 x! \Mux14~0_combout\ $end
$var wire 1 y! \fx[2]~feeder_combout\ $end
$var wire 1 z! \fx[3]~feeder_combout\ $end
$var wire 1 {! \fx[0]~feeder_combout\ $end
$var wire 1 |! \Mux27~0_combout\ $end
$var wire 1 }! \Mux26~0_combout\ $end
$var wire 1 ~! \Mux25~0_combout\ $end
$var wire 1 !" \Mux24~0_combout\ $end
$var wire 1 "" \Mux23~0_combout\ $end
$var wire 1 #" \Mux22~0_combout\ $end
$var wire 1 $" \Mux21~0_combout\ $end
$var wire 1 %" \o_flow~0_combout\ $end
$var wire 1 &" \o_flow~reg0_q\ $end
$var wire 1 '" clock_count [15] $end
$var wire 1 (" clock_count [14] $end
$var wire 1 )" clock_count [13] $end
$var wire 1 *" clock_count [12] $end
$var wire 1 +" clock_count [11] $end
$var wire 1 ," clock_count [10] $end
$var wire 1 -" clock_count [9] $end
$var wire 1 ." clock_count [8] $end
$var wire 1 /" clock_count [7] $end
$var wire 1 0" clock_count [6] $end
$var wire 1 1" clock_count [5] $end
$var wire 1 2" clock_count [4] $end
$var wire 1 3" clock_count [3] $end
$var wire 1 4" clock_count [2] $end
$var wire 1 5" clock_count [1] $end
$var wire 1 6" clock_count [0] $end
$var wire 1 7" fx [15] $end
$var wire 1 8" fx [14] $end
$var wire 1 9" fx [13] $end
$var wire 1 :" fx [12] $end
$var wire 1 ;" fx [11] $end
$var wire 1 <" fx [10] $end
$var wire 1 =" fx [9] $end
$var wire 1 >" fx [8] $end
$var wire 1 ?" fx [7] $end
$var wire 1 @" fx [6] $end
$var wire 1 A" fx [5] $end
$var wire 1 B" fx [4] $end
$var wire 1 C" fx [3] $end
$var wire 1 D" fx [2] $end
$var wire 1 E" fx [1] $end
$var wire 1 F" fx [0] $end
$var wire 1 G" pulse_count3 [3] $end
$var wire 1 H" pulse_count3 [2] $end
$var wire 1 I" pulse_count3 [1] $end
$var wire 1 J" pulse_count3 [0] $end
$var wire 1 K" pulse_count2 [3] $end
$var wire 1 L" pulse_count2 [2] $end
$var wire 1 M" pulse_count2 [1] $end
$var wire 1 N" pulse_count2 [0] $end
$var wire 1 O" pulse_count1 [3] $end
$var wire 1 P" pulse_count1 [2] $end
$var wire 1 Q" pulse_count1 [1] $end
$var wire 1 R" pulse_count1 [0] $end
$var wire 1 S" pulse_count0 [3] $end
$var wire 1 T" pulse_count0 [2] $end
$var wire 1 U" pulse_count0 [1] $end
$var wire 1 V" pulse_count0 [0] $end
$var wire 1 W" ALT_INV_clock_count [15] $end
$var wire 1 X" ALT_INV_clock_count [14] $end
$var wire 1 Y" ALT_INV_clock_count [13] $end
$var wire 1 Z" ALT_INV_clock_count [12] $end
$var wire 1 [" ALT_INV_clock_count [11] $end
$var wire 1 \" ALT_INV_clock_count [10] $end
$var wire 1 ]" ALT_INV_clock_count [9] $end
$var wire 1 ^" ALT_INV_clock_count [8] $end
$var wire 1 _" ALT_INV_clock_count [7] $end
$var wire 1 `" ALT_INV_clock_count [6] $end
$var wire 1 a" ALT_INV_clock_count [5] $end
$var wire 1 b" ALT_INV_clock_count [4] $end
$var wire 1 c" ALT_INV_clock_count [3] $end
$var wire 1 d" ALT_INV_clock_count [2] $end
$var wire 1 e" ALT_INV_clock_count [1] $end
$var wire 1 f" ALT_INV_clock_count [0] $end
$var wire 1 g" \ALT_INV_pulse_count2[2]~3_combout\ $end
$var wire 1 h" \ALT_INV_pulse_count2[0]~2_combout\ $end
$var wire 1 i" \ALT_INV_pulse_count2~1_combout\ $end
$var wire 1 j" \ALT_INV_Equal0~2_combout\ $end
$var wire 1 k" \ALT_INV_Equal1~0_combout\ $end
$var wire 1 l" \ALT_INV_Equal0~1_combout\ $end
$var wire 1 m" \ALT_INV_Equal0~0_combout\ $end
$var wire 1 n" \ALT_INV_Equal4~0_combout\ $end
$var wire 1 o" \ALT_INV_ena3~q\ $end
$var wire 1 p" \ALT_INV_ena3~0_combout\ $end
$var wire 1 q" \pulse_cond|ALT_INV_q1~q\ $end
$var wire 1 r" \pulse_cond|ALT_INV_q2~q\ $end
$var wire 1 s" \ALT_INV_ena1~q\ $end
$var wire 1 t" \ALT_INV_ena2~q\ $end
$var wire 1 u" ALT_INV_pulse_count0 [3] $end
$var wire 1 v" ALT_INV_pulse_count0 [2] $end
$var wire 1 w" ALT_INV_pulse_count0 [1] $end
$var wire 1 x" ALT_INV_pulse_count0 [0] $end
$var wire 1 y" ALT_INV_pulse_count1 [3] $end
$var wire 1 z" ALT_INV_pulse_count1 [2] $end
$var wire 1 {" ALT_INV_pulse_count1 [1] $end
$var wire 1 |" ALT_INV_pulse_count1 [0] $end
$var wire 1 }" ALT_INV_pulse_count2 [3] $end
$var wire 1 ~" ALT_INV_pulse_count2 [2] $end
$var wire 1 !# ALT_INV_pulse_count2 [1] $end
$var wire 1 "# ALT_INV_pulse_count2 [0] $end
$var wire 1 ## ALT_INV_pulse_count3 [3] $end
$var wire 1 $# ALT_INV_pulse_count3 [2] $end
$var wire 1 %# ALT_INV_pulse_count3 [1] $end
$var wire 1 &# ALT_INV_pulse_count3 [0] $end
$var wire 1 '# \ALT_INV_write_clear~q\ $end
$var wire 1 (# \ALT_INV_o_flow~reg0_q\ $end
$var wire 1 )# \ALT_INV_Mux21~0_combout\ $end
$var wire 1 *# ALT_INV_fx [15] $end
$var wire 1 +# ALT_INV_fx [14] $end
$var wire 1 ,# ALT_INV_fx [13] $end
$var wire 1 -# ALT_INV_fx [12] $end
$var wire 1 .# ALT_INV_fx [11] $end
$var wire 1 /# ALT_INV_fx [10] $end
$var wire 1 0# ALT_INV_fx [9] $end
$var wire 1 1# ALT_INV_fx [8] $end
$var wire 1 2# ALT_INV_fx [7] $end
$var wire 1 3# ALT_INV_fx [6] $end
$var wire 1 4# ALT_INV_fx [5] $end
$var wire 1 5# ALT_INV_fx [4] $end
$var wire 1 6# ALT_INV_fx [3] $end
$var wire 1 7# ALT_INV_fx [2] $end
$var wire 1 8# ALT_INV_fx [1] $end
$var wire 1 9# ALT_INV_fx [0] $end
$var wire 1 :# \ALT_INV_Mux14~0_combout\ $end
$var wire 1 ;# \ALT_INV_Mux7~0_combout\ $end
$var wire 1 <# \ALT_INV_Mux0~0_combout\ $end
$var wire 1 =# \ALT_INV_ena3~DUPLICATE_q\ $end
$var wire 1 ># \pulse_cond|ALT_INV_q2~DUPLICATE_q\ $end
$var wire 1 ?# \ALT_INV_clock_count[14]~DUPLICATE_q\ $end
$var wire 1 @# \ALT_INV_clock_count[4]~DUPLICATE_q\ $end
$var wire 1 A# \ALT_INV_clock_count[2]~DUPLICATE_q\ $end
$var wire 1 B# \ALT_INV_clock_count[5]~DUPLICATE_q\ $end
$var wire 1 C# \ALT_INV_clock_count[7]~DUPLICATE_q\ $end
$var wire 1 D# \ALT_INV_clock_count[10]~DUPLICATE_q\ $end
$var wire 1 E# \ALT_INV_clk~inputCLKENA0_outclk\ $end
$var wire 1 F# \ALT_INV_x~input_o\ $end
$var wire 1 G# \ALT_INV_Equal2~0_combout\ $end
$var wire 1 H# \ALT_INV_Equal3~0_combout\ $end
$var wire 1 I# \ALT_INV_pulse_count2~6_combout\ $end
$var wire 1 J# \ALT_INV_Add3~0_combout\ $end
$upscope $end
$upscope $end
$enddefinitions $end
#0
$dumpvars
0!
0"
0?
0@
1A
xB
1C
1D
1E
1F
1G
1H
0I
0J
0g
xh
0i
0j
1k
1l
0m
1n
0o
0p
0q
0r
0s
0t
0u
0v
0w
0x
0y
0z
0{
0|
0}
0~
0!!
0"!
0#!
0$!
0%!
0&!
0'!
0(!
0)!
0*!
0+!
0,!
0-!
0.!
0/!
00!
01!
02!
03!
04!
05!
16!
07!
08!
09!
0:!
0;!
0<!
0=!
0>!
0?!
0@!
0A!
0B!
0C!
0D!
0E!
0F!
0G!
0H!
0I!
0J!
0K!
0L!
0M!
0N!
0O!
1P!
0Q!
1R!
0S!
0T!
0U!
0V!
0W!
0X!
0Y!
0Z!
0[!
0\!
0]!
0^!
0_!
0`!
0a!
0b!
0c!
0d!
0e!
0f!
0g!
0h!
0i!
0j!
0k!
0l!
0m!
0n!
0o!
0p!
0q!
0r!
0s!
0t!
0u!
0v!
0w!
0x!
0y!
0z!
0{!
0|!
0}!
0~!
0!"
0""
0#"
0$"
0%"
0&"
1g"
0h"
1i"
1j"
0k"
0l"
0m"
1n"
1o"
0p"
1q"
1r"
1s"
1t"
1'#
1(#
1)#
1:#
1;#
1<#
1=#
1>#
1?#
1@#
1A#
1B#
1C#
1D#
1E#
1F#
1G#
1H#
1I#
1J#
1K
0L
0M
0N
0O
0P
0Q
1R
0S
0T
0U
0V
0W
0X
1Y
0Z
0[
0\
0]
0^
0_
1`
0a
0b
0c
0d
0e
0f
0'"
0("
0)"
0*"
0+"
0,"
0-"
0."
0/"
00"
01"
02"
03"
04"
05"
06"
07"
08"
09"
0:"
0;"
0<"
0="
0>"
0?"
0@"
0A"
0B"
0C"
0D"
0E"
0F"
0G"
0H"
0I"
0J"
0K"
0L"
0M"
0N"
0O"
0P"
0Q"
0R"
0S"
0T"
0U"
0V"
1W"
1X"
1Y"
1Z"
1["
1\"
1]"
1^"
1_"
1`"
1a"
1b"
1c"
1d"
1e"
1f"
1u"
1v"
1w"
1x"
1y"
1z"
1{"
1|"
1}"
1~"
1!#
1"#
1##
1$#
1%#
1&#
1*#
1+#
1,#
1-#
1.#
1/#
10#
11#
12#
13#
14#
15#
16#
17#
18#
19#
1#
0$
0%
0&
0'
0(
0)
1*
0+
0,
0-
0.
0/
00
11
02
03
04
05
06
07
18
09
0:
0;
0<
0=
0>
$end
#1000
1!
1J
1i
1j
0E#
16"
0f"
0k
1p
0l
1l"
1q
#2000
0!
0J
0i
0j
1E#
#3000
1!
1J
1i
1j
0E#
06"
15"
0e"
1f"
1k
0p
0q
1r
1s
1q
0r
0s
#4000
0!
0J
0i
0j
1E#
#5000
1!
1J
1i
1j
0E#
16"
0f"
0k
1p
0q
1r
1s
#6000
0!
0J
0i
0j
1E#
#7000
1!
1J
1i
1j
0E#
14"
06"
05"
1t
0A#
1e"
1f"
0d"
0n
1k
0p
1l
1q
0r
0s
1u
0l"
1m"
1v
1s
0u
0q
0v
#8000
0!
0J
0i
0j
1E#
#9000
1!
1J
1i
1j
0E#
16"
0f"
0k
1p
0l
1l"
1q
#10000
0!
1?
0J
1I
19!
0i
0j
0F#
1E#
1:!
#11000
1!
1J
1i
1j
0E#
06"
15"
1;!
0e"
1f"
1k
0p
0q
1r
0s
1u
1q
0r
1s
0u
1v
0v
#12000
0!
0J
0i
0j
1E#
#13000
1!
1J
1i
1j
0E#
16"
1<!
0q"
0f"
0k
1p
1H!
1I!
0P!
1p"
0q
1r
0s
1u
1v
#14000
0!
0J
0i
0j
1E#
1V"
0x"
0I!
1J!
1{!
#15000
1!
1J
1i
1j
0E#
04"
06"
05"
0t
13"
1=!
1@!
0>#
0r"
0c"
1A#
1e"
1f"
1d"
1k
0p
1l
1q
0r
1s
0u
0v
1w
0J!
0H!
1P!
0p"
0l"
1x
1v
0w
0s
0q
0x
#16000
0!
0J
0i
0j
1E#
#17000
1!
1J
1i
1j
0E#
16"
0f"
0k
1p
0l
1l"
1q
#18000
0!
0J
0i
0j
1E#
#19000
1!
1J
1i
1j
0E#
06"
15"
0e"
1f"
1k
0p
0q
1r
1s
1q
0r
0s
#20000
0!
0?
0J
0I
09!
0i
0j
1F#
1E#
0:!
#21000
1!
1J
1i
1j
0E#
16"
0;!
0f"
0k
1p
0q
1r
1s
#22000
0!
0J
0i
0j
1E#
#23000
1!
1J
1i
1j
0E#
14"
06"
05"
1t
0<!
1q"
0A#
1e"
1f"
0d"
1k
0p
1l
1q
0r
0s
1u
0l"
0v
1w
1s
0u
0q
1v
0w
1x
0x
#24000
0!
0J
0i
0j
1E#
#25000
1!
1J
1i
1j
0E#
16"
0=!
0@!
1>#
1r"
0f"
0k
1p
0l
1l"
1q
#26000
0!
0J
0i
0j
1E#
#27000
1!
1J
1i
1j
0E#
06"
15"
0e"
1f"
1k
0p
0q
1r
0s
1u
1q
0r
1s
0u
0v
1w
1x
1v
0w
0x
#28000
0!
0J
0i
0j
1E#
#29000
1!
1J
1i
1j
0E#
16"
0f"
0k
1p
0q
1r
0s
1u
0v
1w
1x
#30000
0!
1?
0J
1I
19!
0i
0j
0F#
1E#
1:!
#31000
1!
1J
1i
1j
0E#
12"
04"
06"
05"
0t
03"
1y
1;!
0@#
1c"
1A#
1e"
1f"
1d"
0b"
06!
1k
0p
1l
1q
0r
1s
0u
1n
1v
0w
0x
1z
0m"
0l"
1k"
1{
1x
0z
0v
0s
0q
0{
#32000
0!
0J
0i
0j
1E#
#33000
1!
1J
1i
1j
0E#
16"
1<!
0q"
0f"
0k
1p
0l
1H!
1J!
0P!
1p"
1l"
1q
#34000
0!
0J
0i
0j
1E#
0V"
1U"
0w"
1x"
0{!
1I!
#35000
1!
1J
1i
1j
0E#
06"
15"
1=!
1@!
0>#
0r"
0e"
1f"
1k
0p
0q
1r
0J!
0H!
0I!
1P!
0p"
1s
1q
0r
0s
#36000
0!
0J
0i
0j
1E#
#37000
1!
1J
1i
1j
0E#
16"
0f"
0k
1p
0q
1r
1s
#38000
0!
0J
0i
0j
1E#
#39000
1!
1J
1i
1j
0E#
14"
06"
05"
1t
0A#
1e"
1f"
0d"
0n
1k
0p
1l
1q
0r
0s
1u
0l"
1m"
1v
1s
0u
0q
0v
#40000
0!
0?
0J
0I
09!
0i
0j
1F#
1E#
0:!
#41000
1!
1J
1i
1j
0E#
16"
0;!
0f"
0k
1p
0l
1l"
1q
#42000
0!
0J
0i
0j
1E#
#43000
1!
1J
1i
1j
0E#
06"
15"
0<!
1q"
0e"
1f"
1k
0p
0q
1r
0s
1u
1q
0r
1s
0u
1v
0v
#44000
0!
0J
0i
0j
1E#
#45000
1!
1J
1i
1j
0E#
16"
0=!
0@!
1>#
1r"
0f"
0k
1p
0q
1r
0s
1u
1v
#46000
0!
0J
0i
0j
1E#
#47000
1!
1J
1i
1j
0E#
04"
06"
05"
0t
13"
0c"
1A#
1e"
1f"
1d"
1k
0p
1l
1q
0r
1s
0u
0v
1w
0l"
0x
1z
1v
0w
0s
0q
1x
0z
1{
0{
#48000
0!
0J
0i
0j
1E#
#49000
1!
1J
1i
1j
0E#
16"
0f"
0k
1p
0l
1l"
1q
#50000
0!
1?
0J
1I
19!
0i
0j
0F#
1E#
1:!
#51000
1!
1J
1i
1j
0E#
06"
15"
1;!
0e"
1f"
1k
0p
0q
1r
1s
1q
0r
0s
#52000
0!
0J
0i
0j
1E#
#53000
1!
1J
1i
1j
0E#
16"
1<!
0q"
0f"
0k
1p
1H!
1I!
1J!
0P!
1p"
0q
1r
1s
#54000
0!
0J
0i
0j
1E#
1V"
0x"
0I!
0J!
1K!
1{!
#55000
1!
1J
1i
1j
0E#
14"
06"
05"
1t
1=!
1@!
0>#
0r"
0A#
1e"
1f"
0d"
1k
0p
1l
1q
0r
0s
1u
0H!
0K!
1P!
0p"
0l"
0v
1w
1s
0u
0q
1v
0w
0x
1z
1{
1x
0z
0{
#56000
0!
0J
0i
0j
1E#
#57000
1!
1J
1i
1j
0E#
16"
0f"
0k
1p
0l
1l"
1q
#58000
0!
0J
0i
0j
1E#
#59000
1!
1J
1i
1j
0E#
06"
15"
0e"
1f"
1k
0p
0q
1r
0s
1u
1q
0r
1s
0u
0v
1w
0x
1z
1v
0w
1x
0z
1{
0{
#60000
0!
0?
0J
0I
09!
0i
0j
1F#
1E#
0:!
#61000
1!
1J
1i
1j
0E#
16"
0;!
0f"
0k
1p
0q
1r
0s
1u
0v
1w
0x
1z
1{
#62000
0!
0J
0i
0j
1E#
#63000
1!
1J
1i
1j
0E#
02"
11"
04"
06"
05"
0t
03"
0y
1|
0<!
1q"
0B#
1@#
1c"
1A#
1e"
1f"
1d"
0a"
1b"
16!
1k
0p
1l
1q
0r
1s
0u
1v
0w
1x
0z
0{
1}
0l"
0k"
1~
1{
0}
0x
0v
0s
0q
0~
#64000
0!
0J
0i
0j
1E#
#65000
1!
1J
1i
1j
0E#
16"
0=!
0@!
1>#
1r"
0f"
0k
1p
0l
1l"
1q
#66000
0!
0J
0i
0j
1E#
#67000
1!
1J
1i
1j
0E#
06"
15"
0e"
1f"
1k
0p
0q
1r
1s
1q
0r
0s
#68000
0!
0J
0i
0j
1E#
#69000
1!
1J
1i
1j
0E#
16"
0f"
0k
1p
0q
1r
1s
#70000
0!
1?
0J
1I
19!
0i
0j
0F#
1E#
1:!
#71000
1!
1J
1i
1j
0E#
14"
06"
05"
1t
1;!
0A#
1e"
1f"
0d"
1k
0p
1l
1q
0r
0s
1u
0l"
1v
1s
0u
0q
0v
#72000
0!
0J
0i
0j
1E#
#73000
1!
1J
1i
1j
0E#
16"
1<!
0q"
0f"
0k
1p
0l
1H!
1K!
0P!
1p"
1l"
1q
#74000
0!
0J
0i
0j
1E#
0V"
0U"
1T"
0v"
1w"
1x"
0{!
1I!
1y!
#75000
1!
1J
1i
1j
0E#
06"
15"
1=!
1@!
0>#
0r"
0e"
1f"
1k
0p
0q
1r
0H!
0I!
0K!
1P!
0p"
0s
1u
1q
0r
1s
0u
1v
0v
#76000
0!
0J
0i
0j
1E#
#77000
1!
1J
1i
1j
0E#
16"
0f"
0k
1p
0q
1r
0s
1u
1v
#78000
0!
0J
0i
0j
1E#
#79000
1!
1J
1i
1j
0E#
04"
06"
05"
0t
13"
0c"
1A#
1e"
1f"
1d"
1k
0p
1l
1q
0r
1s
0u
0v
1w
0l"
1x
1v
0w
0s
0q
0x
#80000
0!
0?
0J
0I
09!
0i
0j
1F#
1E#
0:!
#81000
1!
1J
1i
1j
0E#
16"
0;!
0f"
0k
1p
0l
1l"
1q
#82000
0!
0J
0i
0j
1E#
#83000
1!
1J
1i
1j
0E#
06"
15"
0<!
1q"
0e"
1f"
1k
0p
0q
1r
1s
1q
0r
0s
#84000
0!
0J
0i
0j
1E#
#85000
1!
1J
1i
1j
0E#
16"
0=!
0@!
1>#
1r"
0f"
0k
1p
0q
1r
1s
#86000
0!
0J
0i
0j
1E#
#87000
1!
1J
1i
1j
0E#
14"
06"
05"
1t
0A#
1e"
1f"
0d"
1k
0p
1l
1q
0r
0s
1u
0l"
0v
1w
1s
0u
0q
1v
0w
1x
0x
#88000
0!
0J
0i
0j
1E#
#89000
1!
1J
1i
1j
0E#
16"
0f"
0k
1p
0l
1l"
1q
#90000
0!
1?
0J
1I
19!
0i
0j
0F#
1E#
1:!
#91000
1!
1J
1i
1j
0E#
06"
15"
1;!
0e"
1f"
1k
0p
0q
1r
0s
1u
1q
0r
1s
0u
0v
1w
1x
1v
0w
0x
#92000
0!
0J
0i
0j
1E#
#93000
1!
1J
1i
1j
0E#
16"
1<!
0q"
0f"
0k
1p
1H!
1I!
1K!
0P!
1p"
0q
1r
0s
1u
0v
1w
1x
#94000
0!
0J
0i
0j
1E#
1V"
0x"
0I!
1J!
1{!
#95000
1!
1J
1i
1j
0E#
12"
04"
06"
05"
0t
03"
1y
1=!
1@!
0>#
0r"
0@#
1c"
1A#
1e"
1f"
1d"
0b"
06!
1k
0p
1l
1q
0r
1s
0u
1v
0w
0x
1z
0J!
0H!
0K!
1P!
0p"
0l"
1k"
0{
1}
1x
0z
0v
0s
0q
1{
0}
1~
0~
#96000
0!
0J
0i
0j
1E#
#97000
1!
1J
1i
1j
0E#
16"
0f"
0k
1p
0l
1l"
1q
#98000
0!
0J
0i
0j
1E#
#99000
1!
1J
1i
1j
0E#
06"
15"
0e"
1f"
1k
0p
0q
1r
1s
1q
0r
0s
#100000
0!
0?
0J
0I
09!
0i
0j
1F#
1E#
0:!
#101000
1!
1J
1i
1j
0E#
16"
0;!
0f"
0k
1p
0q
1r
1s
#102000
0!
0J
0i
0j
1E#
#103000
1!
1J
1i
1j
0E#
14"
06"
05"
1t
0<!
1q"
0A#
1e"
1f"
0d"
1k
0p
1l
1q
0r
0s
1u
0l"
1v
1s
0u
0q
0v
#104000
0!
0J
0i
0j
1E#
#105000
1!
1J
1i
1j
0E#
16"
0=!
0@!
1>#
1r"
0f"
0k
1p
0l
1l"
1q
#106000
0!
0J
0i
0j
1E#
#107000
1!
1J
1i
1j
0E#
06"
15"
0e"
1f"
1k
0p
0q
1r
0s
1u
1q
0r
1s
0u
1v
0v
#108000
0!
0J
0i
0j
1E#
#109000
1!
1J
1i
1j
0E#
16"
0f"
0k
1p
0q
1r
0s
1u
1v
#110000
0!
1?
0J
1I
19!
0i
0j
0F#
1E#
1:!
#111000
1!
1J
1i
1j
0E#
04"
06"
05"
0t
13"
1;!
0c"
1A#
1e"
1f"
1d"
1k
0p
1l
1q
0r
1s
0u
0v
1w
0l"
0x
1z
1v
0w
0s
0q
1x
0z
0{
1}
1~
1{
0}
0~
#112000
0!
0J
0i
0j
1E#
#113000
1!
1J
1i
1j
0E#
16"
1<!
0q"
0f"
0k
1p
0l
1H!
1J!
1K!
0P!
1p"
1l"
1q
#114000
0!
0J
0i
0j
1E#
0V"
1U"
0w"
1x"
0{!
1I!
