modules/hw5_3/simulation/qsim/pulse_conditioner.msim.vcd
$comment
	File created using the following command:
		vcd file pulse_conditioner.msim.vcd -direction
$end
$date
	Wed May 24 01:18:51 2023
$end
$version
	ModelSim Version 10.5b
$end
$timescale
	1ps
$end

$scope module pulse_conditioner_vhd_vec_tst $end
$var wire 1 ! clk $end
$var wire 1 " pulse_in $end
$var wire 1 # pulse_out $end

$scope module i1 $end
$var wire 1 $ gnd $end
$var wire 1 % vcc $end
$var wire 1 & unknown $end
$var wire 1 ' devoe $end
$var wire 1 ( devclrn $end
$var wire 1 ) devpor $end
$var wire 1 * ww_devoe $end
$var wire 1 + ww_devclrn $end
$var wire 1 , ww_devpor $end
$var wire 1 - ww_clk $end
$var wire 1 . ww_pulse_in $end
$var wire 1 / ww_pulse_out $end
$var wire 1 0 \~QUARTUS_CREATED_GND~I_combout\ $end
$var wire 1 1 \clk~input_o\ $end
$var wire 1 2 \clk~inputCLKENA0_outclk\ $end
$var wire 1 3 \pulse_in~input_o\ $end
$var wire 1 4 \q0~q\ $end
$var wire 1 5 \q1~feeder_combout\ $end
$var wire 1 6 \q1~q\ $end
$var wire 1 7 \q2~q\ $end
$var wire 1 8 \pulse_out~0_combout\ $end
$var wire 1 9 \ALT_INV_q2~q\ $end
$var wire 1 : \ALT_INV_q1~q\ $end
$var wire 1 ; \ALT_INV_q0~q\ $end
$upscope $end
$upscope $end
$enddefinitions $end
#0
$dumpvars
0!
0"
0#
0$
1%
x&
1'
1(
1)
1*
1+
1,
0-
0.
0/
x0
01
02
03
04
05
06
07
08
19
1:
1;
$end
#500
1!
1-
11
12
#1000
0!
0-
01
02
#1500
1!
1-
11
12
#2000
0!
0-
01
02
#2500
1!
1-
11
12
#3000
0!
0-
01
02
#3500
1!
1-
11
12
#4000
0!
0-
01
02
#4500
1!
1-
11
12
#5000
0!
1"
0-
1.
13
01
02
#5500
1!
1-
11
12
14
0;
15
#6000
0!
0-
01
02
#6500
1!
1-
11
12
16
0:
18
1/
1#
#7000
0!
0-
01
02
#7500
1!
1-
11
12
17
09
08
0/
0#
#8000
0!
0-
01
02
#8500
1!
1-
11
12
#9000
0!
0-
01
02
#9500
1!
1-
11
12
#10000
0!
0"
0-
0.
03
01
02
#10500
1!
1-
11
12
04
1;
05
#11000
0!
0-
01
02
#11500
1!
1-
11
12
06
1:
#12000
0!
0-
01
02
#12500
1!
1-
11
12
07
19
#13000
0!
0-
01
02
#13500
1!
1-
11
12
#14000
0!
0-
01
02
#14500
1!
1-
11
12
#15000
0!
1"
0-
1.
13
01
02
#15500
1!
1-
11
12
14
0;
15
#16000
0!
0-
01
02
#16500
1!
1-
11
12
16
0:
18
1/
1#
#17000
0!
0-
01
02
#17500
1!
1-
11
12
17
09
08
0/
0#
#18000
0!
0-
01
02
#18500
1!
1-
11
12
#19000
0!
0-
01
02
#19500
1!
1-
11
12
#20000
0!
0"
0-
0.
03
01
02
#20500
1!
1-
11
12
04
1;
05
#21000
0!
0-
01
02
#21500
1!
1-
11
12
06
1:
#22000
0!
0-
01
02
#22500
1!
1-
11
12
07
19
#23000
0!
0-
01
02
#23500
1!
1-
11
12
#24000
0!
0-
01
02
#24500
1!
1-
11
12
#25000
0!
1"
0-
1.
13
01
02
#25500
1!
1-
11
12
14
0;
15
#26000
0!
0-
01
02
#26500
1!
1-
11
12
16
0:
18
1/
1#
#27000
0!
0-
01
02
#27500
1!
1-
11
12
17
09
08
0/
0#
#28000
0!
0-
01
02
#28500
1!
1-
11
12
#29000
0!
0-
01
02
#29500
1!
1-
11
12
#30000
0!
0"
0-
0.
03
01
02
#30500
1!
1-
11
12
04
1;
05
#31000
0!
0-
01
02
#31500
1!
1-
11
12
06
1:
#32000
0!
0-
01
02
#32500
1!
1-
11
12
07
19
#33000
0!
0-
01
02
#33500
1!
1-
11
12
#34000
0!
0-
01
02
#34500
1!
1-
11
12
#35000
0!
1"
0-
1.
13
01
02
#35500
1!
1-
11
12
14
0;
15
#36000
0!
0-
01
02
#36500
1!
1-
11
12
16
0:
18
1/
1#
#37000
0!
0-
01
02
#37500
1!
1-
11
12
17
09
08
0/
0#
#38000
0!
0-
01
02
#38500
1!
1-
11
12
#39000
0!
0-
01
02
#39500
1!
1-
11
12
#40000
0!
0"
0-
0.
03
01
02
#40500
1!
1-
11
12
04
1;
05
#41000
0!
0-
01
02
#41500
1!
1-
11
12
06
1:
#42000
0!
0-
01
02
#42500
1!
1-
11
12
07
19
#43000
0!
0-
01
02
#43500
1!
1-
11
12
#44000
0!
0-
01
02
#44500
1!
1-
11
12
#45000
0!
1"
0-
1.
13
01
02
#45500
1!
1-
11
12
14
0;
15
#46000
0!
0-
01
02
#46500
1!
1-
11
12
16
0:
18
1/
1#
#47000
0!
0-
01
02
#47500
1!
1-
11
12
17
09
08
0/
0#
#48000
0!
0-
01
02
#48500
1!
1-
11
12
#49000
0!
0-
01
02
#49500
1!
1-
11
12
#50000
0!
0"
0-
0.
03
01
02
#50500
1!
1-
11
12
04
1;
05
#51000
0!
0-
01
02
#51500
1!
1-
11
12
06
1:
#52000
0!
0-
01
02
#52500
1!
1-
11
12
07
19
#53000
0!
0-
01
02
#53500
1!
1-
11
12
#54000
0!
0-
01
02
#54500
1!
1-
11
12
#55000
0!
1"
0-
1.
13
01
02
#55500
1!
1-
11
12
14
0;
15
#56000
0!
0-
01
02
#56500
1!
1-
11
12
16
0:
18
1/
1#
#57000
0!
0-
01
02
#57500
1!
1-
11
12
17
09
08
0/
0#
#58000
0!
0-
01
02
#58500
1!
1-
11
12
#59000
0!
0-
01
02
#59500
1!
1-
11
12
#60000
0!
0"
0-
0.
03
01
02
#60500
1!
1-
11
12
04
1;
05
#61000
0!
0-
01
02
#61500
1!
1-
11
12
06
1:
#62000
0!
0-
01
02
#62500
1!
1-
11
12
07
19
#63000
0!
0-
01
02
#63500
1!
1-
11
12
#64000
0!
0-
01
02
#64500
1!
1-
11
12
#65000
0!
1"
0-
1.
13
01
02
#65500
1!
1-
11
12
14
0;
15
#66000
0!
0-
01
02
#66500
1!
1-
11
12
16
0:
18
1/
1#
#67000
0!
0-
01
02
#67500
1!
1-
11
12
17
09
08
0/
0#
#68000
0!
0-
01
02
#68500
1!
1-
11
12
#69000
0!
0-
01
02
#69500
1!
1-
11
12
#70000
0!
0"
0-
0.
03
01
02
#70500
1!
1-
11
12
04
1;
05
#71000
0!
0-
01
02
#71500
1!
1-
11
12
06
1:
#72000
0!
0-
01
02
#72500
1!
1-
11
12
07
19
#73000
0!
0-
01
02
#73500
1!
1-
11
12
#74000
0!
0-
01
02
#74500
1!
1-
11
12
#75000
0!
1"
0-
1.
13
01
02
#75500
1!
1-
11
12
14
0;
15
#76000
0!
0-
01
02
#76500
1!
1-
11
12
16
0:
18
1/
1#
#77000
0!
0-
01
02
#77500
1!
1-
11
12
17
09
08
0/
0#
#78000
0!
0-
01
02
#78500
1!
1-
11
12
#79000
0!
0-
01
02
#79500
1!
1-
11
12
#80000
0!
0"
0-
0.
03
01
02
#80500
1!
1-
11
12
04
1;
05
#81000
0!
0-
01
02
#81500
1!
1-
11
12
06
1:
#82000
0!
0-
01
02
#82500
1!
1-
11
12
07
19
#83000
0!
0-
01
02
#83500
1!
1-
11
12
#84000
0!
0-
01
02
#84500
1!
1-
11
12
#85000
0!
1"
0-
1.
13
01
02
#85500
1!
1-
11
12
14
0;
15
#86000
0!
0-
01
02
#86500
1!
1-
11
12
16
0:
18
1/
1#
#87000
0!
0-
01
02
#87500
1!
1-
11
12
17
09
08
0/
0#
#88000
0!
0-
01
02
#88500
1!
1-
11
12
#89000
0!
0-
01
02
#89500
1!
1-
11
12
#90000
0!
0"
0-
0.
03
01
02
#90500
1!
1-
11
12
04
1;
05
#91000
0!
0-
01
02
#91500
1!
1-
11
12
06
1:
#92000
0!
0-
01
02
#92500
1!
1-
11
12
07
19
#93000
0!
0-
01
02
#93500
1!
1-
11
12
#94000
0!
0-
01
02
#94500
1!
1-
11
12
#95000
0!
1"
0-
1.
13
01
02
#95500
1!
1-
11
12
14
0;
15
#96000
0!
0-
01
02
#96500
1!
1-
11
12
16
0:
18
1/
1#
#97000
0!
0-
01
02
#97500
1!
1-
11
12
17
09
08
0/
0#
#98000
0!
0-
01
02
#98500
1!
1-
11
12
#99000
0!
0-
01
02
#99500
1!
1-
11
12
#100000
0!
0"
0-
0.
03
01
02
#100500
1!
1-
11
12
04
1;
05
#101000
0!
0-
01
02
#101500
1!
1-
11
12
06
1:
#102000
0!
0-
01
02
#102500
1!
1-
11
12
07
19
#103000
0!
0-
01
02
#103500
1!
1-
11
12
#104000
0!
0-
01
02
#104500
1!
1-
11
12
#105000
0!
1"
0-
1.
13
01
02
#105500
1!
1-
11
12
14
0;
15
#106000
0!
0-
01
02
#106500
1!
1-
11
12
16
0:
18
1/
1#
#107000
0!
0-
01
02
#107500
1!
1-
11
12
17
09
08
0/
0#
#108000
0!
0-
01
02
#108500
1!
1-
11
12
#109000
0!
0-
01
02
#109500
1!
1-
11
12
#110000
0!
0"
0-
0.
03
01
02
#110500
1!
1-
11
12
04
1;
05
#111000
0!
0-
01
02
#111500
1!
1-
11
12
06
1:
#112000
0!
0-
01
02
#112500
1!
1-
11
12
07
19
#113000
0!
0-
01
02
#113500
1!
1-
11
12
#114000
0!
0-
01
02
#114500
1!
1-
11
12
#115000
0!
1"
0-
1.
13
01
02
#115500
1!
1-
11
12
14
0;
15
#116000
0!
0-
01
02
#116500
1!
1-
11
12
16
0:
18
1/
1#
#117000
0!
0-
01
02
#117500
1!
1-
11
12
17
09
08
0/
0#
#118000
0!
0-
01
02
#118500
1!
1-
11
12
#119000
0!
0-
01
02
#119500
1!
1-
11
12
#120000
0!
0"
0-
0.
03
01
02
#120500
1!
1-
11
12
04
1;
05
#121000
0!
0-
01
02
#121500
1!
1-
11
12
06
1:
#122000
0!
0-
01
02
#122500
1!
1-
11
12
07
19
#123000
0!
0-
01
02
#123500
1!
1-
11
12
#124000
0!
0-
01
02
#124500
1!
1-
11
12
#125000
0!
1"
0-
1.
13
01
02
#125500
1!
1-
11
12
14
0;
15
#126000
0!
0-
01
02
#126500
1!
1-
11
12
16
0:
18
1/
1#
#127000
0!
0-
01
02
#127500
1!
1-
11
12
17
09
08
0/
0#
#128000
0!
0-
01
02
#128500
1!
1-
11
12
#129000
0!
0-
01
02
#129500
1!
1-
11
12
#130000
0!
0"
0-
0.
03
01
02
#130500
1!
1-
11
12
04
1;
05
#131000
0!
0-
01
02
#131500
1!
1-
11
12
06
1:
#132000
0!
0-
01
02
#132500
1!
1-
11
12
07
19
#133000
0!
0-
01
02
#133500
1!
1-
11
12
#134000
0!
0-
01
02
#134500
1!
1-
11
12
#135000
0!
1"
0-
1.
13
01
02
#135500
1!
1-
11
12
14
0;
15
#136000
0!
0-
01
02
#136500
1!
1-
11
12
16
0:
18
1/
1#
#137000
0!
0-
01
02
#137500
1!
1-
11
12
17
09
08
0/
0#
#138000
0!
0-
01
02
#138500
1!
1-
11
12
#139000
0!
0-
01
02
#139500
1!
1-
11
12
#140000
0!
0"
0-
0.
03
01
02
#140500
1!
1-
11
12
04
1;
05
#141000
0!
0-
01
02
#141500
1!
1-
11
12
06
1:
#142000
0!
0-
01
02
#142500
1!
1-
11
12
07
19
#143000
0!
0-
01
02
#143500
1!
1-
11
12
#144000
0!
0-
01
02
#144500
1!
1-
11
12
#145000
0!
1"
0-
1.
13
01
02
#145500
1!
1-
11
12
14
0;
15
#146000
0!
0-
01
02
#146500
1!
1-
11
12
16
0:
18
1/
1#
#147000
0!
0-
01
02
#147500
1!
1-
11
12
17
09
08
0/
0#
#148000
0!
0-
01
02
#148500
1!
1-
11
12
#149000
0!
0-
01
02
#149500
1!
1-
11
12
#150000
0!
0"
0-
0.
03
01
02
#150500
1!
1-
11
12
04
1;
05
#151000
0!
0-
01
02
#151500
1!
1-
11
12
06
1:
#152000
0!
0-
01
02
#152500
1!
1-
11
12
07
19
#153000
0!
0-
01
02
#153500
1!
1-
11
12
#154000
0!
0-
01
02
#154500
1!
1-
11
12
#155000
0!
1"
0-
1.
13
01
02
#155500
1!
1-
11
12
14
0;
15
#156000
0!
0-
01
02
#156500
1!
1-
11
12
16
0:
18
1/
1#
#157000
0!
0-
01
02
#157500
1!
1-
11
12
17
09
08
0/
0#
#158000
0!
0-
01
02
#158500
1!
1-
11
12
#159000
0!
0-
01
02
#159500
1!
1-
11
12
#160000
0!
0"
0-
0.
03
01
02
#160500
1!
1-
11
12
04
1;
05
#161000
0!
0-
01
02
#161500
1!
1-
11
12
06
1:
#162000
0!
0-
01
02
#162500
1!
1-
11
12
07
19
#163000
0!
0-
01
02
#163500
1!
1-
11
12
#164000
0!
0-
01
02
#164500
1!
1-
11
12
#165000
0!
1"
0-
1.
13
01
02
#165500
1!
1-
11
12
14
0;
15
#166000
0!
0-
01
02
#166500
1!
1-
11
12
16
0:
18
1/
1#
#167000
0!
0-
01
02
#167500
1!
1-
11
12
17
09
08
0/
0#
#168000
0!
0-
01
02
#168500
1!
1-
11
12
#169000
0!
0-
01
02
#169500
1!
1-
11
12
#170000
0!
0"
0-
0.
03
01
02
#170500
1!
1-
11
12
04
1;
05
#171000
0!
0-
01
02
#171500
1!
1-
11
12
06
1:
#172000
0!
0-
01
02
#172500
1!
1-
11
12
07
19
#173000
0!
0-
01
02
#173500
1!
1-
11
12
#174000
0!
0-
01
02
#174500
1!
1-
11
12
#175000
0!
1"
0-
1.
13
01
02
#175500
1!
1-
11
12
14
0;
15
#176000
0!
0-
01
02
#176500
1!
1-
11
12
16
0:
18
1/
1#
#177000
0!
0-
01
02
#177500
1!
1-
11
12
17
09
08
0/
0#
#178000
0!
0-
01
02
#178500
1!
1-
11
12
#179000
0!
0-
01
02
#179500
1!
1-
11
12
#180000
0!
0"
0-
0.
03
01
02
#180500
1!
1-
11
12
04
1;
05
#181000
0!
0-
01
02
#181500
1!
1-
11
12
06
1:
#182000
0!
0-
01
02
#182500
1!
1-
11
12
07
19
#183000
0!
0-
01
02
#183500
1!
1-
11
12
#184000
0!
0-
01
02
#184500
1!
1-
11
12
#185000
0!
1"
0-
1.
13
01
02
#185500
1!
1-
11
12
14
0;
15
#186000
0!
0-
01
02
#186500
1!
1-
11
12
16
0:
18
1/
1#
#187000
0!
0-
01
02
#187500
1!
1-
11
12
17
09
08
0/
0#
#188000
0!
0-
01
02
#188500
1!
1-
11
12
#189000
0!
0-
01
02
#189500
1!
1-
11
12
#190000
0!
0"
0-
0.
03
01
02
#190500
1!
1-
11
12
04
1;
05
#191000
0!
0-
01
02
#191500
1!
1-
11
12
06
1:
#192000
0!
0-
01
02
#192500
1!
1-
11
12
07
19
#193000
0!
0-
01
02
#193500
1!
1-
11
12
#194000
0!
0-
01
02
#194500
1!
1-
11
12
#195000
0!
1"
0-
1.
13
01
02
#195500
1!
1-
11
12
14
0;
15
#196000
0!
0-
01
02
#196500
1!
1-
11
12
16
0:
18
1/
1#
#197000
0!
0-
01
02
#197500
1!
1-
11
12
17
09
08
0/
0#
#198000
0!
0-
01
02
#198500
1!
1-
11
12
#199000
0!
0-
01
02
#199500
1!
1-
11
12
#200000
0!
0"
0-
0.
03
01
02
#200500
1!
1-
11
12
04
1;
05
#201000
0!
0-
01
02
#201500
1!
1-
11
12
06
1:
#202000
0!
0-
01
02
#202500
1!
1-
11
12
07
19
#203000
0!
0-
01
02
#203500
1!
1-
11
12
#204000
0!
0-
01
02
#204500
1!
1-
11
12
#205000
0!
1"
0-
1.
13
01
02
#205500
1!
1-
11
12
14
0;
15
#206000
0!
0-
01
02
#206500
1!
1-
11
12
16
0:
18
1/
1#
#207000
0!
0-
01
02
#207500
1!
1-
11
12
17
09
08
0/
0#
#208000
0!
0-
01
02
#208500
1!
1-
11
12
#209000
0!
0-
01
02
#209500
1!
1-
11
12
#210000
0!
0"
0-
0.
03
01
02
#210500
1!
1-
11
12
04
1;
05
#211000
0!
0-
01
02
#211500
1!
1-
11
12
06
1:
#212000
0!
0-
01
02
#212500
1!
1-
11
12
07
19
#213000
0!
0-
01
02
#213500
1!
1-
11
12
#214000
0!
0-
01
02
#214500
1!
1-
11
12
#215000
0!
1"
0-
1.
13
01
02
#215500
1!
1-
11
12
14
0;
15
#216000
0!
0-
01
02
#216500
1!
1-
11
12
16
0:
18
1/
1#
#217000
0!
0-
01
02
#217500
1!
1-
11
12
17
09
08
0/
0#
#218000
0!
0-
01
02
#218500
1!
1-
11
12
#219000
0!
0-
01
02
#219500
1!
1-
11
12
#220000
0!
0"
0-
0.
03
01
02
#220500
1!
1-
11
12
04
1;
05
#221000
0!
0-
01
02
#221500
1!
1-
11
12
06
1:
#222000
0!
0-
01
02
#222500
1!
1-
11
12
07
19
#223000
0!
0-
01
02
#223500
1!
1-
11
12
#224000
0!
0-
01
02
#224500
1!
1-
11
12
#225000
0!
1"
0-
1.
13
01
02
#225500
1!
1-
11
12
14
0;
15
#226000
0!
0-
01
02
#226500
1!
1-
11
12
16
0:
18
1/
1#
#227000
0!
0-
01
02
#227500
1!
1-
11
12
17
09
08
0/
0#
#228000
0!
0-
01
02
#228500
1!
1-
11
12
#229000
0!
0-
01
02
#229500
1!
1-
11
12
#230000
0!
0"
0-
0.
03
01
02
#230500
1!
1-
11
12
04
1;
05
#231000
0!
0-
01
02
#231500
1!
1-
11
12
06
1:
#232000
0!
0-
01
02
#232500
1!
1-
11
12
07
19
#233000
0!
0-
01
02
#233500
1!
1-
11
12
#234000
0!
0-
01
02
#234500
1!
1-
11
12
#235000
0!
1"
0-
1.
13
01
02
#235500
1!
1-
11
12
14
0;
15
#236000
0!
0-
01
02
#236500
1!
1-
11
12
16
0:
18
1/
1#
#237000
0!
0-
01
02
#237500
1!
1-
11
12
17
09
08
0/
0#
#238000
0!
0-
01
02
#238500
1!
1-
11
12
#239000
0!
0-
01
02
#239500
1!
1-
11
12
#240000
0!
0"
0-
0.
03
01
02
#240500
1!
1-
11
12
04
1;
05
#241000
0!
0-
01
02
#241500
1!
1-
11
12
06
1:
#242000
0!
0-
01
02
#242500
1!
1-
11
12
07
19
#243000
0!
0-
01
02
#243500
1!
1-
11
12
#244000
0!
0-
01
02
#244500
1!
1-
11
12
#245000
0!
1"
0-
1.
13
01
02
#245500
1!
1-
11
12
14
0;
15
#246000
0!
0-
01
02
#246500
1!
1-
11
12
16
0:
18
1/
1#
#247000
0!
0-
01
02
#247500
1!
1-
11
12
17
09
08
0/
0#
#248000
0!
0-
01
02
#248500
1!
1-
11
12
#249000
0!
0-
01
02
#249500
1!
1-
11
12
#250000
0!
0"
0-
0.
03
01
02
#250500
1!
1-
11
12
04
1;
05
#251000
0!
0-
01
02
#251500
1!
1-
11
12
06
1:
#252000
0!
0-
01
02
#252500
1!
1-
11
12
07
19
#253000
0!
0-
01
02
#253500
1!
1-
11
12
#254000
0!
0-
01
02
#254500
1!
1-
11
12
#255000
0!
1"
0-
1.
13
01
02
#255500
1!
1-
11
12
14
0;
15
#256000
0!
0-
01
02
#256500
1!
1-
11
12
16
0:
18
1/
1#
#257000
0!
0-
01
02
#257500
1!
1-
11
12
17
09
08
0/
0#
#258000
0!
0-
01
02
#258500
1!
1-
11
12
#259000
0!
0-
01
02
#259500
1!
1-
11
12
#260000
0!
0"
0-
0.
03
01
02
#260500
1!
1-
11
12
04
1;
05
#261000
0!
0-
01
02
#261500
1!
1-
11
12
06
1:
#262000
0!
0-
01
02
#262500
1!
1-
11
12
07
19
#263000
0!
0-
01
02
#263500
1!
1-
11
12
#264000
0!
0-
01
02
#264500
1!
1-
11
12
#265000
0!
1"
0-
1.
13
01
02
#265500
1!
1-
11
12
14
0;
15
#266000
0!
0-
01
02
#266500
1!
1-
11
12
16
0:
18
1/
1#
#267000
0!
0-
01
02
#267500
1!
1-
11
12
17
09
08
0/
0#
#268000
0!
0-
01
02
#268500
1!
1-
11
12
#269000
0!
0-
01
02
#269500
1!
1-
11
12
#270000
0!
0"
0-
0.
03
01
02
#270500
1!
1-
11
12
04
1;
05
#271000
0!
0-
01
02
#271500
1!
1-
11
12
06
1:
#272000
0!
0-
01
02
#272500
1!
1-
11
12
07
19
#273000
0!
0-
01
02
#273500
1!
1-
11
12
#274000
0!
0-
01
02
#274500
1!
1-
11
12
#275000
0!
1"
0-
1.
13
01
02
#275500
1!
1-
11
12
14
0;
15
#276000
0!
0-
01
02
#276500
1!
1-
11
12
16
0:
18
1/
1#
#277000
0!
0-
01
02
#277500
1!
1-
11
12
17
09
08
0/
0#
#278000
0!
0-
01
02
#278500
1!
1-
11
12
#279000
0!
0-
01
02
#279500
1!
1-
11
12
#280000
0!
0"
0-
0.
03
01
02
#280500
1!
1-
11
12
04
1;
05
#281000
0!
0-
01
02
#281500
1!
1-
11
12
06
1:
#282000
0!
0-
01
02
#282500
1!
1-
11
12
07
19
#283000
0!
0-
01
02
#283500
1!
1-
11
12
#284000
0!
0-
01
02
#284500
1!
1-
11
12
#285000
0!
1"
0-
1.
13
01
02
#285500
1!
1-
11
12
14
0;
15
#286000
0!
0-
01
02
#286500
1!
1-
11
12
16
0:
18
1/
1#
#287000
0!
0-
01
02
#287500
1!
1-
11
12
17
09
08
0/
0#
#288000
0!
0-
01
02
#288500
1!
1-
11
12
#289000
0!
0-
01
02
#289500
1!
1-
11
12
#290000
0!
0"
0-
0.
03
01
02
#290500
1!
1-
11
12
04
1;
05
#291000
0!
0-
01
02
#291500
1!
1-
11
12
06
1:
#292000
0!
0-
01
02
#292500
1!
1-
11
12
07
19
#293000
0!
0-
01
02
#293500
1!
1-
11
12
#294000
0!
0-
01
02
#294500
1!
1-
11
12
#295000
0!
1"
0-
1.
13
01
02
#295500
1!
1-
11
12
14
0;
15
#296000
0!
0-
01
02
#296500
1!
1-
11
12
16
0:
18
1/
1#
#297000
0!
0-
01
02
#297500
1!
1-
11
12
17
09
08
0/
0#
#298000
0!
0-
01
02
#298500
1!
1-
11
12
#299000
0!
0-
01
02
#299500
1!
1-
11
12
#300000
0!
0"
0-
0.
03
01
02
#300500
1!
1-
11
12
04
1;
05
#301000
0!
0-
01
02
#301500
1!
1-
11
12
06
1:
#302000
0!
0-
01
02
#302500
1!
1-
11
12
07
19
#303000
0!
0-
01
02
#303500
1!
1-
11
12
#304000
0!
0-
01
02
#304500
1!
1-
11
12
#305000
0!
1"
0-
1.
13
01
02
#305500
1!
1-
11
12
14
0;
15
#306000
0!
0-
01
02
#306500
1!
1-
11
12
16
0:
18
1/
1#
#307000
0!
0-
01
02
#307500
1!
1-
11
12
17
09
08
0/
0#
#308000
0!
0-
01
02
#308500
1!
1-
11
12
#309000
0!
0-
01
02
#309500
1!
1-
11
12
#310000
0!
0"
0-
0.
03
01
02
#310500
1!
1-
11
12
04
1;
05
#311000
0!
0-
01
02
#311500
1!
1-
11
12
06
1:
#312000
0!
0-
01
02
#312500
1!
1-
11
12
07
19
#313000
0!
0-
01
02
#313500
1!
1-
11
12
#314000
0!
0-
01
02
#314500
1!
1-
11
12
#315000
0!
1"
0-
1.
13
01
02
#315500
1!
1-
11
12
14
0;
15
#316000
0!
0-
01
02
#316500
1!
1-
11
12
16
0:
18
1/
1#
#317000
0!
0-
01
02
#317500
1!
1-
11
12
17
09
08
0/
0#
#318000
0!
0-
01
02
#318500
1!
1-
11
12
#319000
0!
0-
01
02
#319500
1!
1-
11
12
#320000
0!
0"
0-
0.
03
01
02
#320500
1!
1-
11
12
04
1;
05
#321000
0!
0-
01
02
#321500
1!
1-
11
12
06
1:
#322000
0!
0-
01
02
#322500
1!
1-
11
12
07
19
#323000
0!
0-
01
02
#323500
1!
1-
11
12
#324000
0!
0-
01
02
#324500
1!
1-
11
12
#325000
0!
1"
0-
1.
13
01
02
#325500
1!
1-
11
12
14
0;
15
#326000
0!
0-
01
02
#326500
1!
1-
11
12
16
0:
18
1/
1#
#327000
0!
0-
01
02
#327500
1!
1-
11
12
17
09
08
0/
0#
#328000
0!
0-
01
02
#328500
1!
1-
11
12
#329000
0!
0-
01
02
#329500
1!
1-
11
12
#330000
0!
0"
0-
0.
03
01
02
#330500
1!
1-
11
12
04
1;
05
#331000
0!
0-
01
02
#331500
1!
1-
11
12
06
1:
#332000
0!
0-
01
02
#332500
1!
1-
11
12
07
19
#333000
0!
0-
01
02
#333500
1!
1-
11
12
#334000
0!
0-
01
02
#334500
1!
1-
11
12
#335000
0!
1"
0-
1.
13
01
02
#335500
1!
1-
11
12
14
0;
15
#336000
0!
0-
01
02
#336500
1!
1-
11
12
16
0:
18
1/
1#
#337000
0!
0-
01
02
#337500
1!
1-
11
12
17
09
08
0/
0#
#338000
0!
0-
01
02
#338500
1!
1-
11
12
#339000
0!
0-
01
02
#339500
1!
1-
11
12
#340000
0!
0"
0-
0.
03
01
02
#340500
1!
1-
11
12
04
1;
05
#341000
0!
0-
01
02
#341500
1!
1-
11
12
06
1:
#342000
0!
0-
01
02
#342500
1!
1-
11
12
07
19
#343000
0!
0-
01
02
#343500
1!
1-
11
12
#344000
0!
0-
01
02
#344500
1!
1-
11
12
#345000
0!
1"
0-
1.
13
01
02
#345500
1!
1-
11
12
14
0;
15
#346000
0!
0-
01
02
#346500
1!
1-
11
12
16
0:
18
1/
1#
#347000
0!
0-
01
02
#347500
1!
1-
11
12
17
09
08
0/
0#
#348000
0!
0-
01
02
#348500
1!
1-
11
12
#349000
0!
0-
01
02
#349500
1!
1-
11
12
#350000
0!
0"
0-
0.
03
01
02
#350500
1!
1-
11
12
04
1;
05
#351000
0!
0-
01
02
#351500
1!
1-
11
12
06
1:
#352000
0!
0-
01
02
#352500
1!
1-
11
12
07
19
#353000
0!
0-
01
02
#353500
1!
1-
11
12
#354000
0!
0-
01
02
#354500
1!
1-
11
12
#355000
0!
1"
0-
1.
13
01
02
#355500
1!
1-
11
12
14
0;
15
#356000
0!
0-
01
02
#356500
1!
1-
11
12
16
0:
18
1/
1#
#357000
0!
0-
01
02
#357500
1!
1-
11
12
17
09
08
0/
0#
#358000
0!
0-
01
02
#358500
1!
1-
11
12
#359000
0!
0-
01
02
#359500
1!
1-
11
12
#360000
0!
0"
0-
0.
03
01
02
#360500
1!
1-
11
12
04
1;
05
#361000
0!
0-
01
02
#361500
1!
1-
11
12
06
1:
#362000
0!
0-
01
02
#362500
1!
1-
11
12
07
19
#363000
0!
0-
01
02
#363500
1!
1-
11
12
#364000
0!
0-
01
02
#364500
1!
1-
11
12
#365000
0!
1"
0-
1.
13
01
02
#365500
1!
1-
11
12
14
0;
15
#366000
0!
0-
01
02
#366500
1!
1-
11
12
16
0:
18
1/
1#
#367000
0!
0-
01
02
#367500
1!
1-
11
12
17
09
08
0/
0#
#368000
0!
0-
01
02
#368500
1!
1-
11
12
#369000
0!
0-
01
02
#369500
1!
1-
11
12
#370000
0!
0"
0-
0.
03
01
02
#370500
1!
1-
11
12
04
1;
05
#371000
0!
0-
01
02
#371500
1!
1-
11
12
06
1:
#372000
0!
0-
01
02
#372500
1!
1-
11
12
07
19
#373000
0!
0-
01
02
#373500
1!
1-
11
12
#374000
0!
0-
01
02
#374500
1!
1-
11
12
#375000
0!
1"
0-
1.
13
01
02
#375500
1!
1-
11
12
14
0;
15
#376000
0!
0-
01
02
#376500
1!
1-
11
12
16
0:
18
1/
1#
#377000
0!
0-
01
02
#377500
1!
1-
11
12
17
09
08
0/
0#
#378000
0!
0-
01
02
#378500
1!
1-
11
12
#379000
0!
0-
01
02
#379500
1!
1-
11
12
#380000
0!
0"
0-
0.
03
01
02
#380500
1!
1-
11
12
04
1;
05
#381000
0!
0-
01
02
#381500
1!
1-
11
12
06
1:
#382000
0!
0-
01
02
#382500
1!
1-
11
12
07
19
#383000
0!
0-
01
02
#383500
1!
1-
11
12
#384000
0!
0-
01
02
#384500
1!
1-
11
12
#385000
0!
1"
0-
1.
13
01
02
#385500
1!
1-
11
12
14
0;
15
#386000
0!
0-
01
02
#386500
1!
1-
11
12
16
0:
18
1/
1#
#387000
0!
0-
01
02
#387500
1!
1-
11
12
17
09
08
0/
0#
#388000
0!
0-
01
02
#388500
1!
1-
11
12
#389000
0!
0-
01
02
#389500
1!
1-
11
12
#390000
0!
0"
0-
0.
03
01
02
#390500
1!
1-
11
12
04
1;
05
#391000
0!
0-
01
02
#391500
1!
1-
11
12
06
1:
#392000
0!
0-
01
02
#392500
1!
1-
11
12
07
19
#393000
0!
0-
01
02
#393500
1!
1-
11
12
#394000
0!
0-
01
02
#394500
1!
1-
11
12
#395000
0!
1"
0-
1.
13
01
02
#395500
1!
1-
11
12
14
0;
15
#396000
0!
0-
01
02
#396500
1!
1-
11
12
16
0:
18
1/
1#
#397000
0!
0-
01
02
#397500
1!
1-
11
12
17
09
08
0/
0#
#398000
0!
0-
01
02
#398500
1!
1-
11
12
#399000
0!
0-
01
02
#399500
1!
1-
11
12
#400000
0!
0"
0-
0.
03
01
02
#400500
1!
1-
11
12
04
1;
05
#401000
0!
0-
01
02
#401500
1!
1-
11
12
06
1:
#402000
0!
0-
01
02
#402500
1!
1-
11
12
07
19
#403000
0!
0-
01
02
#403500
1!
1-
11
12
#404000
0!
0-
01
02
#404500
1!
1-
11
12
#405000
0!
1"
0-
1.
13
01
02
#405500
1!
1-
11
12
14
0;
15
#406000
0!
0-
01
02
#406500
1!
1-
11
12
16
0:
18
1/
1#
#407000
0!
0-
01
02
#407500
1!
1-
11
12
17
09
08
0/
0#
#408000
0!
0-
01
02
#408500
1!
1-
11
12
#409000
0!
0-
01
02
#409500
1!
1-
11
12
#410000
0!
0"
0-
0.
03
01
02
#410500
1!
1-
11
12
04
1;
05
#411000
0!
0-
01
02
#411500
1!
1-
11
12
06
1:
#412000
0!
0-
01
02
#412500
1!
1-
11
12
07
19
#413000
0!
0-
01
02
