modules/hw3_3/simulation/qsim/timer.msim.vcd
$comment
	File created using the following command:
		vcd file timer.msim.vcd -direction
$end
$date
	Wed May 17 14:31:03 2023
$end
$version
	ModelSim Version 10.5b
$end
$timescale
	1ps
$end

$scope module timer_vhd_vec_tst $end
$var wire 1 ! clk_in $end
$var wire 1 " clk_slow $end
$var wire 1 # counter [5] $end
$var wire 1 $ counter [4] $end
$var wire 1 % counter [3] $end
$var wire 1 & counter [2] $end
$var wire 1 ' counter [1] $end
$var wire 1 ( counter [0] $end
$var wire 1 ) rst $end
$var wire 1 * ssd0 [6] $end
$var wire 1 + ssd0 [5] $end
$var wire 1 , ssd0 [4] $end
$var wire 1 - ssd0 [3] $end
$var wire 1 . ssd0 [2] $end
$var wire 1 / ssd0 [1] $end
$var wire 1 0 ssd0 [0] $end
$var wire 1 1 ssd1 [6] $end
$var wire 1 2 ssd1 [5] $end
$var wire 1 3 ssd1 [4] $end
$var wire 1 4 ssd1 [3] $end
$var wire 1 5 ssd1 [2] $end
$var wire 1 6 ssd1 [1] $end
$var wire 1 7 ssd1 [0] $end

$scope module i1 $end
$var wire 1 8 gnd $end
$var wire 1 9 vcc $end
$var wire 1 : unknown $end
$var wire 1 ; devoe $end
$var wire 1 < devclrn $end
$var wire 1 = devpor $end
$var wire 1 > ww_devoe $end
$var wire 1 ? ww_devclrn $end
$var wire 1 @ ww_devpor $end
$var wire 1 A ww_clk_in $end
$var wire 1 B ww_rst $end
$var wire 1 C ww_clk_slow $end
$var wire 1 D ww_counter [5] $end
$var wire 1 E ww_counter [4] $end
$var wire 1 F ww_counter [3] $end
$var wire 1 G ww_counter [2] $end
$var wire 1 H ww_counter [1] $end
$var wire 1 I ww_counter [0] $end
$var wire 1 J ww_ssd0 [6] $end
$var wire 1 K ww_ssd0 [5] $end
$var wire 1 L ww_ssd0 [4] $end
$var wire 1 M ww_ssd0 [3] $end
$var wire 1 N ww_ssd0 [2] $end
$var wire 1 O ww_ssd0 [1] $end
$var wire 1 P ww_ssd0 [0] $end
$var wire 1 Q ww_ssd1 [6] $end
$var wire 1 R ww_ssd1 [5] $end
$var wire 1 S ww_ssd1 [4] $end
$var wire 1 T ww_ssd1 [3] $end
$var wire 1 U ww_ssd1 [2] $end
$var wire 1 V ww_ssd1 [1] $end
$var wire 1 W ww_ssd1 [0] $end
$var wire 1 X \~QUARTUS_CREATED_GND~I_combout\ $end
$var wire 1 Y \clk_in~input_o\ $end
$var wire 1 Z \clk_in~inputCLKENA0_outclk\ $end
$var wire 1 [ \rst~input_o\ $end
$var wire 1 \ \count[3]~2_combout\ $end
$var wire 1 ] \count~0_combout\ $end
$var wire 1 ^ \count[3]~DUPLICATE_q\ $end
$var wire 1 _ \count~1_combout\ $end
$var wire 1 ` \count~4_combout\ $end
$var wire 1 a \count[0]~DUPLICATE_q\ $end
$var wire 1 b \count[1]~3_combout\ $end
$var wire 1 c \count[1]~DUPLICATE_q\ $end
$var wire 1 d \clk_slow~0_combout\ $end
$var wire 1 e \clk_slow~reg0feeder_combout\ $end
$var wire 1 f \clk_slow~reg0_q\ $end
$var wire 1 g \Add1~2\ $end
$var wire 1 h \Add1~5_sumout\ $end
$var wire 1 i \process_1:count[1]~q\ $end
$var wire 1 j \Add1~6\ $end
$var wire 1 k \Add1~9_sumout\ $end
$var wire 1 l \process_1:count[2]~q\ $end
$var wire 1 m \Add1~10\ $end
$var wire 1 n \Add1~13_sumout\ $end
$var wire 1 o \process_1:count[3]~q\ $end
$var wire 1 p \Add1~14\ $end
$var wire 1 q \Add1~17_sumout\ $end
$var wire 1 r \process_1:count[4]~q\ $end
$var wire 1 s \Add1~18\ $end
$var wire 1 t \Add1~21_sumout\ $end
$var wire 1 u \process_1:count[5]~q\ $end
$var wire 1 v \Equal2~0_combout\ $end
$var wire 1 w \process_1:flag~0_combout\ $end
$var wire 1 x \process_1:flag~q\ $end
$var wire 1 y \Add1~1_sumout\ $end
$var wire 1 z \process_1:count[0]~q\ $end
$var wire 1 { \Mod0|auto_generated|divider|divider|add_sub_3_result_int[0]~6\ $end
$var wire 1 | \Mod0|auto_generated|divider|divider|add_sub_3_result_int[0]~7\ $end
$var wire 1 } \Mod0|auto_generated|divider|divider|add_sub_3_result_int[1]~10\ $end
$var wire 1 ~ \Mod0|auto_generated|divider|divider|add_sub_3_result_int[1]~11\ $end
$var wire 1 !! \Mod0|auto_generated|divider|divider|add_sub_3_result_int[2]~18\ $end
$var wire 1 "! \Mod0|auto_generated|divider|divider|add_sub_3_result_int[2]~19\ $end
$var wire 1 #! \Mod0|auto_generated|divider|divider|add_sub_3_result_int[3]~13_sumout\ $end
$var wire 1 $! \Mod0|auto_generated|divider|divider|add_sub_3_result_int[3]~14\ $end
$var wire 1 %! \Mod0|auto_generated|divider|divider|add_sub_3_result_int[3]~15\ $end
$var wire 1 &! \Mod0|auto_generated|divider|divider|add_sub_3_result_int[4]~1_sumout\ $end
$var wire 1 '! \Mod0|auto_generated|divider|divider|StageOut[21]~9_combout\ $end
$var wire 1 (! \Mod0|auto_generated|divider|divider|StageOut[21]~8_combout\ $end
$var wire 1 )! \Mod0|auto_generated|divider|divider|add_sub_3_result_int[2]~17_sumout\ $end
$var wire 1 *! \Mod0|auto_generated|divider|divider|add_sub_3_result_int[1]~9_sumout\ $end
$var wire 1 +! \Mod0|auto_generated|divider|divider|StageOut[19]~6_combout\ $end
$var wire 1 ,! \Mod0|auto_generated|divider|divider|StageOut[19]~7_combout\ $end
$var wire 1 -! \Mod0|auto_generated|divider|divider|add_sub_3_result_int[0]~5_sumout\ $end
$var wire 1 .! \Mod0|auto_generated|divider|divider|op_5~22_cout\ $end
$var wire 1 /! \Mod0|auto_generated|divider|divider|op_5~6\ $end
$var wire 1 0! \Mod0|auto_generated|divider|divider|op_5~10\ $end
$var wire 1 1! \Mod0|auto_generated|divider|divider|op_5~14\ $end
$var wire 1 2! \Mod0|auto_generated|divider|divider|op_5~26\ $end
$var wire 1 3! \Mod0|auto_generated|divider|divider|op_5~18\ $end
$var wire 1 4! \Mod0|auto_generated|divider|divider|op_5~1_sumout\ $end
$var wire 1 5! \Mod0|auto_generated|divider|divider|StageOut[18]~2_combout\ $end
$var wire 1 6! \Mod0|auto_generated|divider|divider|op_5~9_sumout\ $end
$var wire 1 7! \Mod0|auto_generated|divider|divider|op_5~5_sumout\ $end
$var wire 1 8! \Mod0|auto_generated|divider|divider|op_6~26_cout\ $end
$var wire 1 9! \Mod0|auto_generated|divider|divider|op_6~6\ $end
$var wire 1 :! \Mod0|auto_generated|divider|divider|op_6~10\ $end
$var wire 1 ;! \Mod0|auto_generated|divider|divider|op_6~13_sumout\ $end
$var wire 1 <! \Mod0|auto_generated|divider|divider|op_5~17_sumout\ $end
$var wire 1 =! \Mod0|auto_generated|divider|divider|op_5~25_sumout\ $end
$var wire 1 >! \Mod0|auto_generated|divider|divider|StageOut[20]~10_combout\ $end
$var wire 1 ?! \Mod0|auto_generated|divider|divider|StageOut[20]~11_combout\ $end
$var wire 1 @! \Mod0|auto_generated|divider|divider|StageOut[19]~4_combout\ $end
$var wire 1 A! \Mod0|auto_generated|divider|divider|op_5~13_sumout\ $end
$var wire 1 B! \Mod0|auto_generated|divider|divider|op_6~14\ $end
$var wire 1 C! \Mod0|auto_generated|divider|divider|op_6~18\ $end
$var wire 1 D! \Mod0|auto_generated|divider|divider|op_6~30_cout\ $end
$var wire 1 E! \Mod0|auto_generated|divider|divider|op_6~22_cout\ $end
$var wire 1 F! \Mod0|auto_generated|divider|divider|op_6~1_sumout\ $end
$var wire 1 G! \Mod0|auto_generated|divider|divider|StageOut[32]~3_combout\ $end
$var wire 1 H! \Mod0|auto_generated|divider|divider|op_6~17_sumout\ $end
$var wire 1 I! \Mod0|auto_generated|divider|divider|StageOut[33]~5_combout\ $end
$var wire 1 J! \Mod0|auto_generated|divider|divider|op_6~9_sumout\ $end
$var wire 1 K! \Mod0|auto_generated|divider|divider|StageOut[31]~1_combout\ $end
$var wire 1 L! \Mod0|auto_generated|divider|divider|op_6~5_sumout\ $end
$var wire 1 M! \Mod0|auto_generated|divider|divider|StageOut[30]~0_combout\ $end
$var wire 1 N! \Mux6~0_combout\ $end
$var wire 1 O! \Mux5~0_combout\ $end
$var wire 1 P! \Mux4~0_combout\ $end
$var wire 1 Q! \Mux3~0_combout\ $end
$var wire 1 R! \Mux2~0_combout\ $end
$var wire 1 S! \Mux1~0_combout\ $end
$var wire 1 T! \Mux0~0_combout\ $end
$var wire 1 U! \Div0|auto_generated|divider|divider|add_sub_3_result_int[0]~18\ $end
$var wire 1 V! \Div0|auto_generated|divider|divider|add_sub_3_result_int[0]~19\ $end
$var wire 1 W! \Div0|auto_generated|divider|divider|add_sub_3_result_int[1]~14\ $end
$var wire 1 X! \Div0|auto_generated|divider|divider|add_sub_3_result_int[1]~15\ $end
$var wire 1 Y! \Div0|auto_generated|divider|divider|add_sub_3_result_int[2]~10\ $end
$var wire 1 Z! \Div0|auto_generated|divider|divider|add_sub_3_result_int[2]~11\ $end
$var wire 1 [! \Div0|auto_generated|divider|divider|add_sub_3_result_int[3]~5_sumout\ $end
$var wire 1 \! \Div0|auto_generated|divider|divider|add_sub_3_result_int[3]~6\ $end
$var wire 1 ]! \Div0|auto_generated|divider|divider|add_sub_3_result_int[3]~7\ $end
$var wire 1 ^! \Div0|auto_generated|divider|divider|add_sub_3_result_int[4]~1_sumout\ $end
$var wire 1 _! \Div0|auto_generated|divider|divider|StageOut[18]~0_combout\ $end
$var wire 1 `! \Div0|auto_generated|divider|divider|StageOut[18]~1_combout\ $end
$var wire 1 a! \Div0|auto_generated|divider|divider|add_sub_3_result_int[2]~9_sumout\ $end
$var wire 1 b! \Div0|auto_generated|divider|divider|add_sub_3_result_int[1]~13_sumout\ $end
$var wire 1 c! \Div0|auto_generated|divider|divider|StageOut[16]~4_combout\ $end
$var wire 1 d! \Div0|auto_generated|divider|divider|StageOut[16]~5_combout\ $end
$var wire 1 e! \Div0|auto_generated|divider|divider|add_sub_3_result_int[0]~17_sumout\ $end
$var wire 1 f! \Div0|auto_generated|divider|divider|op_5~26_cout\ $end
$var wire 1 g! \Div0|auto_generated|divider|divider|op_5~22\ $end
$var wire 1 h! \Div0|auto_generated|divider|divider|op_5~18\ $end
$var wire 1 i! \Div0|auto_generated|divider|divider|op_5~14\ $end
$var wire 1 j! \Div0|auto_generated|divider|divider|op_5~10\ $end
$var wire 1 k! \Div0|auto_generated|divider|divider|op_5~6_cout\ $end
$var wire 1 l! \Div0|auto_generated|divider|divider|op_5~1_sumout\ $end
$var wire 1 m! \Mux13~0_combout\ $end
$var wire 1 n! \Div0|auto_generated|divider|divider|op_5~9_sumout\ $end
$var wire 1 o! \Div0|auto_generated|divider|divider|StageOut[17]~2_combout\ $end
$var wire 1 p! \Div0|auto_generated|divider|divider|StageOut[17]~3_combout\ $end
$var wire 1 q! \Div0|auto_generated|divider|divider|StageOut[16]~6_combout\ $end
$var wire 1 r! \Div0|auto_generated|divider|divider|op_5~13_sumout\ $end
$var wire 1 s! \Div0|auto_generated|divider|divider|StageOut[15]~7_combout\ $end
$var wire 1 t! \Div0|auto_generated|divider|divider|op_5~17_sumout\ $end
$var wire 1 u! \Div0|auto_generated|divider|divider|op_5~21_sumout\ $end
$var wire 1 v! \Div0|auto_generated|divider|divider|op_6~26_cout\ $end
$var wire 1 w! \Div0|auto_generated|divider|divider|op_6~22_cout\ $end
$var wire 1 x! \Div0|auto_generated|divider|divider|op_6~18_cout\ $end
$var wire 1 y! \Div0|auto_generated|divider|divider|op_6~14_cout\ $end
$var wire 1 z! \Div0|auto_generated|divider|divider|op_6~10_cout\ $end
$var wire 1 {! \Div0|auto_generated|divider|divider|op_6~6_cout\ $end
$var wire 1 |! \Div0|auto_generated|divider|divider|op_6~1_sumout\ $end
$var wire 1 }! \Mux12~0_combout\ $end
$var wire 1 ~! \Mux11~0_combout\ $end
$var wire 1 !" \Mux10~0_combout\ $end
$var wire 1 "" \Mux9~0_combout\ $end
$var wire 1 #" \Mux8~0_combout\ $end
$var wire 1 $" count [4] $end
$var wire 1 %" count [3] $end
$var wire 1 &" count [2] $end
$var wire 1 '" count [1] $end
$var wire 1 (" count [0] $end
$var wire 1 )" \Div0|auto_generated|divider|divider|ALT_INV_op_6~1_sumout\ $end
$var wire 1 *" \Div0|auto_generated|divider|divider|ALT_INV_op_5~1_sumout\ $end
$var wire 1 +" \Div0|auto_generated|divider|divider|ALT_INV_add_sub_3_result_int[4]~1_sumout\ $end
$var wire 1 ," \Mod0|auto_generated|divider|divider|ALT_INV_op_6~17_sumout\ $end
$var wire 1 -" \Mod0|auto_generated|divider|divider|ALT_INV_op_5~13_sumout\ $end
$var wire 1 ." \Mod0|auto_generated|divider|divider|ALT_INV_add_sub_3_result_int[1]~9_sumout\ $end
$var wire 1 /" \Mod0|auto_generated|divider|divider|ALT_INV_op_6~13_sumout\ $end
$var wire 1 0" \Mod0|auto_generated|divider|divider|ALT_INV_op_5~9_sumout\ $end
$var wire 1 1" \Mod0|auto_generated|divider|divider|ALT_INV_add_sub_3_result_int[0]~5_sumout\ $end
$var wire 1 2" \Mod0|auto_generated|divider|divider|ALT_INV_add_sub_3_result_int[4]~1_sumout\ $end
$var wire 1 3" \Mod0|auto_generated|divider|divider|ALT_INV_op_6~9_sumout\ $end
$var wire 1 4" \Mod0|auto_generated|divider|divider|ALT_INV_op_5~5_sumout\ $end
$var wire 1 5" \Mod0|auto_generated|divider|divider|ALT_INV_op_5~1_sumout\ $end
$var wire 1 6" \Mod0|auto_generated|divider|divider|ALT_INV_op_6~5_sumout\ $end
$var wire 1 7" \Mod0|auto_generated|divider|divider|ALT_INV_op_6~1_sumout\ $end
$var wire 1 8" \ALT_INV_process_1:count[5]~q\ $end
$var wire 1 9" \ALT_INV_process_1:count[4]~q\ $end
$var wire 1 :" \ALT_INV_process_1:count[3]~q\ $end
$var wire 1 ;" \ALT_INV_process_1:count[2]~q\ $end
$var wire 1 <" \ALT_INV_process_1:count[1]~q\ $end
$var wire 1 =" \ALT_INV_process_1:count[0]~q\ $end
$var wire 1 >" \ALT_INV_count[0]~DUPLICATE_q\ $end
$var wire 1 ?" \ALT_INV_count[1]~DUPLICATE_q\ $end
$var wire 1 @" \ALT_INV_count[3]~DUPLICATE_q\ $end
$var wire 1 A" \ALT_INV_rst~input_o\ $end
$var wire 1 B" \Div0|auto_generated|divider|divider|ALT_INV_StageOut[15]~7_combout\ $end
$var wire 1 C" \Div0|auto_generated|divider|divider|ALT_INV_StageOut[16]~6_combout\ $end
$var wire 1 D" \Div0|auto_generated|divider|divider|ALT_INV_StageOut[16]~5_combout\ $end
$var wire 1 E" \Div0|auto_generated|divider|divider|ALT_INV_StageOut[16]~4_combout\ $end
$var wire 1 F" \Mod0|auto_generated|divider|divider|ALT_INV_StageOut[20]~11_combout\ $end
$var wire 1 G" \Mod0|auto_generated|divider|divider|ALT_INV_StageOut[20]~10_combout\ $end
$var wire 1 H" \Div0|auto_generated|divider|divider|ALT_INV_StageOut[17]~3_combout\ $end
$var wire 1 I" \Div0|auto_generated|divider|divider|ALT_INV_StageOut[17]~2_combout\ $end
$var wire 1 J" \Div0|auto_generated|divider|divider|ALT_INV_StageOut[18]~1_combout\ $end
$var wire 1 K" \Div0|auto_generated|divider|divider|ALT_INV_StageOut[18]~0_combout\ $end
$var wire 1 L" \Mod0|auto_generated|divider|divider|ALT_INV_StageOut[21]~9_combout\ $end
$var wire 1 M" \Mod0|auto_generated|divider|divider|ALT_INV_StageOut[21]~8_combout\ $end
$var wire 1 N" \ALT_INV_process_1:flag~q\ $end
$var wire 1 O" \Mod0|auto_generated|divider|divider|ALT_INV_StageOut[19]~7_combout\ $end
$var wire 1 P" \Mod0|auto_generated|divider|divider|ALT_INV_StageOut[19]~6_combout\ $end
$var wire 1 Q" \ALT_INV_Equal2~0_combout\ $end
$var wire 1 R" \ALT_INV_clk_slow~0_combout\ $end
$var wire 1 S" ALT_INV_count [4] $end
$var wire 1 T" ALT_INV_count [3] $end
$var wire 1 U" ALT_INV_count [2] $end
$var wire 1 V" ALT_INV_count [1] $end
$var wire 1 W" ALT_INV_count [0] $end
$var wire 1 X" \ALT_INV_Mux8~0_combout\ $end
$var wire 1 Y" \ALT_INV_Mux9~0_combout\ $end
$var wire 1 Z" \ALT_INV_Mux13~0_combout\ $end
$var wire 1 [" \ALT_INV_Mux6~0_combout\ $end
$var wire 1 \" \Mod0|auto_generated|divider|divider|ALT_INV_StageOut[33]~5_combout\ $end
$var wire 1 ]" \Mod0|auto_generated|divider|divider|ALT_INV_StageOut[19]~4_combout\ $end
$var wire 1 ^" \Mod0|auto_generated|divider|divider|ALT_INV_StageOut[32]~3_combout\ $end
$var wire 1 _" \Mod0|auto_generated|divider|divider|ALT_INV_StageOut[18]~2_combout\ $end
$var wire 1 `" \Mod0|auto_generated|divider|divider|ALT_INV_StageOut[31]~1_combout\ $end
$var wire 1 a" \Mod0|auto_generated|divider|divider|ALT_INV_StageOut[30]~0_combout\ $end
$var wire 1 b" \ALT_INV_clk_slow~reg0_q\ $end
$var wire 1 c" \Div0|auto_generated|divider|divider|ALT_INV_op_5~21_sumout\ $end
$var wire 1 d" \Div0|auto_generated|divider|divider|ALT_INV_op_5~17_sumout\ $end
$var wire 1 e" \Div0|auto_generated|divider|divider|ALT_INV_add_sub_3_result_int[0]~17_sumout\ $end
$var wire 1 f" \Div0|auto_generated|divider|divider|ALT_INV_op_5~13_sumout\ $end
$var wire 1 g" \Div0|auto_generated|divider|divider|ALT_INV_add_sub_3_result_int[1]~13_sumout\ $end
$var wire 1 h" \Div0|auto_generated|divider|divider|ALT_INV_op_5~9_sumout\ $end
$var wire 1 i" \Div0|auto_generated|divider|divider|ALT_INV_add_sub_3_result_int[2]~9_sumout\ $end
$var wire 1 j" \Mod0|auto_generated|divider|divider|ALT_INV_add_sub_3_result_int[2]~17_sumout\ $end
$var wire 1 k" \Mod0|auto_generated|divider|divider|ALT_INV_op_5~25_sumout\ $end
$var wire 1 l" \Div0|auto_generated|divider|divider|ALT_INV_add_sub_3_result_int[3]~5_sumout\ $end
$var wire 1 m" \Mod0|auto_generated|divider|divider|ALT_INV_add_sub_3_result_int[3]~13_sumout\ $end
$var wire 1 n" \Mod0|auto_generated|divider|divider|ALT_INV_op_5~17_sumout\ $end
$upscope $end
$upscope $end
$enddefinitions $end
#0
$dumpvars
0!
0"
1)
08
19
x:
1;
1<
1=
1>
1?
1@
0A
1B
0C
xX
0Y
0Z
1[
0\
0]
0^
0_
1`
0a
0b
0c
0d
0e
0f
0g
0h
0i
0j
0k
0l
0m
0n
0o
0p
0q
0r
0s
0t
0u
0v
0w
0x
1y
0z
0{
1|
0}
0~
0!!
0"!
0#!
0$!
0%!
1&!
0'!
0(!
1)!
1*!
0+!
0,!
0-!
1.!
1/!
00!
01!
02!
03!
14!
05!
16!
07!
18!
19!
0:!
1;!
1<!
0=!
0>!
0?!
0@!
1A!
0B!
0C!
0D!
0E!
1F!
0G!
0H!
0I!
1J!
0K!
0L!
0M!
0N!
0O!
0P!
0Q!
0R!
0S!
0T!
0U!
1V!
0W!
0X!
0Y!
0Z!
0[!
0\!
0]!
1^!
0_!
0`!
1a!
1b!
0c!
0d!
0e!
1f!
1g!
0h!
0i!
0j!
0k!
1l!
0m!
0n!
0o!
0p!
0q!
1r!
0s!
1t!
0u!
1v!
1w!
0x!
0y!
0z!
0{!
1|!
0}!
0~!
0!"
1""
1#"
0)"
0*"
0+"
1,"
0-"
0."
0/"
00"
11"
02"
03"
14"
05"
16"
07"
18"
19"
1:"
1;"
1<"
1="
1>"
1?"
1@"
0A"
1B"
1C"
1D"
1E"
1F"
1G"
1H"
1I"
1J"
1K"
1L"
1M"
1N"
1O"
1P"
1Q"
1R"
0X"
0Y"
1Z"
1["
1\"
1]"
1^"
1_"
1`"
1a"
1b"
1c"
0d"
1e"
0f"
0g"
1h"
0i"
0j"
1k"
1l"
1m"
0n"
0D
0E
0F
0G
0H
0I
0J
0K
0L
0M
0N
0O
1P
0Q
0R
0S
0T
0U
0V
1W
0$"
0%"
0&"
0'"
0("
1S"
1T"
1U"
1V"
1W"
0#
0$
0%
0&
0'
0(
0*
0+
0,
0-
0.
0/
10
01
02
03
04
05
06
17
$end
#500
1!
1A
1Y
1Z
#1000
0!
0A
0Y
0Z
#1500
1!
1A
1Y
1Z
#2000
0!
0A
0Y
0Z
#2500
1!
1A
1Y
1Z
#3000
0!
0A
0Y
0Z
#3500
1!
1A
1Y
1Z
#4000
0!
0A
0Y
0Z
#4500
1!
1A
1Y
1Z
#5000
0!
0A
0Y
0Z
#5500
1!
1A
1Y
1Z
#6000
0!
0A
0Y
0Z
#6500
1!
1A
1Y
1Z
#7000
0!
0A
0Y
0Z
#7500
1!
1A
1Y
1Z
#8000
0!
0A
0Y
0Z
#8500
1!
1A
1Y
1Z
#9000
0!
0A
0Y
0Z
#9500
1!
1A
1Y
1Z
#10000
0!
0A
0Y
0Z
#10500
1!
1A
1Y
1Z
#11000
0!
0A
0Y
0Z
#11500
1!
1A
1Y
1Z
#12000
0!
0A
0Y
0Z
#12500
1!
1A
1Y
1Z
#13000
0!
0A
0Y
0Z
#13500
1!
1A
1Y
1Z
#14000
0!
0A
0Y
0Z
#14500
1!
1A
1Y
1Z
#15000
0!
0A
0Y
0Z
#15500
1!
1A
1Y
1Z
#16000
0!
0A
0Y
0Z
#16500
1!
1A
1Y
1Z
#17000
0!
0A
0Y
0Z
#17500
1!
1A
1Y
1Z
#18000
0!
0A
0Y
0Z
#18500
1!
1A
1Y
1Z
#19000
0!
0A
0Y
0Z
#19500
1!
1A
1Y
1Z
#20000
0!
0A
0Y
0Z
#20500
1!
1A
1Y
1Z
#21000
0!
0A
0Y
0Z
#21500
1!
1A
1Y
1Z
#22000
0!
0A
0Y
0Z
#22500
1!
1A
1Y
1Z
#23000
0!
0A
0Y
0Z
#23500
1!
1A
1Y
1Z
#24000
0!
0A
0Y
0Z
#24500
1!
1A
1Y
1Z
#25000
0!
0A
0Y
0Z
#25500
1!
1A
1Y
1Z
#26000
0!
0A
0Y
0Z
#26500
1!
1A
1Y
1Z
#27000
0!
0A
0Y
0Z
#27500
1!
1A
1Y
1Z
#28000
0!
0A
0Y
0Z
#28500
1!
1A
1Y
1Z
#29000
0!
0A
0Y
0Z
#29500
1!
1A
1Y
1Z
#30000
0!
0A
0Y
0Z
#30500
1!
1A
1Y
1Z
#31000
0!
0A
0Y
0Z
#31500
1!
1A
1Y
1Z
#32000
0!
0A
0Y
0Z
#32500
1!
1A
1Y
1Z
#33000
0!
0A
0Y
0Z
#33500
1!
1A
1Y
1Z
#34000
0!
0A
0Y
0Z
#34500
1!
1A
1Y
1Z
#35000
0!
0A
0Y
0Z
#35500
1!
1A
1Y
1Z
#36000
0!
0A
0Y
0Z
#36500
1!
1A
1Y
1Z
#37000
0!
0A
0Y
0Z
#37500
1!
1A
1Y
1Z
#38000
0!
0A
0Y
0Z
#38500
1!
1A
1Y
1Z
#39000
0!
0A
0Y
0Z
#39500
1!
1A
1Y
1Z
#40000
0!
0)
0A
0B
0[
0Y
0Z
1A"
#40500
1!
1A
1Y
1Z
1("
1a
0>"
0W"
0`
1b
#41000
0!
0A
0Y
0Z
#41500
1!
1A
1Y
1Z
1'"
0("
0a
1c
0?"
1>"
1W"
0V"
1`
#42000
0!
0A
0Y
0Z
#42500
1!
1A
1Y
1Z
1("
1a
0>"
0W"
0`
1]
0b
#43000
0!
0A
0Y
0Z
#43500
1!
1A
1Y
1Z
0'"
1&"
0("
0a
0c
1?"
1>"
1W"
0U"
1V"
1`
#44000
0!
0A
0Y
0Z
#44500
1!
1A
1Y
1Z
1("
1a
0>"
0W"
0`
1b
#45000
0!
0A
0Y
0Z
#45500
1!
1A
1Y
1Z
1'"
0("
0a
1c
0?"
1>"
1W"
0V"
1`
#46000
0!
0A
0Y
0Z
#46500
1!
1A
1Y
1Z
1("
1a
0>"
0W"
0`
1\
0]
0b
#47000
0!
0A
0Y
0Z
#47500
1!
1A
1Y
1Z
0'"
1%"
0&"
1^
0("
0a
0c
1?"
1>"
1W"
0@"
1U"
0T"
1V"
1`
#48000
0!
0A
0Y
0Z
#48500
1!
1A
1Y
1Z
1("
1a
0>"
0W"
0`
1b
#49000
0!
0A
0Y
0Z
#49500
1!
1A
1Y
1Z
1'"
0("
0a
1c
0?"
1>"
1W"
0V"
1`
#50000
0!
0A
0Y
0Z
#50500
1!
1A
1Y
1Z
1("
1a
0>"
0W"
0`
1]
0b
#51000
0!
0A
0Y
0Z
#51500
1!
1A
1Y
1Z
0'"
1&"
0("
0a
0c
1?"
1>"
1W"
0U"
1V"
1`
#52000
0!
0A
0Y
0Z
#52500
1!
1A
1Y
1Z
1("
1a
0>"
0W"
0`
1b
#53000
0!
0A
0Y
0Z
#53500
1!
1A
1Y
1Z
1'"
0("
0a
1c
0?"
1>"
1W"
0V"
1`
#54000
0!
0A
0Y
0Z
#54500
1!
1A
1Y
1Z
1("
1a
0>"
0W"
0`
0\
0]
1_
0b
#55000
0!
0A
0Y
0Z
#55500
1!
1A
1Y
1Z
0'"
0%"
0&"
0^
1$"
0("
0a
0c
1?"
1>"
1W"
0S"
1@"
1U"
1T"
1V"
1`
#56000
0!
0A
0Y
0Z
#56500
1!
1A
1Y
1Z
1("
1a
0>"
0W"
0`
1b
#57000
0!
0A
0Y
0Z
#57500
1!
1A
1Y
1Z
1'"
0("
0a
1c
0?"
1>"
1W"
0V"
1`
#58000
0!
0A
0Y
0Z
#58500
1!
1A
1Y
1Z
1("
1a
0>"
0W"
0`
1d
1]
0b
0R"
1e
#59000
0!
0A
0Y
0Z
#59500
1!
1A
1Y
1Z
1f
0'"
1&"
0("
0a
0c
0b"
1z
1?"
1>"
1W"
0U"
1V"
0="
0]
0_
0d
1C
0y
1g
1L!
1M!
1R"
0a"
06"
1"
1I
0e
1h
1O!
1P!
1Q!
1T!
1(
1J
1M
1N
1O
1/
1.
1-
1*
#60000
0!
0A
0Y
0Z
#60500
1!
1A
1Y
1Z
0f
0&"
0$"
1b"
1S"
1U"
1`
0C
0"
#61000
0!
0A
0Y
0Z
#61500
1!
1A
1Y
1Z
1("
1a
0>"
0W"
0`
1b
#62000
0!
0A
0Y
0Z
#62500
1!
1A
1Y
1Z
1'"
0("
0a
1c
0?"
1>"
1W"
0V"
1`
#63000
0!
0A
0Y
0Z
#63500
1!
1A
1Y
1Z
1("
1a
0>"
0W"
0`
1]
0b
#64000
0!
0A
0Y
0Z
#64500
1!
1A
1Y
1Z
0'"
1&"
0("
0a
0c
1?"
1>"
1W"
0U"
1V"
1`
#65000
0!
0A
0Y
0Z
#65500
1!
1A
1Y
1Z
1("
1a
0>"
0W"
0`
1b
#66000
0!
0A
0Y
0Z
#66500
1!
1A
1Y
1Z
1'"
0("
0a
1c
0?"
1>"
1W"
0V"
1`
#67000
0!
0A
0Y
0Z
#67500
1!
1A
1Y
1Z
1("
1a
0>"
0W"
0`
1\
0]
0b
#68000
0!
0A
0Y
0Z
#68500
1!
1A
1Y
1Z
0'"
1%"
0&"
1^
0("
0a
0c
1?"
1>"
1W"
0@"
1U"
0T"
1V"
1`
#69000
0!
0A
0Y
0Z
#69500
1!
1A
1Y
1Z
1("
1a
0>"
0W"
0`
1b
#70000
0!
0A
0Y
0Z
#70500
1!
1A
1Y
1Z
1'"
0("
0a
1c
0?"
1>"
1W"
0V"
1`
#71000
0!
0A
0Y
0Z
#71500
1!
1A
1Y
1Z
1("
1a
0>"
0W"
0`
1]
0b
#72000
0!
0A
0Y
0Z
#72500
1!
1A
1Y
1Z
0'"
1&"
0("
0a
0c
1?"
1>"
1W"
0U"
1V"
1`
#73000
0!
0A
0Y
0Z
#73500
1!
1A
1Y
1Z
1("
1a
0>"
0W"
0`
1b
#74000
0!
0A
0Y
0Z
#74500
1!
1A
1Y
1Z
1'"
0("
0a
1c
0?"
1>"
1W"
0V"
1`
#75000
0!
0A
0Y
0Z
#75500
1!
1A
1Y
1Z
1("
1a
0>"
0W"
0`
0\
0]
1_
0b
#76000
0!
0A
0Y
0Z
#76500
1!
1A
1Y
1Z
0'"
0%"
0&"
0^
1$"
0("
0a
0c
1?"
1>"
1W"
0S"
1@"
1U"
1T"
1V"
1`
#77000
0!
0A
0Y
0Z
#77500
1!
1A
1Y
1Z
1("
1a
0>"
0W"
0`
1b
#78000
0!
0A
0Y
0Z
#78500
1!
1A
1Y
1Z
1'"
0("
0a
1c
0?"
1>"
1W"
0V"
1`
#79000
0!
0A
0Y
0Z
#79500
1!
1A
1Y
1Z
1("
1a
0>"
0W"
0`
1d
1]
0b
0R"
1e
#80000
0!
0A
0Y
0Z
#80500
1!
1A
1Y
1Z
1f
0'"
1&"
0("
0a
0c
0b"
1i
0z
1?"
1>"
1W"
0U"
1V"
1="
0<"
0]
0_
0d
1C
0h
1j
17!
0J!
1:!
1K!
1u!
1x!
1y
0g
0L!
0M!
1R"
1a"
16"
0c"
0`"
13"
04"
1"
0I
1H
0e
1h
0j
1y!
0;!
1B!
1k
1N!
0P!
0Q!
1R!
0T!
1/"
0(
1'
1H!
0k
0["
0,"
0J
1L
0M
0N
0P
0.
0-
1,
0*
00
#81000
0!
0A
0Y
0Z
#81500
1!
1A
1Y
1Z
0f
0&"
0$"
1b"
1S"
1U"
1`
0C
0"
#82000
0!
0A
0Y
0Z
#82500
1!
1A
1Y
1Z
1("
1a
0>"
0W"
0`
1b
#83000
0!
0A
0Y
0Z
#83500
1!
1A
1Y
1Z
1'"
0("
0a
1c
0?"
1>"
1W"
0V"
1`
#84000
0!
0A
0Y
0Z
