modules/hw3/simulation/qsim/galois_lsfr.msim.vcd
$comment
	File created using the following command:
		vcd file galois_lsfr.msim.vcd -direction
$end
$date
	Tue May 16 14:53:42 2023
$end
$version
	ModelSim Version 10.5b
$end
$timescale
	1ps
$end

$scope module galois_lsfr_vhd_vec_tst $end
$var wire 1 ! clk $end
$var wire 1 " outp [1] $end
$var wire 1 # outp [0] $end
$var wire 1 $ rst $end

$scope module i1 $end
$var wire 1 % gnd $end
$var wire 1 & vcc $end
$var wire 1 ' unknown $end
$var wire 1 ( devoe $end
$var wire 1 ) devclrn $end
$var wire 1 * devpor $end
$var wire 1 + ww_devoe $end
$var wire 1 , ww_devclrn $end
$var wire 1 - ww_devpor $end
$var wire 1 . ww_clk $end
$var wire 1 / ww_rst $end
$var wire 1 0 ww_outp [1] $end
$var wire 1 1 ww_outp [0] $end
$var wire 1 2 \~QUARTUS_CREATED_GND~I_combout\ $end
$var wire 1 3 \clk~input_o\ $end
$var wire 1 4 \clk~inputCLKENA0_outclk\ $end
$var wire 1 5 \rst~input_o\ $end
$var wire 1 6 \Add0~0_combout\ $end
$var wire 1 7 \count[1]~DUPLICATE_q\ $end
$var wire 1 8 \Add0~1_combout\ $end
$var wire 1 9 \count[2]~DUPLICATE_q\ $end
$var wire 1 : \count[3]~DUPLICATE_q\ $end
$var wire 1 ; \count~2_combout\ $end
$var wire 1 < \count~0_combout\ $end
$var wire 1 = \count[4]~DUPLICATE_q\ $end
$var wire 1 > \count~1_combout\ $end
$var wire 1 ? \clk_slow~0_combout\ $end
$var wire 1 @ \clk_slow~q\ $end
$var wire 1 A \digit[0]~DUPLICATE_q\ $end
$var wire 1 B \digit[7]~10_combout\ $end
$var wire 1 C \digit[6]~9_combout\ $end
$var wire 1 D \digit~2_combout\ $end
$var wire 1 E \digit~1_combout\ $end
$var wire 1 F \digit~0_combout\ $end
$var wire 1 G \digit[2]~5_combout\ $end
$var wire 1 H \digit[1]~4_combout\ $end
$var wire 1 I \digit[0]~3_combout\ $end
$var wire 1 J \outp~0_combout\ $end
$var wire 1 K \outp~1_combout\ $end
$var wire 1 L digit [7] $end
$var wire 1 M digit [6] $end
$var wire 1 N digit [5] $end
$var wire 1 O digit [4] $end
$var wire 1 P digit [3] $end
$var wire 1 Q digit [2] $end
$var wire 1 R digit [1] $end
$var wire 1 S digit [0] $end
$var wire 1 T count [4] $end
$var wire 1 U count [3] $end
$var wire 1 V count [2] $end
$var wire 1 W count [1] $end
$var wire 1 X count [0] $end
$var wire 1 Y ALT_INV_digit [7] $end
$var wire 1 Z ALT_INV_digit [6] $end
$var wire 1 [ ALT_INV_digit [5] $end
$var wire 1 \ ALT_INV_digit [4] $end
$var wire 1 ] ALT_INV_digit [3] $end
$var wire 1 ^ ALT_INV_digit [2] $end
$var wire 1 _ ALT_INV_digit [1] $end
$var wire 1 ` ALT_INV_digit [0] $end
$var wire 1 a \ALT_INV_clk_slow~q\ $end
$var wire 1 b \ALT_INV_outp~0_combout\ $end
$var wire 1 c ALT_INV_count [4] $end
$var wire 1 d ALT_INV_count [3] $end
$var wire 1 e ALT_INV_count [2] $end
$var wire 1 f ALT_INV_count [1] $end
$var wire 1 g ALT_INV_count [0] $end
$var wire 1 h \ALT_INV_rst~input_o\ $end
$var wire 1 i \ALT_INV_digit[0]~DUPLICATE_q\ $end
$var wire 1 j \ALT_INV_count[1]~DUPLICATE_q\ $end
$var wire 1 k \ALT_INV_count[2]~DUPLICATE_q\ $end
$var wire 1 l \ALT_INV_count[3]~DUPLICATE_q\ $end
$var wire 1 m \ALT_INV_count[4]~DUPLICATE_q\ $end
$upscope $end
$upscope $end
$enddefinitions $end
#0
$dumpvars
0!
1$
0%
1&
x'
1(
1)
1*
1+
1,
1-
0.
1/
x2
03
04
15
06
07
08
09
0:
0;
1<
0=
0>
0?
0@
0A
1B
1C
1D
1E
1F
1G
1H
1I
1J
0K
1a
0b
0h
1i
1j
1k
1l
1m
00
01
0L
0M
0N
0O
0P
0Q
0R
0S
0T
0U
0V
0W
0X
1Y
1Z
1[
1\
1]
1^
1_
1`
1c
1d
1e
1f
1g
0"
0#
$end
#15000
1!
1.
13
14
#30000
0!
0.
03
04
#45000
1!
1.
13
14
#60000
0!
0.
03
04
#75000
1!
1.
13
14
#90000
0!
0.
03
04
#105000
1!
1.
13
14
#120000
0!
0.
03
04
#135000
1!
1.
13
14
#150000
0!
0.
03
04
#165000
1!
1.
13
14
#180000
0!
0.
03
04
#195000
1!
1.
13
14
#210000
0!
0.
03
04
#225000
1!
1.
13
14
#240000
0!
0.
03
04
#255000
1!
1.
13
14
#270000
0!
0.
03
04
#285000
1!
1.
13
14
#300000
0!
0.
03
04
#315000
1!
1.
13
14
#330000
0!
0.
03
04
#345000
1!
1.
13
14
#360000
0!
0.
03
04
#375000
1!
1.
13
14
#390000
0!
0.
03
04
#405000
1!
1.
13
14
#420000
0!
0.
03
04
#435000
1!
1.
13
14
#450000
0!
0.
03
04
#465000
1!
1.
13
14
#480000
0!
0.
03
04
#495000
1!
1.
13
14
#510000
0!
0.
03
04
#525000
1!
1.
13
14
#540000
0!
0.
03
04
#555000
1!
1.
13
14
#570000
0!
0.
03
04
#585000
1!
1.
13
14
#600000
0!
0.
03
04
#615000
1!
1.
13
14
#630000
0!
0.
03
04
#645000
1!
1.
13
14
#660000
0!
0.
03
04
#675000
1!
1.
13
14
#690000
0!
0.
03
04
#705000
1!
1.
13
14
#720000
0!
0.
03
04
#735000
1!
1.
13
14
#750000
0!
0.
03
04
#765000
1!
1.
13
14
#780000
0!
0.
03
04
#795000
1!
1.
13
14
#810000
0!
0.
03
04
#825000
1!
1.
13
14
#840000
0!
0.
03
04
#855000
1!
1.
13
14
#870000
0!
0.
03
04
#885000
1!
1.
13
14
#900000
0!
0.
03
04
#915000
1!
1.
13
14
#930000
0!
0.
03
04
#945000
1!
1.
13
14
#960000
0!
0.
03
04
#975000
1!
1.
13
14
#990000
0!
0.
03
04
#1005000
1!
1.
13
14
#1020000
0!
0.
03
04
#1035000
1!
1.
13
14
#1050000
0!
0.
03
04
#1065000
1!
1.
13
14
#1080000
0!
0.
03
04
#1095000
1!
1.
13
14
#1110000
0!
0.
03
04
#1125000
1!
1.
13
14
#1140000
0!
0.
03
04
#1155000
1!
1.
13
14
#1170000
0!
0.
03
04
#1185000
1!
1.
13
14
#1200000
0!
0.
03
04
#1215000
1!
1.
13
14
#1230000
0!
0.
03
04
#1245000
1!
1.
13
14
#1260000
0!
0.
03
04
#1275000
1!
1.
13
14
#1280000
0$
0/
05
1h
#1290000
0!
0.
03
04
#1305000
1!
1.
13
14
1X
0g
16
0<
#1320000
0!
0.
03
04
#1335000
1!
1.
13
14
1W
17
0X
1g
0j
0f
1<
#1350000
0!
0.
03
04
#1365000
1!
1.
13
14
1X
0g
06
18
0<
#1380000
0!
0.
03
04
#1395000
1!
1.
13
14
1V
0W
07
19
0X
1g
0k
1j
1f
0e
1<
#1410000
0!
0.
03
04
#1425000
1!
1.
13
14
1X
0g
16
0<
#1440000
0!
0.
03
04
#1455000
1!
1.
13
14
1W
17
0X
1g
0j
0f
1<
#1470000
0!
0.
03
04
#1485000
1!
1.
13
14
1X
0g
06
08
0<
1>
#1500000
0!
0.
03
04
#1515000
1!
1.
13
14
0V
0W
07
09
1:
0X
1U
0d
1g
0l
1k
1j
1f
1e
1<
#1530000
0!
0.
03
04
#1545000
1!
1.
13
14
1X
0g
16
0<
#1560000
0!
0.
03
04
#1575000
1!
1.
13
14
1W
17
0X
1g
0j
0f
1<
#1590000
0!
0.
03
04
#1605000
1!
1.
13
14
1X
0g
06
18
0<
#1620000
0!
0.
03
04
#1635000
1!
1.
13
14
1V
0W
07
19
0X
1g
0k
1j
1f
0e
1<
#1650000
0!
0.
03
04
#1665000
1!
1.
13
14
1X
0g
16
0<
#1680000
0!
0.
03
04
#1695000
1!
1.
13
14
1W
17
0X
1g
0j
0f
1<
#1710000
0!
0.
03
04
#1725000
1!
1.
13
14
1X
0g
06
08
1;
0<
0>
#1740000
0!
0.
03
04
#1755000
1!
1.
13
14
0V
0W
07
09
0:
1T
0X
1=
0U
1d
0m
1g
0c
1l
1k
1j
1f
1e
1<
#1770000
0!
0.
03
04
#1785000
1!
1.
13
14
1X
0g
16
0<
#1800000
0!
0.
03
04
#1815000
1!
1.
13
14
1W
17
0X
1g
0j
0f
1<
#1830000
0!
0.
03
04
#1845000
1!
1.
13
14
1X
0g
06
18
0<
#1860000
0!
0.
03
04
#1875000
1!
1.
13
14
1V
0W
07
19
0X
1g
0k
1j
1f
0e
1<
#1890000
0!
0.
03
04
#1905000
1!
1.
13
14
1X
0g
16
0<
#1920000
0!
0.
03
04
#1935000
1!
1.
13
14
1W
17
0X
1g
0j
0f
1<
#1950000
0!
0.
03
04
#1965000
1!
1.
13
14
1X
0g
06
08
0<
1>
#1980000
0!
0.
03
04
#1995000
1!
1.
13
14
0V
0W
07
09
1:
0X
1U
0d
1g
0l
1k
1j
1f
1e
0;
0>
1?
#2010000
0!
0.
03
04
#2025000
1!
1.
13
14
1@
0:
0T
0=
0U
0a
1A
1L
1M
1N
1O
1P
1Q
1R
1S
1d
1m
1c
1l
0?
0J
0`
0_
0^
0]
0\
0[
0Z
0Y
0i
1<
1?
1b
0B
0C
0G
0H
0I
1J
1K
0b
11
10
1#
01
1"
0#
#2040000
0!
0.
03
04
#2055000
1!
1.
13
14
1X
0g
16
0<
#2070000
0!
0.
03
04
#2085000
1!
1.
13
14
1W
17
0X
1g
0j
0f
1<
#2100000
0!
0.
03
04
#2115000
1!
1.
13
14
1X
0g
06
18
0<
#2130000
0!
0.
03
04
#2145000
1!
1.
13
14
1V
0W
07
19
0X
1g
0k
1j
1f
0e
1<
#2160000
0!
0.
03
04
#2175000
1!
1.
13
14
1X
0g
16
0<
#2190000
0!
0.
03
04
#2205000
1!
1.
13
14
1W
17
0X
1g
0j
0f
1<
#2220000
0!
0.
03
04
#2235000
1!
1.
13
14
1X
0g
06
08
0<
1>
#2250000
0!
0.
03
04
#2265000
1!
1.
13
14
0V
0W
07
09
1:
0X
1U
0d
1g
0l
1k
1j
1f
1e
1<
#2280000
0!
0.
03
04
#2295000
1!
1.
13
14
1X
0g
16
0<
#2310000
0!
0.
03
04
#2325000
1!
1.
13
14
1W
17
0X
1g
0j
0f
1<
#2340000
0!
0.
03
04
#2355000
1!
1.
13
14
1X
0g
06
18
0<
#2370000
0!
0.
03
04
#2385000
1!
1.
13
14
1V
0W
07
19
0X
1g
0k
1j
1f
0e
1<
#2400000
0!
0.
03
04
#2415000
1!
1.
13
14
1X
0g
16
0<
#2430000
0!
0.
03
04
#2445000
1!
1.
13
14
1W
17
0X
1g
0j
0f
1<
#2460000
0!
0.
03
04
#2475000
1!
1.
13
14
1X
0g
06
08
1;
0<
0>
#2490000
0!
0.
03
04
#2505000
1!
1.
13
14
0V
0W
07
09
0:
1T
0X
1=
0U
1d
0m
1g
0c
1l
1k
1j
1f
1e
1<
#2520000
0!
0.
03
04
#2535000
1!
1.
13
14
1X
0g
16
0<
#2550000
0!
0.
03
04
#2565000
1!
1.
13
14
1W
17
0X
1g
0j
0f
1<
#2580000
0!
0.
03
04
#2595000
1!
1.
13
14
1X
0g
06
18
0<
#2610000
0!
0.
03
04
#2625000
1!
1.
13
14
1V
0W
07
19
0X
1g
0k
1j
1f
0e
1<
#2640000
0!
0.
03
04
#2655000
1!
1.
13
14
1X
0g
16
0<
#2670000
0!
0.
03
04
#2685000
1!
1.
13
14
1W
17
0X
1g
0j
0f
1<
#2700000
0!
0.
03
04
#2715000
1!
1.
13
14
1X
0g
06
08
0<
1>
#2730000
0!
0.
03
04
#2745000
1!
1.
13
14
0V
0W
07
09
1:
0X
1U
0d
1g
0l
1k
1j
1f
1e
0;
0>
0?
#2760000
0!
0.
03
04
#2775000
1!
1.
13
14
0@
0:
0T
0=
0U
1a
1d
1m
1c
1l
1?
0K
1<
0?
00
0"
#2790000
0!
0.
03
04
#2805000
1!
1.
13
14
1X
0g
16
0<
#2820000
0!
0.
03
04
#2835000
1!
1.
13
14
1W
17
0X
1g
0j
0f
1<
#2850000
0!
0.
03
04
#2865000
1!
1.
13
14
1X
0g
06
18
0<
#2880000
0!
0.
03
04
#2895000
1!
1.
13
14
1V
0W
07
19
0X
1g
0k
1j
1f
0e
1<
#2910000
0!
0.
03
04
#2925000
1!
1.
13
14
1X
0g
16
0<
#2940000
0!
0.
03
04
#2955000
1!
1.
13
14
1W
17
0X
1g
0j
0f
1<
#2970000
0!
0.
03
04
#2985000
1!
1.
13
14
1X
0g
06
08
0<
1>
#3000000
0!
0.
03
04
#3015000
1!
1.
13
14
0V
0W
07
09
1:
0X
1U
0d
1g
0l
1k
1j
1f
1e
1<
#3030000
0!
0.
03
04
#3045000
1!
1.
13
14
1X
0g
16
0<
#3060000
0!
0.
03
04
#3075000
1!
1.
13
14
1W
17
0X
1g
0j
0f
1<
#3090000
0!
0.
03
04
#3105000
1!
1.
13
14
1X
0g
06
18
0<
#3120000
0!
0.
03
04
#3135000
1!
1.
13
14
1V
0W
07
19
0X
1g
0k
1j
1f
0e
1<
#3150000
0!
0.
03
04
#3165000
1!
1.
13
14
1X
0g
16
0<
#3180000
0!
0.
03
04
#3195000
1!
1.
13
14
1W
17
0X
1g
0j
0f
1<
#3210000
0!
0.
03
04
#3225000
1!
1.
13
14
1X
0g
06
08
1;
0<
0>
#3240000
0!
0.
03
04
#3255000
1!
1.
13
14
0V
0W
07
09
0:
1T
0X
1=
0U
1d
0m
1g
0c
1l
1k
1j
1f
1e
1<
#3270000
0!
0.
03
04
#3285000
1!
1.
13
14
1X
0g
16
0<
#3300000
0!
0.
03
04
#3315000
1!
1.
13
14
1W
17
0X
1g
0j
0f
1<
#3330000
0!
0.
03
04
#3345000
1!
1.
13
14
1X
0g
06
18
0<
#3360000
0!
0.
03
04
#3375000
1!
1.
13
14
1V
0W
07
19
0X
1g
0k
1j
1f
0e
1<
#3390000
0!
0.
03
04
#3405000
1!
1.
13
14
1X
0g
16
0<
#3420000
0!
0.
03
04
#3435000
1!
1.
13
14
1W
17
0X
1g
0j
0f
1<
#3450000
0!
0.
03
04
#3465000
1!
1.
13
14
1X
0g
06
08
0<
1>
#3480000
0!
0.
03
04
#3495000
1!
1.
13
14
0V
0W
07
09
1:
0X
1U
0d
1g
0l
1k
1j
1f
1e
0;
0>
1?
#3510000
0!
0.
03
04
#3525000
1!
1.
13
14
1@
0:
0T
0=
0U
0a
0A
0L
0M
0Q
0R
0S
1d
1m
1c
1l
0?
1K
1`
1_
1^
1Z
1Y
1i
1<
1?
1B
0E
0F
1C
1H
1I
0J
0K
1b
10
1"
00
11
0"
1#
#3540000
0!
0.
03
04
#3555000
1!
1.
13
14
1X
0g
16
0<
#3570000
0!
0.
03
04
#3585000
1!
1.
13
14
1W
17
0X
1g
0j
0f
1<
#3600000
0!
0.
03
04
#3615000
1!
1.
13
14
1X
0g
06
18
0<
#3630000
0!
0.
03
04
#3645000
1!
1.
13
14
1V
0W
07
19
0X
1g
0k
1j
1f
0e
1<
#3660000
0!
0.
03
04
#3675000
1!
1.
13
14
1X
0g
16
0<
#3690000
0!
0.
03
04
#3705000
1!
1.
13
14
1W
17
0X
1g
0j
0f
1<
#3720000
0!
0.
03
04
#3735000
1!
1.
13
14
1X
0g
06
08
0<
1>
#3750000
0!
0.
03
04
#3765000
1!
1.
13
14
0V
0W
07
09
1:
0X
1U
0d
1g
0l
1k
1j
1f
1e
1<
#3780000
0!
0.
03
04
#3795000
1!
1.
13
14
1X
0g
16
0<
#3810000
0!
0.
03
04
#3825000
1!
1.
13
14
1W
17
0X
1g
0j
0f
1<
#3840000
0!
0.
03
04
#3855000
1!
1.
13
14
1X
0g
06
18
0<
#3870000
0!
0.
03
04
#3885000
1!
1.
13
14
1V
0W
07
19
0X
1g
0k
1j
1f
0e
1<
#3900000
0!
0.
03
04
#3915000
1!
1.
13
14
1X
0g
16
0<
#3930000
0!
0.
03
04
#3945000
1!
1.
13
14
1W
17
0X
1g
0j
0f
1<
#3960000
0!
0.
03
04
#3975000
1!
1.
13
14
1X
0g
06
08
1;
0<
0>
#3990000
0!
0.
03
04
#4005000
1!
1.
13
14
0V
0W
07
09
0:
1T
0X
1=
0U
1d
0m
1g
0c
1l
1k
1j
1f
1e
1<
#4020000
0!
0.
03
04
#4035000
1!
1.
13
14
1X
0g
16
0<
#4050000
0!
0.
03
04
#4065000
1!
1.
13
14
1W
17
0X
1g
0j
0f
1<
#4080000
0!
0.
03
04
#4095000
1!
1.
13
14
1X
0g
06
18
0<
#4110000
0!
0.
03
04
#4125000
1!
1.
13
14
1V
0W
07
19
0X
1g
0k
1j
1f
0e
1<
#4140000
0!
0.
03
04
#4155000
1!
1.
13
14
1X
0g
16
0<
#4170000
0!
0.
03
04
#4185000
1!
1.
13
14
1W
17
0X
1g
0j
0f
1<
#4200000
0!
0.
03
04
#4215000
1!
1.
13
14
1X
0g
06
08
0<
1>
#4230000
0!
0.
03
04
#4245000
1!
1.
13
14
0V
0W
07
09
1:
0X
1U
0d
1g
0l
1k
1j
1f
1e
0;
0>
0?
#4260000
0!
0.
03
04
#4275000
1!
1.
13
14
0@
0:
0T
0=
0U
1a
1d
1m
1c
1l
1?
1J
1<
0?
0b
01
0#
#4290000
0!
0.
03
04
#4305000
1!
1.
13
14
1X
0g
16
0<
#4320000
0!
0.
03
04
#4335000
1!
1.
13
14
1W
17
0X
1g
0j
0f
1<
#4350000
0!
0.
03
04
#4365000
1!
1.
13
14
1X
0g
06
18
0<
#4380000
0!
0.
03
04
#4395000
1!
1.
13
14
1V
0W
07
19
0X
1g
0k
1j
1f
0e
1<
#4410000
0!
0.
03
04
#4425000
1!
1.
13
14
1X
0g
16
0<
#4440000
0!
0.
03
04
#4455000
1!
1.
13
14
1W
17
0X
1g
0j
0f
1<
#4470000
0!
0.
03
04
#4485000
1!
1.
13
14
1X
0g
06
08
0<
1>
#4500000
0!
0.
03
04
#4515000
1!
1.
13
14
0V
0W
07
09
1:
0X
1U
0d
1g
0l
1k
1j
1f
1e
1<
#4530000
0!
0.
03
04
#4545000
1!
1.
13
14
1X
0g
16
0<
#4560000
0!
0.
03
04
#4575000
1!
1.
13
14
1W
17
0X
1g
0j
0f
1<
#4590000
0!
0.
03
04
#4605000
1!
1.
13
14
1X
0g
06
18
0<
#4620000
0!
0.
03
04
#4635000
1!
1.
13
14
1V
0W
07
19
0X
1g
0k
1j
1f
0e
1<
#4650000
0!
0.
03
04
#4665000
1!
1.
13
14
1X
0g
16
0<
#4680000
0!
0.
03
04
#4695000
1!
1.
13
14
1W
17
0X
1g
0j
0f
1<
#4710000
0!
0.
03
04
#4725000
1!
1.
13
14
1X
0g
06
08
1;
0<
0>
#4740000
0!
0.
03
04
#4755000
1!
1.
13
14
0V
0W
07
09
0:
1T
0X
1=
0U
1d
0m
1g
0c
1l
1k
1j
1f
1e
1<
#4770000
0!
0.
03
04
#4785000
1!
1.
13
14
1X
0g
16
0<
#4800000
0!
0.
03
04
#4815000
1!
1.
13
14
1W
17
0X
1g
0j
0f
1<
#4830000
0!
0.
03
04
#4845000
1!
1.
13
14
1X
0g
06
18
0<
#4860000
0!
0.
03
04
#4875000
1!
1.
13
14
1V
0W
07
19
0X
1g
0k
1j
1f
0e
1<
#4890000
0!
0.
03
04
#4905000
1!
1.
13
14
1X
0g
16
0<
#4920000
0!
0.
03
04
#4935000
1!
1.
13
14
1W
17
0X
1g
0j
0f
1<
#4950000
0!
0.
03
04
#4965000
1!
1.
13
14
1X
0g
06
08
0<
1>
#4980000
0!
0.
03
04
#4995000
1!
1.
13
14
0V
0W
07
09
1:
0X
1U
0d
1g
0l
1k
1j
1f
1e
0;
0>
1?
#5010000
0!
0.
03
04
#5025000
1!
1.
13
14
1@
0:
0T
0=
0U
0a
1A
1L
1M
0O
0P
1R
1S
1d
1m
1c
1l
0?
0J
0`
0_
1]
1\
0Z
0Y
0i
1<
1?
1b
0B
1E
0C
1G
0I
1J
1K
0b
11
10
1#
01
1"
0#
#5040000
0!
0.
03
04
#5055000
1!
1.
13
14
1X
0g
16
0<
#5070000
0!
0.
03
04
#5085000
1!
1.
13
14
1W
17
0X
1g
0j
0f
1<
#5100000
0!
0.
03
04
#5115000
1!
1.
13
14
1X
0g
06
18
0<
#5130000
0!
0.
03
04
#5145000
1!
1.
13
14
1V
0W
07
19
0X
1g
0k
1j
1f
0e
1<
#5160000
0!
0.
03
04
#5175000
1!
1.
13
14
1X
0g
16
0<
#5190000
0!
0.
03
04
#5205000
1!
1.
13
14
1W
17
0X
1g
0j
0f
1<
#5220000
0!
0.
03
04
#5235000
1!
1.
13
14
1X
0g
06
08
0<
1>
#5250000
0!
0.
03
04
#5265000
1!
1.
13
14
0V
0W
07
09
1:
0X
1U
0d
1g
0l
1k
1j
1f
1e
1<
#5280000
0!
0.
03
04
#5295000
1!
1.
13
14
1X
0g
16
0<
#5310000
0!
0.
03
04
#5325000
1!
1.
13
14
1W
17
0X
1g
0j
0f
1<
#5340000
0!
0.
03
04
#5355000
1!
1.
13
14
1X
0g
06
18
0<
#5370000
0!
0.
03
04
#5385000
1!
1.
13
14
1V
0W
07
19
0X
1g
0k
1j
1f
0e
1<
#5400000
0!
0.
03
04
#5415000
1!
1.
13
14
1X
0g
16
0<
#5430000
0!
0.
03
04
#5445000
1!
1.
13
14
1W
17
0X
1g
0j
0f
1<
#5460000
0!
0.
03
04
#5475000
1!
1.
13
14
1X
0g
06
08
1;
0<
0>
#5490000
0!
0.
03
04
#5505000
1!
1.
13
14
0V
0W
07
09
0:
1T
0X
1=
0U
1d
0m
1g
0c
1l
1k
1j
1f
1e
1<
#5520000
0!
0.
03
04
#5535000
1!
1.
13
14
1X
0g
16
0<
#5550000
0!
0.
03
04
#5565000
1!
1.
13
14
1W
17
0X
1g
0j
0f
1<
#5580000
0!
0.
03
04
#5595000
1!
1.
13
14
1X
0g
06
18
0<
#5610000
0!
0.
03
04
#5625000
1!
1.
13
14
1V
0W
07
19
0X
1g
0k
1j
1f
0e
1<
#5640000
0!
0.
03
04
#5655000
1!
1.
13
14
1X
0g
16
0<
#5670000
0!
0.
03
04
#5685000
1!
1.
13
14
1W
17
0X
1g
0j
0f
1<
#5700000
0!
0.
03
04
#5715000
1!
1.
13
14
1X
0g
06
08
0<
1>
#5730000
0!
0.
03
04
#5745000
1!
1.
13
14
0V
0W
07
09
1:
0X
1U
0d
1g
0l
1k
1j
1f
1e
0;
0>
0?
#5760000
0!
0.
03
04
#5775000
1!
1.
13
14
0@
0:
0T
0=
0U
1a
1d
1m
1c
1l
1?
0K
1<
0?
00
0"
#5790000
0!
0.
03
04
#5805000
1!
1.
13
14
1X
0g
16
0<
#5820000
0!
0.
03
04
#5835000
1!
1.
13
14
1W
17
0X
1g
0j
0f
1<
#5850000
0!
0.
03
04
#5865000
1!
1.
13
14
1X
0g
06
18
0<
#5880000
0!
0.
03
04
#5895000
1!
1.
13
14
1V
0W
07
19
0X
1g
0k
1j
1f
0e
1<
#5910000
0!
0.
03
04
#5925000
1!
1.
13
14
1X
0g
16
0<
#5940000
0!
0.
03
04
#5955000
1!
1.
13
14
1W
17
0X
1g
0j
0f
1<
#5970000
0!
0.
03
04
#5985000
1!
1.
13
14
1X
0g
06
08
0<
1>
#6000000
0!
0.
03
04
#6015000
1!
1.
13
14
0V
0W
07
09
1:
0X
1U
0d
1g
0l
1k
1j
1f
1e
1<
#6030000
0!
0.
03
04
#6045000
1!
1.
13
14
1X
0g
16
0<
#6060000
0!
0.
03
04
#6075000
1!
1.
13
14
1W
17
0X
1g
0j
0f
1<
#6090000
0!
0.
03
04
#6105000
1!
1.
13
14
1X
0g
06
18
0<
#6120000
0!
0.
03
04
#6135000
1!
1.
13
14
1V
0W
07
19
0X
1g
0k
1j
1f
0e
1<
#6150000
0!
0.
03
04
#6165000
1!
1.
13
14
1X
0g
16
0<
#6180000
0!
0.
03
04
#6195000
1!
1.
13
14
1W
17
0X
1g
0j
0f
1<
#6210000
0!
0.
03
04
#6225000
1!
1.
13
14
1X
0g
06
08
1;
0<
0>
#6240000
0!
0.
03
04
#6255000
1!
1.
13
14
0V
0W
07
09
0:
1T
0X
1=
0U
1d
0m
1g
0c
1l
1k
1j
1f
1e
1<
#6270000
0!
0.
03
04
#6285000
1!
1.
13
14
1X
0g
16
0<
#6300000
0!
0.
03
04
#6315000
1!
1.
13
14
1W
17
0X
1g
0j
0f
1<
#6330000
0!
0.
03
04
#6345000
1!
1.
13
14
1X
0g
06
18
0<
#6360000
0!
0.
03
04
#6375000
1!
1.
13
14
1V
0W
07
19
0X
1g
0k
1j
1f
0e
1<
#6390000
0!
0.
03
04
#6405000
1!
1.
13
14
1X
0g
16
0<
#6420000
0!
0.
03
04
#6435000
1!
1.
13
14
1W
17
0X
1g
0j
0f
1<
#6450000
0!
0.
03
04
#6465000
1!
1.
13
14
1X
0g
06
08
0<
1>
#6480000
0!
0.
03
04
#6495000
1!
1.
13
14
0V
0W
07
09
1:
0X
1U
0d
1g
0l
1k
1j
1f
1e
0;
0>
1?
#6510000
0!
0.
03
04
#6525000
1!
1.
13
14
1@
0:
0T
0=
0U
0a
0A
0L
0M
1O
1Q
0S
1d
1m
1c
1l
0?
1K
1`
0^
0\
1Z
1Y
1i
1<
1?
1B
0E
1C
0H
0J
0K
1b
10
1"
00
11
0"
1#
#6540000
0!
0.
03
04
#6555000
1!
1.
13
14
1X
0g
16
0<
#6570000
0!
0.
03
04
#6585000
1!
1.
13
14
1W
17
0X
1g
0j
0f
1<
#6600000
0!
0.
03
04
#6615000
1!
1.
13
14
1X
0g
06
18
0<
#6630000
0!
0.
03
04
#6645000
1!
1.
13
14
1V
0W
07
19
0X
1g
0k
1j
1f
0e
1<
#6660000
0!
0.
03
04
#6675000
1!
1.
13
14
1X
0g
16
0<
#6690000
0!
0.
03
04
#6705000
1!
1.
13
14
1W
17
0X
1g
0j
0f
1<
#6720000
0!
0.
03
04
#6735000
1!
1.
13
14
1X
0g
06
08
0<
1>
#6750000
0!
0.
03
04
#6765000
1!
1.
13
14
0V
0W
07
09
1:
0X
1U
0d
1g
0l
1k
1j
1f
1e
1<
#6780000
0!
0.
03
04
#6795000
1!
1.
13
14
1X
0g
16
0<
#6810000
0!
0.
03
04
#6825000
1!
1.
13
14
1W
17
0X
1g
0j
0f
1<
#6840000
0!
0.
03
04
#6855000
1!
1.
13
14
1X
0g
06
18
0<
#6870000
0!
0.
03
04
#6885000
1!
1.
13
14
1V
0W
07
19
0X
1g
0k
1j
1f
0e
1<
#6900000
0!
0.
03
04
#6915000
1!
1.
13
14
1X
0g
16
0<
#6930000
0!
0.
03
04
#6945000
1!
1.
13
14
1W
17
0X
1g
0j
0f
1<
#6960000
0!
0.
03
04
#6975000
1!
1.
13
14
1X
0g
06
08
1;
0<
0>
#6990000
0!
0.
03
04
#7005000
1!
1.
13
14
0V
0W
07
09
0:
1T
0X
1=
0U
1d
0m
1g
0c
1l
1k
1j
1f
1e
1<
#7020000
0!
0.
03
04
#7035000
1!
1.
13
14
1X
0g
16
0<
#7050000
0!
0.
03
04
#7065000
1!
1.
13
14
1W
17
0X
1g
0j
0f
1<
#7080000
0!
0.
03
04
#7095000
1!
1.
13
14
1X
0g
06
18
0<
#7110000
0!
0.
03
04
#7125000
1!
1.
13
14
1V
0W
07
19
0X
1g
0k
1j
1f
0e
1<
#7140000
0!
0.
03
04
#7155000
1!
1.
13
14
1X
0g
16
0<
#7170000
0!
0.
03
04
#7185000
1!
1.
13
14
1W
17
0X
1g
0j
0f
1<
#7200000
0!
0.
03
04
#7215000
1!
1.
13
14
1X
0g
06
08
0<
1>
#7230000
0!
0.
03
04
#7245000
1!
1.
13
14
0V
0W
07
09
1:
0X
1U
0d
1g
0l
1k
1j
1f
1e
0;
0>
0?
#7260000
0!
0.
03
04
#7275000
1!
1.
13
14
0@
0:
0T
0=
0U
1a
1d
1m
1c
1l
1?
1J
1<
0?
0b
01
0#
#7290000
0!
0.
03
04
#7305000
1!
1.
13
14
1X
0g
16
0<
#7320000
0!
0.
03
04
#7335000
1!
1.
13
14
1W
17
0X
1g
0j
0f
1<
#7350000
0!
0.
03
04
#7365000
1!
1.
13
14
1X
0g
06
18
0<
#7380000
0!
0.
03
04
#7395000
1!
1.
13
14
1V
0W
07
19
0X
1g
0k
1j
1f
0e
1<
#7410000
0!
0.
03
04
#7425000
1!
1.
13
14
1X
0g
16
0<
#7440000
0!
0.
03
04
#7455000
1!
1.
13
14
1W
17
0X
1g
0j
0f
1<
#7470000
0!
0.
03
04
#7485000
1!
1.
13
14
1X
0g
06
08
0<
1>
#7500000
0!
0.
03
04
#7515000
1!
1.
13
14
0V
0W
07
09
1:
0X
1U
0d
1g
0l
1k
1j
1f
1e
1<
#7530000
0!
0.
03
04
#7545000
1!
1.
13
14
1X
0g
16
0<
#7560000
0!
0.
03
04
#7575000
1!
1.
13
14
1W
17
0X
1g
0j
0f
1<
#7590000
0!
0.
03
04
#7605000
1!
1.
13
14
1X
0g
06
18
0<
#7620000
0!
0.
03
04
#7635000
1!
1.
13
14
1V
0W
07
19
0X
1g
0k
1j
1f
0e
1<
#7650000
0!
0.
03
04
#7665000
1!
1.
13
14
1X
0g
16
0<
#7680000
0!
0.
03
04
#7695000
1!
1.
13
14
1W
17
0X
1g
0j
0f
1<
#7710000
0!
0.
03
04
#7725000
1!
1.
13
14
1X
0g
06
08
1;
0<
0>
#7740000
0!
0.
03
04
#7755000
1!
1.
13
14
0V
0W
07
09
0:
1T
0X
1=
0U
1d
0m
1g
0c
1l
1k
1j
1f
1e
1<
#7770000
0!
0.
03
04
