modules/hw3_2/simulation/qsim/pwm.msim.vcd
$comment
	File created using the following command:
		vcd file pwm.msim.vcd -direction
$end
$date
	Wed May 17 22:47:53 2023
$end
$version
	ModelSim Version 10.5b
$end
$timescale
	1ps
$end

$scope module pwm_vhd_vec_tst $end
$var wire 1 ! clk $end
$var wire 1 " duty [2] $end
$var wire 1 # duty [1] $end
$var wire 1 $ duty [0] $end
$var wire 1 % pwm_out $end
$var wire 1 & rst $end

$scope module i1 $end
$var wire 1 ' gnd $end
$var wire 1 ( vcc $end
$var wire 1 ) unknown $end
$var wire 1 * devoe $end
$var wire 1 + devclrn $end
$var wire 1 , devpor $end
$var wire 1 - ww_devoe $end
$var wire 1 . ww_devclrn $end
$var wire 1 / ww_devpor $end
$var wire 1 0 ww_clk $end
$var wire 1 1 ww_rst $end
$var wire 1 2 ww_duty [2] $end
$var wire 1 3 ww_duty [1] $end
$var wire 1 4 ww_duty [0] $end
$var wire 1 5 ww_pwm_out $end
$var wire 1 6 \~QUARTUS_CREATED_GND~I_combout\ $end
$var wire 1 7 \clk~input_o\ $end
$var wire 1 8 \clk~inputCLKENA0_outclk\ $end
$var wire 1 9 \count[0]~2_combout\ $end
$var wire 1 : \count~1_combout\ $end
$var wire 1 ; \count[1]~0_combout\ $end
$var wire 1 < \clk_slow~0_combout\ $end
$var wire 1 = \clk_slow~feeder_combout\ $end
$var wire 1 > \clk_slow~q\ $end
$var wire 1 ? \counter~1_combout\ $end
$var wire 1 @ \duty[1]~input_o\ $end
$var wire 1 A \duty[0]~input_o\ $end
$var wire 1 B \rst~input_o\ $end
$var wire 1 C \duty[2]~input_o\ $end
$var wire 1 D \process_1~0_combout\ $end
$var wire 1 E \counter~2_combout\ $end
$var wire 1 F \counter[0]~feeder_combout\ $end
$var wire 1 G \counter~0_combout\ $end
$var wire 1 H \counter[2]~feeder_combout\ $end
$var wire 1 I \pwm_out~2_combout\ $end
$var wire 1 J \pwm_out~1_combout\ $end
$var wire 1 K \pwm_out~0_combout\ $end
$var wire 1 L \pwm_out~reg0feeder_combout\ $end
$var wire 1 M \pwm_out~reg0_q\ $end
$var wire 1 N counter [2] $end
$var wire 1 O counter [1] $end
$var wire 1 P counter [0] $end
$var wire 1 Q count [2] $end
$var wire 1 R count [1] $end
$var wire 1 S count [0] $end
$var wire 1 T \ALT_INV_rst~input_o\ $end
$var wire 1 U \ALT_INV_duty[0]~input_o\ $end
$var wire 1 V \ALT_INV_duty[1]~input_o\ $end
$var wire 1 W \ALT_INV_duty[2]~input_o\ $end
$var wire 1 X \ALT_INV_pwm_out~2_combout\ $end
$var wire 1 Y \ALT_INV_pwm_out~1_combout\ $end
$var wire 1 Z \ALT_INV_clk_slow~0_combout\ $end
$var wire 1 [ ALT_INV_count [2] $end
$var wire 1 \ ALT_INV_count [1] $end
$var wire 1 ] ALT_INV_count [0] $end
$var wire 1 ^ \ALT_INV_counter~2_combout\ $end
$var wire 1 _ \ALT_INV_counter~0_combout\ $end
$var wire 1 ` \ALT_INV_process_1~0_combout\ $end
$var wire 1 a \ALT_INV_clk_slow~q\ $end
$var wire 1 b \ALT_INV_pwm_out~0_combout\ $end
$var wire 1 c ALT_INV_counter [2] $end
$var wire 1 d ALT_INV_counter [1] $end
$var wire 1 e ALT_INV_counter [0] $end
$var wire 1 f \ALT_INV_pwm_out~reg0_q\ $end
$upscope $end
$upscope $end
$enddefinitions $end
#0
$dumpvars
0!
0%
1&
0'
1(
x)
1*
1+
1,
1-
1.
1/
00
11
05
x6
07
08
19
0:
0;
0<
0=
0>
0?
0@
0A
1B
0C
1D
1E
1F
0G
0H
1I
1J
1K
1L
0M
0T
1U
1V
1W
0X
0Y
1Z
0^
1_
0`
1a
0b
1f
0"
0#
0$
02
03
04
0N
0O
0P
0Q
0R
0S
1[
1\
1]
1c
1d
1e
$end
#1000
1!
10
17
18
1S
0]
09
1;
#2000
0!
00
07
08
#3000
1!
10
17
18
0S
1R
0\
1]
19
#4000
0!
00
07
08
#5000
1!
10
17
18
1S
0]
09
1:
0;
#6000
0!
00
07
08
#7000
1!
10
17
18
0S
1Q
0R
1\
0[
1]
19
1<
0Z
1=
#8000
0!
00
07
08
#9000
1!
10
17
18
1>
1S
0a
0]
09
0:
0<
1Z
0=
#10000
0!
00
07
08
#11000
1!
10
17
18
0>
0S
0Q
1a
1[
1]
19
#12000
0!
00
07
08
#13000
1!
10
17
18
1S
0]
09
1;
#14000
0!
00
07
08
#15000
1!
10
17
18
0S
1R
0\
1]
19
#16000
0!
00
07
08
#17000
1!
10
17
18
1S
0]
09
1:
0;
#18000
0!
00
07
08
#19000
1!
10
17
18
0S
1Q
0R
1\
0[
1]
19
1<
0Z
1=
#20000
0!
0&
00
01
0B
07
08
1T
#21000
1!
10
17
18
1>
1S
0a
0]
09
0:
0<
1Z
0=
#22000
0!
00
07
08
#23000
1!
10
17
18
0>
0S
0Q
1a
1[
1]
19
#24000
0!
00
07
08
#25000
1!
10
17
18
1S
0]
09
1;
#26000
0!
00
07
08
#27000
1!
10
17
18
0S
1R
0\
1]
19
#28000
0!
00
07
08
#29000
1!
10
17
18
1S
0]
09
1:
0;
#30000
0!
00
07
08
#31000
1!
10
17
18
0S
1Q
0R
1\
0[
1]
19
1<
0Z
1=
#32000
0!
00
07
08
#33000
1!
10
17
18
1>
1S
0a
0]
09
0:
0<
1Z
0=
#34000
0!
00
07
08
#35000
1!
10
17
18
0>
0S
0Q
1a
1[
1]
19
#36000
0!
00
07
08
#37000
1!
10
17
18
1S
0]
09
1;
#38000
0!
00
07
08
#39000
1!
10
17
18
0S
1R
0\
1]
19
#40000
0!
00
07
08
#41000
1!
10
17
18
1S
0]
09
1:
0;
#42000
0!
00
07
08
#43000
1!
10
17
18
0S
1Q
0R
1\
0[
1]
19
1<
0Z
1=
#44000
0!
00
07
08
#45000
1!
10
17
18
1>
1S
0a
0]
09
0:
0<
1Z
0=
#46000
0!
00
07
08
#47000
1!
10
17
18
0>
0S
0Q
1a
1[
1]
19
#48000
0!
00
07
08
#49000
1!
10
17
18
1S
0]
09
1;
#50000
0!
00
07
08
#51000
1!
10
17
18
0S
1R
0\
1]
19
#52000
0!
00
07
08
#53000
1!
10
17
18
1S
0]
09
1:
0;
#54000
0!
00
07
08
#55000
1!
10
17
18
0S
1Q
0R
1\
0[
1]
19
1<
0Z
1=
#56000
0!
00
07
08
#57000
1!
10
17
18
1>
1S
0a
0]
09
0:
0<
1Z
0=
#58000
0!
00
07
08
#59000
1!
10
17
18
0>
0S
0Q
1a
1[
1]
19
#60000
0!
00
07
08
#61000
1!
10
17
18
1S
0]
09
1;
#62000
0!
00
07
08
#63000
1!
10
17
18
0S
1R
0\
1]
19
#64000
0!
00
07
08
#65000
1!
10
17
18
1S
0]
09
1:
0;
#66000
0!
00
07
08
#67000
1!
10
17
18
0S
1Q
0R
1\
0[
1]
19
1<
0Z
1=
#68000
0!
00
07
08
#69000
1!
10
17
18
1>
1S
0a
0]
09
0:
0<
1Z
0=
#70000
0!
00
07
08
#71000
1!
10
17
18
0>
0S
0Q
1a
1[
1]
19
#72000
0!
00
07
08
#73000
1!
10
17
18
1S
0]
09
1;
#74000
0!
00
07
08
#75000
1!
10
17
18
0S
1R
0\
1]
19
#76000
0!
00
07
08
#77000
1!
10
17
18
1S
0]
09
1:
0;
#78000
0!
00
07
08
#79000
1!
10
17
18
0S
1Q
0R
1\
0[
1]
19
1<
0Z
1=
#80000
0!
00
07
08
#81000
1!
10
17
18
1>
1S
0a
0]
09
0:
0<
1Z
0=
#82000
0!
00
07
08
#83000
1!
10
17
18
0>
0S
0Q
1a
1[
1]
19
#84000
0!
00
07
08
#85000
1!
10
17
18
1S
0]
09
1;
#86000
0!
00
07
08
#87000
1!
10
17
18
0S
1R
0\
1]
19
#88000
0!
00
07
08
#89000
1!
10
17
18
1S
0]
09
1:
0;
#90000
0!
00
07
08
#91000
1!
10
17
18
0S
1Q
0R
1\
0[
1]
19
1<
0Z
1=
#92000
0!
00
07
08
#93000
1!
10
17
18
1>
1S
0a
0]
09
0:
0<
1Z
0=
#94000
0!
00
07
08
#95000
1!
10
17
18
0>
0S
0Q
1a
1[
1]
19
#96000
0!
00
07
08
#97000
1!
10
17
18
1S
0]
09
1;
#98000
0!
00
07
08
#99000
1!
10
17
18
0S
1R
0\
1]
19
#100000
0!
00
07
08
#101000
1!
10
17
18
1S
0]
09
1:
0;
#102000
0!
00
07
08
#103000
1!
10
17
18
0S
1Q
0R
1\
0[
1]
19
1<
0Z
1=
#104000
0!
00
07
08
#105000
1!
10
17
18
1>
1S
0a
0]
09
0:
0<
1Z
0=
#106000
0!
00
07
08
#107000
1!
10
17
18
0>
0S
0Q
1a
1[
1]
19
#108000
0!
00
07
08
#109000
1!
10
17
18
1S
0]
09
1;
#110000
0!
00
07
08
#111000
1!
10
17
18
0S
1R
0\
1]
19
#112000
0!
00
07
08
#113000
1!
10
17
18
1S
0]
09
1:
0;
#114000
0!
00
07
08
#115000
1!
10
17
18
0S
1Q
0R
1\
0[
1]
19
1<
0Z
1=
#116000
0!
00
07
08
#117000
1!
10
17
18
1>
1S
0a
0]
09
0:
0<
1Z
0=
#118000
0!
00
07
08
#119000
1!
10
17
18
0>
0S
0Q
1a
1[
1]
19
#120000
0!
00
07
08
#121000
1!
10
17
18
1S
0]
09
1;
#122000
0!
00
07
08
#123000
1!
10
17
18
0S
1R
0\
1]
19
#124000
0!
00
07
08
#125000
1!
10
17
18
1S
0]
09
1:
0;
#126000
0!
00
07
08
#127000
1!
10
17
18
0S
1Q
0R
1\
0[
1]
19
1<
0Z
1=
#128000
0!
00
07
08
#129000
1!
10
17
18
1>
1S
0a
0]
09
0:
0<
1Z
0=
#130000
0!
00
07
08
#131000
1!
10
17
18
0>
0S
0Q
1a
1[
1]
19
#132000
0!
00
07
08
#133000
1!
10
17
18
1S
0]
09
1;
#134000
0!
00
07
08
#135000
1!
10
17
18
0S
1R
0\
1]
19
#136000
0!
00
07
08
#137000
1!
10
17
18
1S
0]
09
1:
0;
#138000
0!
00
07
08
#139000
1!
10
17
18
0S
1Q
0R
1\
0[
1]
19
1<
0Z
1=
#140000
0!
00
07
08
#141000
1!
10
17
18
1>
1S
0a
0]
09
0:
0<
1Z
0=
#142000
0!
00
07
08
#143000
1!
10
17
18
0>
0S
0Q
1a
1[
1]
19
#144000
0!
00
07
08
#145000
1!
10
17
18
1S
0]
09
1;
#146000
0!
00
07
08
#147000
1!
10
17
18
0S
1R
0\
1]
19
#148000
0!
00
07
08
#149000
1!
10
17
18
1S
0]
09
1:
0;
#150000
0!
00
07
08
#151000
1!
10
17
18
0S
1Q
0R
1\
0[
1]
19
1<
0Z
1=
#152000
0!
00
07
08
#153000
1!
10
17
18
1>
1S
0a
0]
09
0:
0<
1Z
0=
#154000
0!
00
07
08
#155000
1!
10
17
18
0>
0S
0Q
1a
1[
1]
19
#156000
0!
00
07
08
#157000
1!
10
17
18
1S
0]
09
1;
#158000
0!
00
07
08
#159000
1!
10
17
18
0S
1R
0\
1]
19
#160000
0!
00
07
08
#161000
1!
10
17
18
1S
0]
09
1:
0;
#162000
0!
00
07
08
#163000
1!
10
17
18
0S
1Q
0R
1\
0[
1]
19
1<
0Z
1=
#164000
0!
00
07
08
#165000
1!
10
17
18
1>
1S
0a
0]
09
0:
0<
1Z
0=
#166000
0!
00
07
08
#167000
1!
10
17
18
0>
0S
0Q
1a
1[
1]
19
#168000
0!
00
07
08
#169000
1!
10
17
18
1S
0]
09
1;
#170000
0!
00
07
08
#171000
1!
10
17
18
0S
1R
0\
1]
19
#172000
0!
00
07
08
#173000
1!
10
17
18
1S
0]
09
1:
0;
#174000
0!
00
07
08
#175000
1!
10
17
18
0S
1Q
0R
1\
0[
1]
19
1<
0Z
1=
#176000
0!
00
07
08
#177000
1!
10
17
18
1>
1S
0a
0]
09
0:
0<
1Z
0=
#178000
0!
00
07
08
#179000
1!
10
17
18
0>
0S
0Q
1a
1[
1]
19
#180000
0!
00
07
08
#181000
1!
10
17
18
1S
0]
09
1;
#182000
0!
00
07
08
#183000
1!
10
17
18
0S
1R
0\
1]
19
#184000
0!
00
07
08
#185000
1!
10
17
18
1S
0]
09
1:
0;
#186000
0!
00
07
08
#187000
1!
10
17
18
0S
1Q
0R
1\
0[
1]
19
1<
0Z
1=
#188000
0!
00
07
08
#189000
1!
10
17
18
1>
1S
0a
0]
09
0:
0<
1Z
0=
#190000
0!
00
07
08
#191000
1!
10
17
18
0>
0S
0Q
1a
1[
1]
19
#192000
0!
00
07
08
#193000
1!
10
17
18
1S
0]
09
1;
#194000
0!
00
07
08
#195000
1!
10
17
18
0S
1R
0\
1]
19
#196000
0!
00
07
08
#197000
1!
10
17
18
1S
0]
09
1:
0;
#198000
0!
00
07
08
#199000
1!
10
17
18
0S
1Q
0R
1\
0[
1]
19
1<
0Z
1=
#200000
0!
00
07
08
#201000
1!
10
17
18
1>
1S
0a
0]
09
0:
0<
1Z
0=
#202000
0!
00
07
08
#203000
1!
10
17
18
0>
0S
0Q
1a
1[
1]
19
#204000
0!
00
07
08
#205000
1!
10
17
18
1S
0]
09
1;
#206000
0!
00
07
08
#207000
1!
10
17
18
0S
1R
0\
1]
19
#208000
0!
00
07
08
#209000
1!
10
17
18
1S
0]
09
1:
0;
#210000
0!
00
07
08
#211000
1!
10
17
18
0S
1Q
0R
1\
0[
1]
19
1<
0Z
1=
#212000
0!
00
07
08
#213000
1!
10
17
18
1>
1S
0a
0]
09
0:
0<
1Z
0=
#214000
0!
00
07
08
#215000
1!
10
17
18
0>
0S
0Q
1a
1[
1]
19
#216000
0!
00
07
08
#217000
1!
10
17
18
1S
0]
09
1;
#218000
0!
00
07
08
#219000
1!
10
17
18
0S
1R
0\
1]
19
#220000
0!
00
07
08
#221000
1!
10
17
18
1S
0]
09
1:
0;
#222000
0!
00
07
08
#223000
1!
10
17
18
0S
1Q
0R
1\
0[
1]
19
1<
0Z
1=
#224000
0!
00
07
08
#225000
1!
10
17
18
1>
1S
0a
0]
09
0:
0<
1Z
0=
#226000
0!
00
07
08
#227000
1!
10
17
18
0>
0S
0Q
1a
1[
1]
19
#228000
0!
00
07
08
#229000
1!
10
17
18
1S
0]
09
1;
#230000
0!
00
07
08
#231000
1!
10
17
18
0S
1R
0\
1]
19
#232000
0!
00
07
08
#233000
1!
10
17
18
1S
0]
09
1:
0;
#234000
0!
00
07
08
#235000
1!
10
17
18
0S
1Q
0R
1\
0[
1]
19
1<
0Z
1=
#236000
0!
00
07
08
#237000
1!
10
17
18
1>
1S
0a
0]
09
0:
0<
1Z
0=
#238000
0!
00
07
08
#239000
1!
10
17
18
0>
0S
0Q
1a
1[
1]
19
#240000
0!
00
07
08
#241000
1!
10
17
18
1S
0]
09
1;
#242000
0!
00
07
08
#243000
1!
10
17
18
0S
1R
0\
1]
19
#244000
0!
00
07
08
#245000
1!
10
17
18
1S
0]
09
1:
0;
#246000
0!
00
07
08
#247000
1!
10
17
18
0S
1Q
0R
1\
0[
1]
19
1<
0Z
1=
#248000
0!
00
07
08
#249000
1!
10
17
18
1>
1S
0a
0]
09
0:
0<
1Z
0=
#250000
0!
00
07
08
#251000
1!
10
17
18
0>
0S
0Q
1a
1[
1]
19
#252000
0!
00
07
08
#253000
1!
10
17
18
1S
0]
09
1;
#254000
0!
00
07
08
#255000
1!
10
17
18
0S
1R
0\
1]
19
#256000
0!
00
07
08
#257000
1!
10
17
18
1S
0]
09
1:
0;
#258000
0!
00
07
08
#259000
1!
10
17
18
0S
1Q
0R
1\
0[
1]
19
1<
0Z
1=
#260000
0!
00
07
08
#261000
1!
10
17
18
1>
1S
0a
0]
09
0:
0<
1Z
0=
#262000
0!
00
07
08
#263000
1!
10
17
18
0>
0S
0Q
1a
1[
1]
19
#264000
0!
00
07
08
#265000
1!
10
17
18
1S
0]
09
1;
#266000
0!
00
07
08
#267000
1!
10
17
18
0S
1R
0\
1]
19
#268000
0!
00
07
08
#269000
1!
10
17
18
1S
0]
09
1:
0;
#270000
0!
00
07
08
#271000
1!
10
17
18
0S
1Q
0R
1\
0[
1]
19
1<
0Z
1=
#272000
0!
00
07
08
#273000
1!
10
17
18
1>
1S
0a
0]
09
0:
0<
1Z
0=
#274000
0!
00
07
08
#275000
1!
10
17
18
0>
0S
0Q
1a
1[
1]
19
#276000
0!
00
07
08
#277000
1!
10
17
18
1S
0]
09
1;
#278000
0!
00
07
08
#279000
1!
10
17
18
0S
1R
0\
1]
19
#280000
0!
00
07
08
#281000
1!
10
17
18
1S
0]
09
1:
0;
#282000
0!
00
07
08
#283000
1!
10
17
18
0S
1Q
0R
1\
0[
1]
19
1<
0Z
1=
#284000
0!
00
07
08
#285000
1!
10
17
18
1>
1S
0a
0]
09
0:
0<
1Z
0=
#286000
0!
00
07
08
#287000
1!
10
17
18
0>
0S
0Q
1a
1[
1]
19
#288000
0!
00
07
08
#289000
1!
10
17
18
1S
0]
09
1;
#290000
0!
00
07
08
#291000
1!
10
17
18
0S
1R
0\
1]
19
#292000
0!
00
07
08
#293000
1!
10
17
18
1S
0]
09
1:
0;
#294000
0!
00
07
08
#295000
1!
10
17
18
0S
1Q
0R
1\
0[
1]
19
1<
0Z
1=
#296000
0!
00
07
08
#297000
1!
10
17
18
1>
1S
0a
0]
09
0:
0<
1Z
0=
#298000
0!
00
07
08
#299000
1!
10
17
18
0>
0S
0Q
1a
1[
1]
19
#300000
0!
00
07
08
#301000
1!
10
17
18
1S
0]
09
1;
#302000
0!
00
07
08
#303000
1!
10
17
18
0S
1R
0\
1]
19
#304000
0!
00
07
08
#305000
1!
10
17
18
1S
0]
09
1:
0;
#306000
0!
00
07
08
#307000
1!
10
17
18
0S
1Q
0R
1\
0[
1]
19
1<
0Z
1=
#308000
0!
00
07
08
#309000
1!
10
17
18
1>
1S
0a
0]
09
0:
0<
1Z
0=
#310000
0!
00
07
08
#311000
1!
10
17
18
0>
0S
0Q
1a
1[
1]
19
#312000
0!
00
07
08
#313000
1!
10
17
18
1S
0]
09
1;
#314000
0!
00
07
08
#315000
1!
10
17
18
0S
1R
0\
1]
19
#316000
0!
00
07
08
#317000
1!
10
17
18
1S
0]
09
1:
0;
#318000
0!
00
07
08
#319000
1!
10
17
18
0S
1Q
0R
1\
0[
1]
19
1<
0Z
1=
#320000
0!
00
07
08
#321000
1!
10
17
18
1>
1S
0a
0]
09
0:
0<
1Z
0=
#322000
0!
00
07
08
#323000
1!
10
17
18
0>
0S
0Q
1a
1[
1]
19
#324000
0!
00
07
08
#325000
1!
10
17
18
1S
0]
09
1;
#326000
0!
00
07
08
#327000
1!
10
17
18
0S
1R
0\
1]
19
#328000
0!
00
07
08
#329000
1!
10
17
18
1S
0]
09
1:
0;
#330000
0!
00
07
08
#331000
1!
10
17
18
0S
1Q
0R
1\
0[
1]
19
1<
0Z
1=
#332000
0!
00
07
08
#333000
1!
10
17
18
1>
1S
0a
0]
09
0:
0<
1Z
0=
#334000
0!
00
07
08
#335000
1!
10
17
18
0>
0S
0Q
1a
1[
1]
19
#336000
0!
00
07
08
#337000
1!
10
17
18
1S
0]
09
1;
#338000
0!
00
07
08
#339000
1!
10
17
18
0S
1R
0\
1]
19
#340000
0!
00
07
08
#341000
1!
10
17
18
1S
0]
09
1:
0;
#342000
0!
00
07
08
#343000
1!
10
17
18
0S
1Q
0R
1\
0[
1]
19
1<
0Z
1=
#344000
0!
00
07
08
#345000
1!
10
17
18
1>
1S
0a
0]
09
0:
0<
1Z
0=
#346000
0!
00
07
08
#347000
1!
10
17
18
0>
0S
0Q
1a
1[
1]
19
#348000
0!
00
07
08
#349000
1!
10
17
18
1S
0]
09
1;
#350000
0!
00
07
08
#351000
1!
10
17
18
0S
1R
0\
1]
19
#352000
0!
00
07
08
#353000
1!
10
17
18
1S
0]
09
1:
0;
#354000
0!
00
07
08
#355000
1!
10
17
18
0S
1Q
0R
1\
0[
1]
19
1<
0Z
1=
#356000
0!
00
07
08
#357000
1!
10
17
18
1>
1S
0a
0]
09
0:
0<
1Z
0=
#358000
0!
00
07
08
#359000
1!
10
17
18
0>
0S
0Q
1a
1[
1]
19
#360000
0!
00
07
08
#361000
1!
10
17
18
1S
0]
09
1;
#362000
0!
00
07
08
#363000
1!
10
17
18
0S
1R
0\
1]
19
#364000
0!
00
07
08
#365000
1!
10
17
18
1S
0]
09
1:
0;
#366000
0!
00
07
08
#367000
1!
10
17
18
0S
1Q
0R
1\
0[
1]
19
1<
0Z
1=
#368000
0!
00
07
08
#369000
1!
10
17
18
1>
1S
0a
0]
09
0:
0<
1Z
0=
#370000
0!
00
07
08
#371000
1!
10
17
18
0>
0S
0Q
1a
1[
1]
19
#372000
0!
00
07
08
#373000
1!
10
17
18
1S
0]
09
1;
#374000
0!
00
07
08
#375000
1!
10
17
18
0S
1R
0\
1]
19
#376000
0!
00
07
08
#377000
1!
10
17
18
1S
0]
09
1:
0;
#378000
0!
00
07
08
#379000
1!
10
17
18
0S
1Q
0R
1\
0[
1]
19
1<
0Z
1=
#380000
0!
00
07
08
#381000
1!
10
17
18
1>
1S
0a
0]
09
0:
0<
1Z
0=
#382000
0!
00
07
08
#383000
1!
10
17
18
0>
0S
0Q
1a
1[
1]
19
#384000
0!
00
07
08
#385000
1!
10
17
18
1S
0]
09
1;
#386000
0!
00
07
08
#387000
1!
10
17
18
0S
1R
0\
1]
19
#388000
0!
00
07
08
#389000
1!
10
17
18
1S
0]
09
1:
0;
#390000
0!
00
07
08
#391000
1!
10
17
18
0S
1Q
0R
1\
0[
1]
19
1<
0Z
1=
#392000
0!
00
07
08
#393000
1!
10
17
18
1>
1S
0a
0]
09
0:
0<
1Z
0=
#394000
0!
00
07
08
#395000
1!
10
17
18
0>
0S
0Q
1a
1[
1]
19
#396000
0!
00
07
08
#397000
1!
10
17
18
1S
0]
09
1;
#398000
0!
00
07
08
#399000
1!
10
17
18
0S
1R
0\
1]
19
#400000
0!
00
07
08
#401000
1!
10
17
18
1S
0]
09
1:
0;
#402000
0!
00
07
08
#403000
1!
10
17
18
0S
1Q
0R
1\
0[
1]
19
1<
0Z
1=
#404000
0!
00
07
08
#405000
1!
10
17
18
1>
1S
0a
0]
09
0:
0<
1Z
0=
#406000
0!
00
07
08
#407000
1!
10
17
18
0>
0S
0Q
1a
1[
1]
19
#408000
0!
00
07
08
#409000
1!
10
17
18
1S
0]
09
1;
#410000
0!
00
07
08
#411000
1!
10
17
18
0S
1R
0\
1]
19
#412000
0!
00
07
08
#413000
1!
10
17
18
1S
0]
09
1:
0;
#414000
0!
00
07
08
#415000
1!
10
17
18
0S
1Q
0R
1\
0[
1]
19
1<
0Z
1=
#416000
0!
00
07
08
#417000
1!
10
17
18
1>
1S
0a
0]
09
0:
0<
1Z
0=
#418000
0!
00
07
08
#419000
1!
10
17
18
0>
0S
0Q
1a
1[
1]
19
#420000
0!
00
07
08
#421000
1!
10
17
18
1S
0]
09
1;
#422000
0!
00
07
08
#423000
1!
10
17
18
0S
1R
0\
1]
19
#424000
0!
00
07
08
#425000
1!
10
17
18
1S
0]
09
1:
0;
#426000
0!
00
07
08
#427000
1!
10
17
18
0S
1Q
0R
1\
0[
1]
19
1<
0Z
1=
#428000
0!
00
07
08
#429000
1!
10
17
18
1>
1S
0a
0]
09
0:
0<
1Z
0=
#430000
0!
00
07
08
#431000
1!
10
17
18
0>
0S
0Q
1a
1[
1]
19
#432000
0!
00
07
08
#433000
1!
10
17
18
1S
0]
09
1;
#434000
0!
00
07
08
#435000
1!
10
17
18
0S
1R
0\
1]
19
#436000
0!
00
07
08
#437000
1!
10
17
18
1S
0]
09
1:
0;
#438000
0!
00
07
08
#439000
1!
10
17
18
0S
1Q
0R
1\
0[
1]
19
1<
0Z
1=
#440000
0!
00
07
08
#441000
1!
10
17
18
1>
1S
0a
0]
09
0:
0<
1Z
0=
#442000
0!
00
07
08
#443000
1!
10
17
18
0>
0S
0Q
1a
1[
1]
19
#444000
0!
00
07
08
#445000
1!
10
17
18
1S
0]
09
1;
#446000
0!
00
07
08
#447000
1!
10
17
18
0S
1R
0\
1]
19
#448000
0!
00
07
08
#449000
1!
10
17
18
1S
0]
09
1:
0;
#450000
0!
00
07
08
#451000
1!
10
17
18
0S
1Q
0R
1\
0[
1]
19
1<
0Z
1=
#452000
0!
00
07
08
#453000
1!
10
17
18
1>
1S
0a
0]
09
0:
0<
1Z
0=
#454000
0!
00
07
08
#455000
1!
10
17
18
0>
0S
0Q
1a
1[
1]
19
#456000
0!
00
07
08
#457000
1!
10
17
18
1S
0]
09
1;
#458000
0!
00
07
08
#459000
1!
10
17
18
0S
1R
0\
1]
19
#460000
0!
00
07
08
#461000
1!
10
17
18
1S
0]
09
1:
0;
#462000
0!
00
07
08
#463000
1!
10
17
18
0S
1Q
0R
1\
0[
1]
19
1<
0Z
1=
#464000
0!
00
07
08
#465000
1!
10
17
18
1>
1S
0a
0]
09
0:
0<
1Z
0=
#466000
0!
00
07
08
#467000
1!
10
17
18
0>
0S
0Q
1a
1[
1]
19
#468000
0!
00
07
08
#469000
1!
10
17
18
1S
0]
09
1;
#470000
0!
00
07
08
#471000
1!
10
17
18
0S
1R
0\
1]
19
#472000
0!
00
07
08
#473000
1!
10
17
18
1S
0]
09
1:
0;
#474000
0!
00
07
08
#475000
1!
10
17
18
0S
1Q
0R
1\
0[
1]
19
1<
0Z
1=
#476000
0!
00
07
08
#477000
1!
10
17
18
1>
1S
0a
0]
09
0:
0<
1Z
0=
#478000
0!
00
07
08
#479000
1!
10
17
18
0>
0S
0Q
1a
1[
1]
19
#480000
0!
00
07
08
#481000
1!
10
17
18
1S
0]
09
1;
#482000
0!
00
07
08
#483000
1!
10
17
18
0S
1R
0\
1]
19
#484000
0!
00
07
08
#485000
1!
10
17
18
1S
0]
09
1:
0;
#486000
0!
00
07
08
#487000
1!
10
17
18
0S
1Q
0R
1\
0[
1]
19
1<
0Z
1=
#488000
0!
00
07
08
#489000
1!
10
17
18
1>
1S
0a
0]
09
0:
0<
1Z
0=
#490000
0!
00
07
08
#491000
1!
10
17
18
0>
0S
0Q
1a
1[
1]
19
#492000
0!
00
07
08
#493000
1!
10
17
18
1S
0]
09
1;
#494000
0!
00
07
08
#495000
1!
10
17
18
0S
1R
0\
1]
19
#496000
0!
00
07
08
#497000
1!
10
17
18
1S
0]
09
1:
0;
#498000
0!
00
07
08
#499000
1!
10
17
18
0S
1Q
0R
1\
0[
1]
19
1<
0Z
1=
#500000
0!
00
07
08
#501000
1!
10
17
18
1>
1S
0a
0]
09
0:
0<
1Z
0=
#502000
0!
00
07
08
#503000
1!
10
17
18
0>
0S
0Q
1a
1[
1]
19
#504000
0!
00
07
08
#505000
1!
10
17
18
1S
0]
09
1;
#506000
0!
00
07
08
#507000
1!
10
17
18
0S
1R
0\
1]
19
#508000
0!
00
07
08
#509000
1!
10
17
18
1S
0]
09
1:
0;
#510000
0!
00
07
08
#511000
1!
10
17
18
0S
1Q
0R
1\
0[
1]
19
1<
0Z
1=
#512000
0!
00
07
08
#513000
1!
10
17
18
1>
1S
0a
0]
09
0:
0<
1Z
0=
#514000
0!
00
07
08
#515000
1!
10
17
18
0>
0S
0Q
1a
1[
1]
19
#516000
0!
00
07
08
#517000
1!
10
17
18
1S
0]
09
1;
#518000
0!
00
07
08
#519000
1!
10
17
18
0S
1R
0\
1]
19
#520000
0!
00
07
08
#521000
1!
10
17
18
1S
0]
09
1:
0;
#522000
0!
00
07
08
#523000
1!
10
17
18
0S
1Q
0R
1\
0[
1]
19
1<
0Z
1=
#524000
0!
00
07
08
#525000
1!
10
17
18
1>
1S
0a
0]
09
0:
0<
1Z
0=
#526000
0!
00
07
08
#527000
1!
10
17
18
0>
0S
0Q
1a
1[
1]
19
#528000
0!
00
07
08
#529000
1!
10
17
18
1S
0]
09
1;
#530000
0!
00
07
08
#531000
1!
10
17
18
0S
1R
0\
1]
19
#532000
0!
00
07
08
#533000
1!
10
17
18
1S
0]
09
1:
0;
#534000
0!
00
07
08
#535000
1!
10
17
18
0S
1Q
0R
1\
0[
1]
19
1<
0Z
1=
#536000
0!
00
07
08
#537000
1!
10
17
18
1>
1S
0a
0]
09
0:
0<
1Z
0=
#538000
0!
00
07
08
#539000
1!
10
17
18
0>
0S
0Q
1a
1[
1]
19
#540000
0!
1$
00
14
1A
07
08
0U
0D
1`
#541000
1!
10
17
18
1S
0]
09
1;
#542000
0!
00
07
08
#543000
1!
10
17
18
0S
1R
0\
1]
19
#544000
0!
00
07
08
#545000
1!
10
17
18
1S
0]
09
1:
0;
#546000
0!
00
07
08
#547000
1!
10
17
18
0S
1Q
0R
1\
0[
1]
19
1<
0Z
1=
#548000
0!
00
07
08
#549000
1!
10
17
18
1>
1S
0a
1P
1M
0]
0f
0e
09
0:
0<
1?
0E
0J
1Z
1Y
1^
15
0=
0F
0K
1%
1b
0L
#550000
0!
00
07
08
#551000
1!
10
17
18
0>
0S
0Q
1a
1[
1]
19
#552000
0!
00
07
08
#553000
1!
10
17
18
1S
0]
09
1;
#554000
0!
00
07
08
#555000
1!
10
17
18
0S
1R
0\
1]
19
#556000
0!
00
07
08
#557000
1!
10
17
18
1S
0]
09
1:
0;
#558000
0!
00
07
08
#559000
1!
10
17
18
0S
1Q
0R
1\
0[
1]
19
1<
0Z
1=
#560000
0!
00
07
08
#561000
1!
10
17
18
1>
1S
0a
1O
0P
0M
0]
1f
1e
0d
09
0:
0<
1E
1Z
0^
05
0=
1F
0%
#562000
0!
00
07
08
#563000
1!
10
17
18
0>
0S
0Q
1a
1[
1]
19
#564000
0!
00
07
08
#565000
1!
10
17
18
1S
0]
09
1;
#566000
0!
00
07
08
#567000
1!
10
17
18
0S
1R
0\
1]
19
#568000
0!
00
07
08
