modules/peak_detection/simulation/qsim/peak_detection.msim.vcd
$comment
	File created using the following command:
		vcd file peak_detection.msim.vcd -direction
$end
$date
	Thu Aug 03 11:01:44 2023
$end
$version
	ModelSim Version 10.5b
$end
$timescale
	1ps
$end

$scope module peak_detection_vlg_vec_tst $end
$var reg 1 ! clk $end
$var reg 16 " input_data [15:0] $end
$var reg 1 # reset $end
$var wire 1 $ output_data [15] $end
$var wire 1 % output_data [14] $end
$var wire 1 & output_data [13] $end
$var wire 1 ' output_data [12] $end
$var wire 1 ( output_data [11] $end
$var wire 1 ) output_data [10] $end
$var wire 1 * output_data [9] $end
$var wire 1 + output_data [8] $end
$var wire 1 , output_data [7] $end
$var wire 1 - output_data [6] $end
$var wire 1 . output_data [5] $end
$var wire 1 / output_data [4] $end
$var wire 1 0 output_data [3] $end
$var wire 1 1 output_data [2] $end
$var wire 1 2 output_data [1] $end
$var wire 1 3 output_data [0] $end

$scope module i1 $end
$var wire 1 4 gnd $end
$var wire 1 5 vcc $end
$var wire 1 6 unknown $end
$var tri1 1 7 devclrn $end
$var tri1 1 8 devpor $end
$var tri1 1 9 devoe $end
$var wire 1 : ~QUARTUS_CREATED_GND~I_combout $end
$var wire 1 ; clk~input_o $end
$var wire 1 < clk~inputCLKENA0_outclk $end
$var wire 1 = input_data[0]~input_o $end
$var wire 1 > reset~input_o $end
$var wire 1 ? input_reg[0][0]~q $end
$var wire 1 @ input_reg[1][0]~q $end
$var wire 1 A input_data[14]~input_o $end
$var wire 1 B input_reg[0][14]~q $end
$var wire 1 C input_data[15]~input_o $end
$var wire 1 D input_reg[0][15]~q $end
$var wire 1 E LessThan1~0_combout $end
$var wire 1 F input_data[10]~input_o $end
$var wire 1 G input_data[11]~input_o $end
$var wire 1 H input_reg[0][10]~q $end
$var wire 1 I input_reg[0][11]~q $end
$var wire 1 J LessThan1~2_combout $end
$var wire 1 K input_data[9]~input_o $end
$var wire 1 L input_reg[0][9]~q $end
$var wire 1 M input_data[8]~input_o $end
$var wire 1 N input_reg[0][8]~q $end
$var wire 1 O LessThan1~3_combout $end
$var wire 1 P input_data[12]~input_o $end
$var wire 1 Q input_reg[0][12]~q $end
$var wire 1 R input_data[13]~input_o $end
$var wire 1 S input_reg[0][13]~q $end
$var wire 1 T LessThan1~1_combout $end
$var wire 1 U Selector1~10_combout $end
$var wire 1 V input_data[6]~input_o $end
$var wire 1 W input_reg[0][6]~q $end
$var wire 1 X input_data[7]~input_o $end
$var wire 1 Y input_reg[0][7]~q $end
$var wire 1 Z Selector1~11_combout $end
$var wire 1 [ Selector1~12_combout $end
$var wire 1 \ Selector1~4_combout $end
$var wire 1 ] Selector1~5_combout $end
$var wire 1 ^ LessThan1~7_combout $end
$var wire 1 _ LessThan1~8_combout $end
$var wire 1 ` LessThan1~9_combout $end
$var wire 1 a LessThan1~10_combout $end
$var wire 1 b LessThan1~11_combout $end
$var wire 1 c LessThan1~12_combout $end
$var wire 1 d LessThan1~13_combout $end
$var wire 1 e input_data[3]~input_o $end
$var wire 1 f input_reg[0][3]~q $end
$var wire 1 g input_data[5]~input_o $end
$var wire 1 h input_data[4]~input_o $end
$var wire 1 i input_reg[0][4]~q $end
$var wire 1 j input_reg[0][5]~q $end
$var wire 1 k Selector1~0_combout $end
$var wire 1 l input_data[1]~input_o $end
$var wire 1 m input_data[2]~input_o $end
$var wire 1 n input_reg[0][1]~q $end
$var wire 1 o input_reg[0][2]~q $end
$var wire 1 p LessThan1~4_combout $end
$var wire 1 q LessThan1~5_combout $end
$var wire 1 r LessThan1~6_combout $end
$var wire 1 s Selector2~0_combout $end
$var wire 1 t stateMoore_reg.10~q $end
$var wire 1 u LessThan1~14_combout $end
$var wire 1 v Selector0~0_combout $end
$var wire 1 w stateMoore_reg.increasing~q $end
$var wire 1 x Selector1~7_combout $end
$var wire 1 y Selector1~6_combout $end
$var wire 1 z Selector1~8_combout $end
$var wire 1 { Selector1~9_combout $end
$var wire 1 | Selector1~2_combout $end
$var wire 1 } Selector1~1_combout $end
$var wire 1 ~ Selector1~3_combout $end
$var wire 1 !! Selector1~13_combout $end
$var wire 1 "! stateMoore_reg.peak~q $end
$var wire 1 #! output_data~0_combout $end
$var wire 1 $! input_reg[1][1]~q $end
$var wire 1 %! output_data~1_combout $end
$var wire 1 &! input_reg[1][2]~q $end
$var wire 1 '! output_data~2_combout $end
$var wire 1 (! input_reg[1][3]~q $end
$var wire 1 )! output_data~3_combout $end
$var wire 1 *! input_reg[1][4]~q $end
$var wire 1 +! output_data~4_combout $end
$var wire 1 ,! input_reg[1][5]~q $end
$var wire 1 -! output_data~5_combout $end
$var wire 1 .! input_reg[1][6]~q $end
$var wire 1 /! output_data~6_combout $end
$var wire 1 0! input_reg[1][7]~q $end
$var wire 1 1! output_data~7_combout $end
$var wire 1 2! input_reg[1][8]~q $end
$var wire 1 3! output_data~8_combout $end
$var wire 1 4! input_reg[1][9]~q $end
$var wire 1 5! output_data~9_combout $end
$var wire 1 6! input_reg[1][10]~q $end
$var wire 1 7! output_data~10_combout $end
$var wire 1 8! input_reg[1][11]~q $end
$var wire 1 9! output_data~11_combout $end
$var wire 1 :! input_reg[1][12]~q $end
$var wire 1 ;! output_data~12_combout $end
$var wire 1 <! input_reg[1][13]~q $end
$var wire 1 =! output_data~13_combout $end
$var wire 1 >! input_reg[1][14]~q $end
$var wire 1 ?! output_data~14_combout $end
$var wire 1 @! input_reg[1][15]~q $end
$var wire 1 A! output_data~15_combout $end
$upscope $end
$upscope $end
$enddefinitions $end
#0
$dumpvars
0!
b0 "
1#
03
02
01
00
0/
0.
0-
0,
0+
0*
0)
0(
0'
0&
0%
0$
04
15
x6
17
18
19
0:
0;
0<
0=
1>
0?
0@
0A
0B
0C
0D
1E
0F
0G
0H
0I
1J
0K
0L
0M
0N
1O
0P
0Q
0R
0S
1T
0U
0V
0W
0X
0Y
0Z
0[
1\
1]
0^
0_
0`
1a
0b
0c
0d
0e
0f
0g
0h
0i
0j
1k
0l
0m
0n
0o
0p
0q
1r
0s
0t
1u
0v
0w
0x
0y
0z
1{
0|
0}
1~
0!!
0"!
0#!
0$!
0%!
0&!
0'!
0(!
0)!
0*!
0+!
0,!
0-!
0.!
0/!
00!
01!
02!
03!
04!
05!
06!
07!
08!
09!
0:!
0;!
0<!
0=!
0>!
0?!
0@!
0A!
$end
#5000
1!
1;
1<
#10000
b1 "
0!
1=
0;
0<
1p
0r
0u
1s
1v
#15000
1!
1;
1<
#20000
b11 "
b10 "
0!
0=
1l
0;
0<
#25000
1!
1;
1<
#30000
b11 "
0!
1=
0;
0<
#35000
1!
1;
1<
#40000
b111 "
b101 "
b100 "
0!
0=
0l
1m
0;
0<
#45000
1!
1;
1<
#50000
b101 "
0!
1=
0;
0<
#55000
1!
1;
1<
#60000
b111 "
b110 "
0!
0=
1l
0;
0<
#65000
1!
1;
1<
#70000
0#
b111 "
0!
0>
1=
0;
0<
#75000
1!
1;
1<
1w
1t
1o
1n
1?
0p
1r
1u
#80000
b1111 "
b1011 "
b1001 "
b1000 "
0!
0=
0l
0m
1e
0;
0<
0r
1}
0u
#85000
1!
1;
1<
1&!
1$!
0o
0n
1f
1@
0?
0}
0~
1r
1u
1~
1!!
0!!
0v
1v
#90000
b1001 "
0!
1=
0;
0<
1p
0r
0u
#95000
1!
1;
1<
1(!
0&!
0$!
0@
1?
0p
1r
1u
#100000
b1011 "
b1010 "
0!
0=
1l
0;
0<
1p
0r
0u
#105000
1!
1;
1<
1n
1@
0?
0p
1r
1u
#110000
b1011 "
0!
1=
0;
0<
1p
0r
0u
#115000
1!
1;
1<
1$!
0@
1?
0p
1r
1u
#120000
b1111 "
b1101 "
b1100 "
0!
0=
0l
1m
0;
0<
1p
0r
0u
#125000
1!
1;
1<
1o
0n
1@
0?
0p
1r
1u
#130000
b1101 "
0!
1=
0;
0<
1p
0r
0u
#135000
1!
1;
1<
1&!
0$!
0@
1?
0p
1r
1u
#140000
b1111 "
b1110 "
0!
0=
1l
0;
0<
1p
0r
0u
#145000
1!
1;
1<
1n
1@
0?
0p
1r
1u
#150000
b1111 "
0!
1=
0;
0<
1p
0r
0u
#155000
1!
1;
1<
1$!
0@
1?
0p
1r
1u
#160000
b11111 "
b10111 "
b10011 "
b10001 "
b10000 "
0!
0=
0l
0m
0e
1h
0;
0<
1q
0k
0~
1}
1~
0r
1!!
0u
0!!
0v
1v
#165000
1!
1;
1<
0o
0n
1i
0f
1@
0?
0}
0q
1k
1r
1u
#170000
b10001 "
0!
1=
0;
0<
1p
0r
0u
#175000
1!
1;
1<
1*!
0(!
0&!
0$!
0@
1?
0p
1r
1u
#180000
b10011 "
b10010 "
0!
0=
1l
0;
0<
1p
0r
0u
#185000
1!
1;
1<
1n
1@
0?
0p
1r
1u
#190000
b10011 "
0!
1=
0;
0<
1p
0r
0u
#195000
1!
1;
1<
1$!
0@
1?
0p
1r
1u
#200000
b10111 "
b10101 "
b10100 "
0!
0=
0l
1m
0;
0<
1p
0r
0u
#205000
1!
1;
1<
1o
0n
1@
0?
0p
1r
1u
#210000
b10101 "
0!
1=
0;
0<
1p
0r
0u
#215000
1!
1;
1<
1&!
0$!
0@
1?
0p
1r
1u
#220000
b10111 "
b10110 "
0!
0=
1l
0;
0<
1p
0r
0u
#225000
1!
1;
1<
1n
1@
0?
0p
1r
1u
#230000
b10111 "
0!
1=
0;
0<
1p
0r
0u
#235000
1!
1;
1<
1$!
0@
1?
0p
1r
1u
#240000
b11111 "
b11011 "
b11001 "
b11000 "
0!
0=
0l
0m
1e
0;
0<
0r
1}
0u
#245000
1!
1;
1<
0o
0n
1f
1@
0?
0}
0~
1r
1u
1~
1!!
0!!
0v
1v
#250000
b11001 "
0!
1=
0;
0<
1p
0r
0u
#255000
1!
1;
1<
1(!
0&!
0$!
0@
1?
0p
1r
1u
#260000
b11011 "
b11010 "
0!
0=
1l
0;
0<
1p
0r
0u
#265000
1!
1;
1<
1n
1@
0?
0p
1r
1u
#270000
b11011 "
0!
1=
0;
0<
1p
0r
0u
#275000
1!
1;
1<
1$!
0@
1?
0p
1r
1u
#280000
b11111 "
b11101 "
b11100 "
0!
0=
0l
1m
0;
0<
1p
0r
0u
#285000
1!
1;
1<
1o
0n
1@
0?
0p
1r
1u
#290000
b11101 "
0!
1=
0;
0<
1p
0r
0u
#295000
1!
1;
1<
1&!
0$!
0@
1?
0p
1r
1u
#300000
b11111 "
b11110 "
0!
0=
1l
0;
0<
1p
0r
0u
#305000
1!
1;
1<
1n
1@
0?
0p
1r
1u
#310000
b11111 "
0!
1=
0;
0<
1p
0r
0u
#315000
1!
1;
1<
1$!
0@
1?
0p
1r
1u
#320000
b111111 "
b101111 "
b100111 "
b100011 "
b100001 "
b100000 "
0!
0=
0l
0m
0e
0h
1g
0;
0<
1q
0k
0~
1}
1~
0r
1!!
0u
0!!
0v
1v
#325000
1!
1;
1<
0o
0n
1j
0i
0f
1@
0?
0}
0q
1k
1r
1u
#330000
b100001 "
0!
1=
0;
0<
1p
0r
0u
#335000
1!
1;
1<
1,!
0*!
0(!
0&!
0$!
0@
1?
0p
1r
1u
#340000
b100011 "
b100010 "
0!
0=
1l
0;
0<
1p
0r
0u
#345000
1!
1;
1<
1n
1@
0?
0p
1r
1u
#350000
b100011 "
0!
1=
0;
0<
1p
0r
0u
#355000
1!
1;
1<
1$!
0@
1?
0p
1r
1u
#360000
b100111 "
b100101 "
b100100 "
0!
0=
0l
1m
0;
0<
1p
0r
0u
#365000
1!
1;
1<
1o
0n
1@
0?
0p
1r
1u
#370000
b100101 "
0!
1=
0;
0<
1p
0r
0u
#375000
1!
1;
1<
1&!
0$!
0@
1?
0p
1r
1u
#380000
b100100 "
0!
0=
0;
0<
1}
0~
1!!
0v
#385000
1!
1;
1<
1"!
0w
1@
0?
0}
1#!
0!!
0s
1-!
1'!
11
1.
13
1~
#390000
b100000 "
b100010 "
b100011 "
0!
1=
1l
0m
0;
0<
1}
0~
#395000
1!
1;
1<
0"!
0t
0o
1n
0@
1?
0}
0#!
0-!
0'!
01
0.
03
1~
#400000
b11 "
b1 "
b0 "
0!
0=
0l
0g
0;
0<
1|
0k
1}
0~
#405000
1!
1;
1<
0&!
1$!
0n
0j
1@
0?
0}
0|
1k
1~
#410000
0!
0;
0<
#415000
1!
1;
1<
0,!
0$!
0@
#420000
0!
0;
0<
#425000
1!
1;
1<
#430000
0!
0;
0<
#435000
1!
1;
1<
#440000
0!
0;
0<
#445000
1!
1;
1<
#450000
0!
0;
0<
#455000
1!
1;
1<
#460000
0!
0;
0<
#465000
1!
1;
1<
#470000
0!
0;
0<
#475000
1!
1;
1<
#480000
0!
0;
0<
#485000
1!
1;
1<
#490000
0!
0;
0<
#495000
1!
1;
1<
#500000
0!
0;
0<
#505000
1!
1;
1<
#510000
0!
0;
0<
#515000
1!
1;
1<
#520000
0!
0;
0<
#525000
1!
1;
1<
#530000
0!
0;
0<
#535000
1!
1;
1<
#540000
0!
0;
0<
#545000
1!
1;
1<
#550000
0!
0;
0<
#555000
1!
1;
1<
#560000
0!
0;
0<
#565000
1!
1;
1<
#570000
0!
0;
0<
#575000
1!
1;
1<
#580000
0!
0;
0<
#585000
1!
1;
1<
#590000
0!
0;
0<
#595000
1!
1;
1<
#600000
0!
0;
0<
#605000
1!
1;
1<
#610000
0!
0;
0<
#615000
1!
1;
1<
#620000
0!
0;
0<
#625000
1!
1;
1<
#630000
0!
0;
0<
#635000
1!
1;
1<
#640000
0!
0;
0<
#645000
1!
1;
1<
#650000
0!
0;
0<
#655000
1!
1;
1<
#660000
0!
0;
0<
#665000
1!
1;
1<
#670000
0!
0;
0<
#675000
1!
1;
1<
#680000
0!
0;
0<
#685000
1!
1;
1<
#690000
0!
0;
0<
#695000
1!
1;
1<
#700000
0!
0;
0<
#705000
1!
1;
1<
#710000
0!
0;
0<
#715000
1!
1;
1<
#720000
0!
0;
0<
#725000
1!
1;
1<
#730000
0!
0;
0<
#735000
1!
1;
1<
#740000
0!
0;
0<
#745000
1!
1;
1<
#750000
0!
0;
0<
#755000
1!
1;
1<
#760000
0!
0;
0<
#765000
1!
1;
1<
#770000
0!
0;
0<
#775000
1!
1;
1<
#780000
0!
0;
0<
#785000
1!
1;
1<
#790000
0!
0;
0<
#795000
1!
1;
1<
#800000
0!
0;
0<
#805000
1!
1;
1<
#810000
0!
0;
0<
#815000
1!
1;
1<
#820000
0!
0;
0<
#825000
1!
1;
1<
#830000
0!
0;
0<
#835000
1!
1;
1<
#840000
0!
0;
0<
#845000
1!
1;
1<
#850000
0!
0;
0<
#855000
1!
1;
1<
#860000
0!
0;
0<
#865000
1!
1;
1<
#870000
0!
0;
0<
#875000
1!
1;
1<
#880000
0!
0;
0<
#885000
1!
1;
1<
#890000
0!
0;
0<
#895000
1!
1;
1<
#900000
0!
0;
0<
#905000
1!
1;
1<
#910000
0!
0;
0<
#915000
1!
1;
1<
#920000
0!
0;
0<
#925000
1!
1;
1<
#930000
0!
0;
0<
#935000
1!
1;
1<
#940000
0!
0;
0<
#945000
1!
1;
1<
#950000
0!
0;
0<
#955000
1!
1;
1<
#960000
0!
0;
0<
#965000
1!
1;
1<
#970000
0!
0;
0<
#975000
1!
1;
1<
#980000
0!
0;
0<
#985000
1!
1;
1<
#990000
0!
0;
0<
#995000
1!
1;
1<
