modules/hw5_5/simulation/qsim/ssd_fun.msim.vcd
$comment
	File created using the following command:
		vcd file ssd_fun.msim.vcd -direction
$end
$date
	Sat May 27 18:52:57 2023
$end
$version
	ModelSim Version 10.5b
$end
$timescale
	1ps
$end

$scope module ssd_fun_vhd_vec_tst $end
$var wire 1 ! clk $end
$var wire 1 " dir_btn $end
$var wire 1 # rst $end
$var wire 1 $ speed_btn $end
$var wire 1 % ssd [6] $end
$var wire 1 & ssd [5] $end
$var wire 1 ' ssd [4] $end
$var wire 1 ( ssd [3] $end
$var wire 1 ) ssd [2] $end
$var wire 1 * ssd [1] $end
$var wire 1 + ssd [0] $end
$var wire 1 , start_btn $end

$scope module i1 $end
$var wire 1 - gnd $end
$var wire 1 . vcc $end
$var wire 1 / unknown $end
$var wire 1 0 devoe $end
$var wire 1 1 devclrn $end
$var wire 1 2 devpor $end
$var wire 1 3 ww_devoe $end
$var wire 1 4 ww_devclrn $end
$var wire 1 5 ww_devpor $end
$var wire 1 6 ww_clk $end
$var wire 1 7 ww_rst $end
$var wire 1 8 ww_start_btn $end
$var wire 1 9 ww_dir_btn $end
$var wire 1 : ww_speed_btn $end
$var wire 1 ; ww_ssd [6] $end
$var wire 1 < ww_ssd [5] $end
$var wire 1 = ww_ssd [4] $end
$var wire 1 > ww_ssd [3] $end
$var wire 1 ? ww_ssd [2] $end
$var wire 1 @ ww_ssd [1] $end
$var wire 1 A ww_ssd [0] $end
$var wire 1 B \~QUARTUS_CREATED_GND~I_combout\ $end
$var wire 1 C \clk~input_o\ $end
$var wire 1 D \clk~inputCLKENA0_outclk\ $end
$var wire 1 E \dir_btn~input_o\ $end
$var wire 1 F \nx_dir_state~0_combout\ $end
$var wire 1 G \nx_dir_state~q\ $end
$var wire 1 H \rst~input_o\ $end
$var wire 1 I \pr_dir_state~q\ $end
$var wire 1 J \start_btn~input_o\ $end
$var wire 1 K \nx_run_state~0_combout\ $end
$var wire 1 L \nx_run_state~q\ $end
$var wire 1 M \pr_run_state~q\ $end
$var wire 1 N \speed_btn~input_o\ $end
$var wire 1 O \speed_btn~inputCLKENA0_outclk\ $end
$var wire 1 P \nx_speed_state.one_forty~0_combout\ $end
$var wire 1 Q \nx_speed_state.one_forty~q\ $end
$var wire 1 R \pr_speed_state.one_forty~q\ $end
$var wire 1 S \nx_speed_state.one_hundred~q\ $end
$var wire 1 T \pr_speed_state.one_hundred~feeder_combout\ $end
$var wire 1 U \pr_speed_state.one_hundred~q\ $end
$var wire 1 V \nx_speed_state.seventy~q\ $end
$var wire 1 W \pr_speed_state.seventy~q\ $end
$var wire 1 X \nx_speed_state.two_hundred~0_combout\ $end
$var wire 1 Y \nx_speed_state.two_hundred~q\ $end
$var wire 1 Z \pr_speed_state.two_hundred~q\ $end
$var wire 1 [ \Add0~9_sumout\ $end
$var wire 1 \ \Add0~6\ $end
$var wire 1 ] \Add0~1_sumout\ $end
$var wire 1 ^ \Add0~2\ $end
$var wire 1 _ \Add0~17_sumout\ $end
$var wire 1 ` \Add0~18\ $end
$var wire 1 a \Add0~13_sumout\ $end
$var wire 1 b \Add0~14\ $end
$var wire 1 c \Add0~53_sumout\ $end
$var wire 1 d \Add0~54\ $end
$var wire 1 e \Add0~121_sumout\ $end
$var wire 1 f \Add0~122\ $end
$var wire 1 g \Add0~117_sumout\ $end
$var wire 1 h \Add0~118\ $end
$var wire 1 i \Add0~113_sumout\ $end
$var wire 1 j \Add0~114\ $end
$var wire 1 k \Add0~109_sumout\ $end
$var wire 1 l \Add0~110\ $end
$var wire 1 m \Add0~105_sumout\ $end
$var wire 1 n \Add0~106\ $end
$var wire 1 o \Add0~97_sumout\ $end
$var wire 1 p \Add0~98\ $end
$var wire 1 q \Add0~93_sumout\ $end
$var wire 1 r \Add0~94\ $end
$var wire 1 s \Add0~89_sumout\ $end
$var wire 1 t \Add0~90\ $end
$var wire 1 u \Add0~85_sumout\ $end
$var wire 1 v \Add0~86\ $end
$var wire 1 w \Add0~81_sumout\ $end
$var wire 1 x \Add0~82\ $end
$var wire 1 y \Add0~77_sumout\ $end
$var wire 1 z \Add0~78\ $end
$var wire 1 { \Add0~25_sumout\ $end
$var wire 1 | \Add0~26\ $end
$var wire 1 } \Add0~21_sumout\ $end
$var wire 1 ~ \Add0~22\ $end
$var wire 1 !! \Add0~49_sumout\ $end
$var wire 1 "! \t[19]~feeder_combout\ $end
$var wire 1 #! \Add0~50\ $end
$var wire 1 $! \Add0~101_sumout\ $end
$var wire 1 %! \LessThan1~3_combout\ $end
$var wire 1 &! \Add0~102\ $end
$var wire 1 '! \Add0~45_sumout\ $end
$var wire 1 (! \Add0~46\ $end
$var wire 1 )! \Add0~41_sumout\ $end
$var wire 1 *! \Add0~42\ $end
$var wire 1 +! \Add0~37_sumout\ $end
$var wire 1 ,! \Add0~38\ $end
$var wire 1 -! \Add0~33_sumout\ $end
$var wire 1 .! \Add0~34\ $end
$var wire 1 /! \Add0~29_sumout\ $end
$var wire 1 0! \LessThan1~0_combout\ $end
$var wire 1 1! \LessThan1~2_combout\ $end
$var wire 1 2! \Add0~30\ $end
$var wire 1 3! \Add0~73_sumout\ $end
$var wire 1 4! \Add0~74\ $end
$var wire 1 5! \Add0~69_sumout\ $end
$var wire 1 6! \Add0~70\ $end
$var wire 1 7! \Add0~65_sumout\ $end
$var wire 1 8! \Add0~66\ $end
$var wire 1 9! \Add0~61_sumout\ $end
$var wire 1 :! \Add0~62\ $end
$var wire 1 ;! \Add0~57_sumout\ $end
$var wire 1 <! \LessThan1~1_combout\ $end
$var wire 1 =! \LessThan1~4_combout\ $end
$var wire 1 >! \LessThan1~5_combout\ $end
$var wire 1 ?! \Selector11~0_combout\ $end
$var wire 1 @! \Selector0~0_combout\ $end
$var wire 1 A! \Selector0~1_combout\ $end
$var wire 1 B! \pr_state.one~q\ $end
$var wire 1 C! \Selector9~0_combout\ $end
$var wire 1 D! \Selector2~0_combout\ $end
$var wire 1 E! \Selector2~1_combout\ $end
$var wire 1 F! \pr_state.three~q\ $end
$var wire 1 G! \Selector3~0_combout\ $end
$var wire 1 H! \Selector3~1_combout\ $end
$var wire 1 I! \pr_state.four~q\ $end
$var wire 1 J! \Selector4~0_combout\ $end
$var wire 1 K! \Selector4~1_combout\ $end
$var wire 1 L! \pr_state.five~q\ $end
$var wire 1 M! \Selector5~0_combout\ $end
$var wire 1 N! \Selector5~1_combout\ $end
$var wire 1 O! \pr_state.six~q\ $end
$var wire 1 P! \Selector6~0_combout\ $end
$var wire 1 Q! \Selector6~1_combout\ $end
$var wire 1 R! \pr_state.seven~q\ $end
$var wire 1 S! \Selector7~0_combout\ $end
$var wire 1 T! \Selector7~1_combout\ $end
$var wire 1 U! \pr_state.eight~q\ $end
$var wire 1 V! \Selector8~0_combout\ $end
$var wire 1 W! \Selector8~1_combout\ $end
$var wire 1 X! \pr_state.nine~q\ $end
$var wire 1 Y! \Selector9~1_combout\ $end
$var wire 1 Z! \pr_state.ten~q\ $end
$var wire 1 [! \Selector10~0_combout\ $end
$var wire 1 \! \Selector10~1_combout\ $end
$var wire 1 ]! \pr_state.eleven~q\ $end
$var wire 1 ^! \Selector11~1_combout\ $end
$var wire 1 _! \pr_state.twelve~q\ $end
$var wire 1 `! \LessThan0~2_combout\ $end
$var wire 1 a! \LessThan0~0_combout\ $end
$var wire 1 b! \LessThan0~3_combout\ $end
$var wire 1 c! \LessThan0~4_combout\ $end
$var wire 1 d! \LessThan0~6_combout\ $end
$var wire 1 e! \Selector11~2_combout\ $end
$var wire 1 f! \Selector9~2_combout\ $end
$var wire 1 g! \nx_state~0_combout\ $end
$var wire 1 h! \WideOr0~0_combout\ $end
$var wire 1 i! \Selector7~2_combout\ $end
$var wire 1 j! \Selector5~2_combout\ $end
$var wire 1 k! \WideOr0~2_combout\ $end
$var wire 1 l! \WideOr0~3_combout\ $end
$var wire 1 m! \WideOr0~1_combout\ $end
$var wire 1 n! \WideOr0~5_combout\ $end
$var wire 1 o! \Selector1~2_combout\ $end
$var wire 1 p! \Selector3~2_combout\ $end
$var wire 1 q! \WideOr0~4_combout\ $end
$var wire 1 r! \WideOr0~combout\ $end
$var wire 1 s! \Add0~10\ $end
$var wire 1 t! \Add0~5_sumout\ $end
$var wire 1 u! \LessThan0~1_combout\ $end
$var wire 1 v! \LessThan0~5_combout\ $end
$var wire 1 w! \Selector1~0_combout\ $end
$var wire 1 x! \Selector1~1_combout\ $end
$var wire 1 y! \pr_state.two~q\ $end
$var wire 1 z! \WideOr18~combout\ $end
$var wire 1 {! \WideOr17~combout\ $end
$var wire 1 |! \WideOr16~combout\ $end
$var wire 1 }! \WideOr15~combout\ $end
$var wire 1 ~! \WideOr14~combout\ $end
$var wire 1 !" \WideOr13~combout\ $end
$var wire 1 "" t [30] $end
$var wire 1 #" t [29] $end
$var wire 1 $" t [28] $end
$var wire 1 %" t [27] $end
$var wire 1 &" t [26] $end
$var wire 1 '" t [25] $end
$var wire 1 (" t [24] $end
$var wire 1 )" t [23] $end
$var wire 1 *" t [22] $end
$var wire 1 +" t [21] $end
$var wire 1 ," t [20] $end
$var wire 1 -" t [19] $end
$var wire 1 ." t [18] $end
$var wire 1 /" t [17] $end
$var wire 1 0" t [16] $end
$var wire 1 1" t [15] $end
$var wire 1 2" t [14] $end
$var wire 1 3" t [13] $end
$var wire 1 4" t [12] $end
$var wire 1 5" t [11] $end
$var wire 1 6" t [10] $end
$var wire 1 7" t [9] $end
$var wire 1 8" t [8] $end
$var wire 1 9" t [7] $end
$var wire 1 :" t [6] $end
$var wire 1 ;" t [5] $end
$var wire 1 <" t [4] $end
$var wire 1 =" t [3] $end
$var wire 1 >" t [2] $end
$var wire 1 ?" t [1] $end
$var wire 1 @" t [0] $end
$var wire 1 A" \ALT_INV_Add0~49_sumout\ $end
$var wire 1 B" ALT_INV_t [30] $end
$var wire 1 C" ALT_INV_t [29] $end
$var wire 1 D" ALT_INV_t [28] $end
$var wire 1 E" ALT_INV_t [27] $end
$var wire 1 F" ALT_INV_t [26] $end
$var wire 1 G" ALT_INV_t [25] $end
$var wire 1 H" ALT_INV_t [24] $end
$var wire 1 I" ALT_INV_t [23] $end
$var wire 1 J" ALT_INV_t [22] $end
$var wire 1 K" ALT_INV_t [21] $end
$var wire 1 L" ALT_INV_t [20] $end
$var wire 1 M" ALT_INV_t [19] $end
$var wire 1 N" ALT_INV_t [18] $end
$var wire 1 O" ALT_INV_t [17] $end
$var wire 1 P" ALT_INV_t [16] $end
$var wire 1 Q" ALT_INV_t [15] $end
$var wire 1 R" ALT_INV_t [14] $end
$var wire 1 S" ALT_INV_t [13] $end
$var wire 1 T" ALT_INV_t [12] $end
$var wire 1 U" ALT_INV_t [11] $end
$var wire 1 V" ALT_INV_t [10] $end
$var wire 1 W" ALT_INV_t [9] $end
$var wire 1 X" ALT_INV_t [8] $end
$var wire 1 Y" ALT_INV_t [7] $end
$var wire 1 Z" ALT_INV_t [6] $end
$var wire 1 [" ALT_INV_t [5] $end
$var wire 1 \" ALT_INV_t [4] $end
$var wire 1 ]" ALT_INV_t [3] $end
$var wire 1 ^" ALT_INV_t [2] $end
$var wire 1 _" ALT_INV_t [1] $end
$var wire 1 `" ALT_INV_t [0] $end
$var wire 1 a" \ALT_INV_rst~input_o\ $end
$var wire 1 b" \ALT_INV_nx_speed_state.one_hundred~q\ $end
$var wire 1 c" \ALT_INV_WideOr0~5_combout\ $end
$var wire 1 d" \ALT_INV_WideOr0~4_combout\ $end
$var wire 1 e" \ALT_INV_Selector1~2_combout\ $end
$var wire 1 f" \ALT_INV_Selector3~2_combout\ $end
$var wire 1 g" \ALT_INV_WideOr0~3_combout\ $end
$var wire 1 h" \ALT_INV_WideOr0~2_combout\ $end
$var wire 1 i" \ALT_INV_Selector5~2_combout\ $end
$var wire 1 j" \ALT_INV_Selector7~2_combout\ $end
$var wire 1 k" \ALT_INV_WideOr0~1_combout\ $end
$var wire 1 l" \ALT_INV_WideOr0~0_combout\ $end
$var wire 1 m" \ALT_INV_Selector9~2_combout\ $end
$var wire 1 n" \ALT_INV_Selector11~2_combout\ $end
$var wire 1 o" \ALT_INV_LessThan0~6_combout\ $end
$var wire 1 p" \ALT_INV_nx_state~0_combout\ $end
$var wire 1 q" \ALT_INV_Selector0~0_combout\ $end
$var wire 1 r" \ALT_INV_Selector11~0_combout\ $end
$var wire 1 s" \ALT_INV_Selector10~0_combout\ $end
$var wire 1 t" \ALT_INV_Selector9~0_combout\ $end
$var wire 1 u" \ALT_INV_Selector8~0_combout\ $end
$var wire 1 v" \ALT_INV_Selector7~0_combout\ $end
$var wire 1 w" \ALT_INV_Selector6~0_combout\ $end
$var wire 1 x" \ALT_INV_Selector5~0_combout\ $end
$var wire 1 y" \ALT_INV_Selector4~0_combout\ $end
$var wire 1 z" \ALT_INV_Selector3~0_combout\ $end
$var wire 1 {" \ALT_INV_Selector2~0_combout\ $end
$var wire 1 |" \ALT_INV_Selector1~0_combout\ $end
$var wire 1 }" \ALT_INV_LessThan1~5_combout\ $end
$var wire 1 ~" \ALT_INV_LessThan0~5_combout\ $end
$var wire 1 !# \ALT_INV_LessThan1~4_combout\ $end
$var wire 1 "# \ALT_INV_LessThan1~3_combout\ $end
$var wire 1 ## \ALT_INV_LessThan1~2_combout\ $end
$var wire 1 $# \ALT_INV_LessThan1~1_combout\ $end
$var wire 1 %# \ALT_INV_LessThan1~0_combout\ $end
$var wire 1 &# \ALT_INV_LessThan0~4_combout\ $end
$var wire 1 '# \ALT_INV_LessThan0~3_combout\ $end
$var wire 1 (# \ALT_INV_LessThan0~2_combout\ $end
$var wire 1 )# \ALT_INV_LessThan0~1_combout\ $end
$var wire 1 *# \ALT_INV_pr_speed_state.seventy~q\ $end
$var wire 1 +# \ALT_INV_pr_speed_state.two_hundred~q\ $end
$var wire 1 ,# \ALT_INV_LessThan0~0_combout\ $end
$var wire 1 -# \ALT_INV_pr_speed_state.one_hundred~q\ $end
$var wire 1 .# \ALT_INV_pr_run_state~q\ $end
$var wire 1 /# \ALT_INV_pr_dir_state~q\ $end
$var wire 1 0# \ALT_INV_WideOr13~combout\ $end
$var wire 1 1# \ALT_INV_pr_state.one~q\ $end
$var wire 1 2# \ALT_INV_WideOr14~combout\ $end
$var wire 1 3# \ALT_INV_pr_state.twelve~q\ $end
$var wire 1 4# \ALT_INV_pr_state.eleven~q\ $end
$var wire 1 5# \ALT_INV_WideOr15~combout\ $end
$var wire 1 6# \ALT_INV_pr_state.ten~q\ $end
$var wire 1 7# \ALT_INV_pr_state.nine~q\ $end
$var wire 1 8# \ALT_INV_WideOr16~combout\ $end
$var wire 1 9# \ALT_INV_pr_state.eight~q\ $end
$var wire 1 :# \ALT_INV_pr_state.seven~q\ $end
$var wire 1 ;# \ALT_INV_WideOr17~combout\ $end
$var wire 1 <# \ALT_INV_pr_state.six~q\ $end
$var wire 1 =# \ALT_INV_pr_state.five~q\ $end
$var wire 1 ># \ALT_INV_WideOr18~combout\ $end
$var wire 1 ?# \ALT_INV_pr_state.four~q\ $end
$var wire 1 @# \ALT_INV_pr_state.three~q\ $end
$var wire 1 A# \ALT_INV_pr_state.two~q\ $end
$upscope $end
$upscope $end
$enddefinitions $end
#0
$dumpvars
0!
0"
1#
0$
0,
0-
1.
x/
10
11
12
13
14
15
06
17
08
09
0:
xB
0C
0D
0E
1F
0G
1H
0I
0J
1K
0L
0M
0N
0O
1P
0Q
0R
0S
0T
0U
0V
0W
1X
0Y
0Z
1[
0\
0]
0^
0_
0`
0a
0b
0c
0d
0e
0f
0g
0h
0i
0j
0k
0l
0m
0n
0o
0p
0q
0r
0s
0t
0u
0v
0w
0x
0y
0z
0{
0|
0}
0~
0!!
0"!
0#!
0$!
1%!
0&!
0'!
0(!
0)!
0*!
0+!
0,!
0-!
0.!
0/!
10!
11!
02!
03!
04!
05!
06!
07!
08!
09!
0:!
0;!
1<!
1=!
0>!
0?!
0@!
0A!
0B!
0C!
0D!
0E!
0F!
0G!
0H!
0I!
0J!
0K!
0L!
0M!
0N!
0O!
0P!
0Q!
0R!
0S!
0T!
0U!
0V!
0W!
0X!
0Y!
0Z!
0[!
0\!
0]!
0^!
0_!
1`!
1a!
0b!
1c!
0d!
0e!
0f!
0g!
1h!
0i!
0j!
1k!
1l!
1m!
1n!
0o!
0p!
1q!
0r!
0s!
0t!
0u!
1v!
0w!
0x!
0y!
0z!
0{!
0|!
0}!
0~!
1!"
1A"
0a"
1b"
0c"
0d"
1e"
1f"
0g"
0h"
1i"
1j"
0k"
0l"
1m"
1n"
1o"
1p"
1q"
1r"
1s"
1t"
1u"
1v"
1w"
1x"
1y"
1z"
1{"
1|"
1}"
0~"
0!#
0"#
0##
0$#
0%#
0&#
1'#
0(#
1)#
1*#
1+#
0,#
1-#
1.#
1/#
00#
11#
12#
13#
14#
15#
16#
17#
18#
19#
1:#
1;#
1<#
1=#
1>#
1?#
1@#
1A#
0;
1<
1=
1>
1?
1@
1A
0""
0#"
0$"
0%"
0&"
0'"
0("
0)"
0*"
0+"
0,"
0-"
0."
0/"
00"
01"
02"
03"
04"
05"
06"
07"
08"
09"
0:"
0;"
0<"
0="
0>"
0?"
0@"
1B"
1C"
1D"
1E"
1F"
1G"
1H"
1I"
1J"
1K"
1L"
1M"
1N"
1O"
1P"
1Q"
1R"
1S"
1T"
1U"
1V"
1W"
1X"
1Y"
1Z"
1["
1\"
1]"
1^"
1_"
1`"
0%
1&
1'
1(
1)
1*
1+
$end
#1000
1!
16
1C
1D
#2000
0!
06
0C
0D
#3000
1!
16
1C
1D
#4000
0!
06
0C
0D
#5000
1!
16
1C
1D
#6000
0!
06
0C
0D
#7000
1!
16
1C
1D
#8000
0!
06
0C
0D
#9000
1!
16
1C
1D
#10000
0!
06
0C
0D
#11000
1!
16
1C
1D
#12000
0!
06
0C
0D
#13000
1!
16
1C
1D
#14000
0!
06
0C
0D
#15000
1!
16
1C
1D
#16000
0!
06
0C
0D
#17000
1!
16
1C
1D
#18000
0!
06
0C
0D
#19000
1!
16
1C
1D
#20000
0!
06
0C
0D
#21000
1!
16
1C
1D
#22000
0!
06
0C
0D
#23000
1!
16
1C
1D
#24000
0!
06
0C
0D
#25000
1!
16
1C
1D
#26000
0!
06
0C
0D
#27000
1!
16
1C
1D
#28000
0!
06
0C
0D
#29000
1!
16
1C
1D
#30000
0!
0#
06
07
0H
0C
0D
1a"
#31000
1!
16
1C
1D
1@"
0`"
0[
1s!
1t!
#32000
0!
06
0C
0D
#33000
1!
16
1C
1D
0@"
1?"
0_"
1`"
1[
0s!
0t!
1\
1]
1t!
0\
0]
#34000
0!
06
0C
0D
#35000
1!
16
1C
1D
1@"
0`"
0[
1s!
0t!
1\
1]
#36000
0!
06
0C
0D
#37000
1!
16
1C
1D
1>"
0@"
0?"
1_"
1`"
0^"
0]
1^
0a!
1[
0s!
1t!
0\
0`!
1(#
1,#
1]
0^
0t!
1_
0_
#38000
0!
06
0C
0D
#39000
1!
16
1C
1D
1@"
0`"
0[
1s!
1t!
#40000
0!
06
0C
0D
#41000
1!
16
1C
1D
0@"
1?"
0_"
1`"
1[
0s!
0t!
1\
0]
1^
1t!
0\
1]
0^
1_
0_
#42000
0!
06
0C
0D
#43000
1!
16
1C
1D
1@"
0`"
0[
1s!
0t!
1\
0]
1^
1_
#44000
0!
06
0C
0D
#45000
1!
16
1C
1D
0>"
1="
0@"
0?"
1_"
1`"
0]"
1^"
1]
0^
1a!
0_
1`
1[
0s!
1t!
0\
1`!
0(#
0,#
0]
0t!
1a
1_
0`
0a
#46000
0!
06
0C
0D
#47000
1!
16
1C
1D
1@"
0`"
0[
1s!
1t!
#48000
0!
06
0C
0D
#49000
1!
16
1C
1D
0@"
1?"
0_"
1`"
1[
0s!
0t!
1\
1]
1t!
0\
0]
#50000
0!
06
0C
0D
#51000
1!
16
1C
1D
1@"
0`"
0[
1s!
0t!
1\
1]
#52000
0!
06
0C
0D
#53000
1!
16
1C
1D
1>"
0@"
0?"
1_"
1`"
0^"
0]
1^
0a!
1[
0s!
1t!
0\
0`!
1(#
1,#
1]
0^
0t!
0_
1`
1a
1_
0`
0a
#54000
0!
06
0C
0D
#55000
1!
16
1C
1D
1@"
0`"
0[
1s!
1t!
#56000
0!
06
0C
0D
#57000
1!
16
1C
1D
0@"
1?"
0_"
1`"
1[
0s!
0t!
1\
0]
1^
1t!
0\
1]
0^
0_
1`
1a
1_
0`
0a
#58000
0!
06
0C
0D
#59000
1!
16
1C
1D
1@"
0`"
0[
1s!
0t!
1\
0]
1^
0_
1`
1a
#60000
0!
06
0C
0D
#61000
1!
16
1C
1D
0>"
0="
1<"
0@"
0?"
1_"
1`"
0\"
1]"
1^"
1]
0^
1a!
1_
0`
0a
1b
1b!
0c!
1[
0s!
1t!
0\
1`!
0(#
1&#
0'#
0,#
0]
0t!
1c
1a
0b
0_
0c
#62000
0!
06
0C
0D
#63000
1!
16
1C
1D
1@"
0`"
0[
1s!
1t!
#64000
0!
06
0C
0D
#65000
1!
16
1C
1D
0@"
1?"
0_"
1`"
1[
0s!
0t!
1\
1]
1t!
0\
0]
#66000
0!
06
0C
0D
#67000
1!
16
1C
1D
1@"
0`"
0[
1s!
0t!
1\
1]
#68000
0!
06
0C
0D
#69000
1!
16
1C
1D
1>"
0@"
0?"
1_"
1`"
0^"
0]
1^
1>!
0a!
1[
0s!
1t!
0\
0`!
1(#
1,#
0}"
1]
0^
0t!
1_
1g!
1d!
0v!
0_
1~"
0o"
0p"
1e!
1A!
1^!
0n!
1c"
0n"
0h!
1r!
1l"
#70000
0!
06
0C
0D
#71000
1!
16
1C
1D
0>"
0<"
1B!
1_!
03#
01#
1\"
1^"
0]
1`!
1a!
0a
0>!
0b!
1c!
0^!
0e!
1n!
1[!
1h!
1~!
02#
0l"
0s"
0c"
1n"
0&#
1'#
1}"
0,#
0(#
1?!
0[!
0g!
0d!
1v!
0h!
1\!
0m!
0r!
1k"
1l"
0~"
1o"
1p"
1s"
0r"
0<
1h!
0\!
1^!
1m!
1r!
0k"
0l"
0&
0r!
#72000
0!
06
0C
0D
#73000
1!
16
1C
1D
1@"
0`"
0[
1s!
1t!
#74000
0!
06
0C
0D
#75000
1!
16
1C
1D
0@"
1?"
0_"
1`"
1[
0s!
0t!
1\
1]
1t!
0\
0]
#76000
0!
06
0C
0D
#77000
1!
16
1C
1D
1@"
0`"
0[
1s!
0t!
1\
1]
#78000
0!
06
0C
0D
#79000
1!
16
1C
1D
1>"
0@"
0?"
1_"
1`"
0^"
0]
1^
0a!
1[
0s!
1t!
0\
0`!
1(#
1,#
1]
0^
0t!
1_
0_
#80000
0!
06
0C
0D
#81000
1!
16
1C
1D
1@"
0`"
0[
1s!
1t!
#82000
0!
06
0C
0D
#83000
1!
16
1C
1D
0@"
1?"
0_"
1`"
1[
0s!
0t!
1\
0]
1^
1t!
0\
1]
0^
1_
0_
#84000
0!
06
0C
0D
#85000
1!
16
1C
1D
1@"
0`"
0[
1s!
0t!
1\
0]
1^
1_
#86000
0!
06
0C
0D
#87000
1!
16
1C
1D
0>"
1="
0@"
0?"
1_"
1`"
0]"
1^"
1]
0^
1a!
0_
1`
1[
0s!
1t!
0\
1`!
0(#
0,#
0]
0t!
1a
1_
0`
0a
#88000
0!
06
0C
0D
#89000
1!
16
1C
1D
1@"
0`"
0[
1s!
1t!
#90000
0!
06
0C
0D
#91000
1!
16
1C
1D
0@"
1?"
0_"
1`"
1[
0s!
0t!
1\
1]
1t!
0\
0]
#92000
0!
06
0C
0D
#93000
1!
16
1C
1D
1@"
0`"
0[
1s!
0t!
1\
1]
#94000
0!
06
0C
0D
#95000
1!
16
1C
1D
1>"
0@"
0?"
1_"
1`"
0^"
0]
1^
0a!
1[
0s!
1t!
0\
0`!
1(#
1,#
1]
0^
0t!
0_
1`
1a
1_
0`
0a
#96000
0!
06
0C
0D
#97000
1!
16
1C
1D
1@"
0`"
0[
1s!
1t!
#98000
0!
06
0C
0D
#99000
1!
16
1C
1D
0@"
1?"
0_"
1`"
1[
0s!
0t!
1\
0]
1^
1t!
0\
1]
0^
0_
1`
1a
1_
0`
0a
#100000
0!
06
0C
0D
#101000
1!
16
1C
1D
1@"
0`"
0[
1s!
0t!
1\
0]
1^
0_
1`
1a
#102000
0!
06
0C
0D
#103000
1!
16
1C
1D
0>"
0="
1<"
0@"
0?"
1_"
1`"
0\"
1]"
1^"
1]
0^
1a!
1_
0`
0a
1b
1b!
0c!
1[
0s!
1t!
0\
1`!
0(#
1&#
0'#
0,#
0]
0t!
1c
1a
0b
0_
0c
#104000
0!
06
0C
0D
#105000
1!
16
1C
1D
1@"
0`"
0[
1s!
1t!
#106000
0!
06
0C
0D
#107000
1!
16
1C
1D
0@"
1?"
0_"
1`"
1[
0s!
0t!
1\
1]
1t!
0\
0]
#108000
0!
06
0C
0D
#109000
1!
16
1C
1D
1@"
0`"
0[
1s!
0t!
1\
1]
#110000
0!
06
0C
0D
#111000
1!
16
1C
1D
1>"
0@"
0?"
1_"
1`"
0^"
0]
1^
1>!
0a!
1[
0s!
1t!
0\
0`!
1(#
1,#
0}"
1]
0^
0t!
1_
0?!
1[!
1g!
1d!
0v!
0_
1~"
0o"
0p"
0s"
1r"
0h!
1\!
0^!
0m!
1k"
1l"
1r!
#112000
0!
06
0C
0D
#113000
1!
16
1C
1D
0>"
0<"
1]!
0_!
13#
04#
1\"
1^"
0]
1`!
1a!
0a
0>!
0b!
1c!
1Y!
1f!
1m!
0[!
1h!
0!"
10#
0l"
1s"
0k"
0m"
0&#
1'#
1}"
0,#
0(#
0g!
0d!
1v!
0h!
0\!
0m!
0r!
1k"
1l"
0~"
1o"
1p"
1;
0f!
0Y!
1\!
1m!
1r!
0k"
1m"
1%
1h!
0l"
0r!
#114000
0!
06
0C
0D
#115000
1!
16
1C
1D
1@"
0`"
0[
1s!
1t!
#116000
0!
06
0C
0D
#117000
1!
16
1C
1D
0@"
1?"
0_"
1`"
1[
0s!
0t!
1\
1]
1t!
0\
0]
#118000
0!
06
0C
0D
#119000
1!
16
1C
1D
1@"
0`"
0[
1s!
0t!
1\
1]
#120000
0!
06
0C
0D
#121000
1!
16
1C
1D
1>"
0@"
0?"
1_"
1`"
0^"
0]
1^
0a!
1[
0s!
1t!
0\
0`!
1(#
1,#
1]
0^
0t!
1_
0_
#122000
0!
06
0C
0D
#123000
1!
16
1C
1D
1@"
0`"
0[
1s!
1t!
#124000
0!
06
0C
0D
#125000
1!
16
1C
1D
0@"
1?"
0_"
1`"
1[
0s!
0t!
1\
0]
1^
1t!
0\
1]
0^
1_
0_
#126000
0!
06
0C
0D
#127000
1!
16
1C
1D
1@"
0`"
0[
1s!
0t!
1\
0]
1^
1_
#128000
0!
06
0C
0D
#129000
1!
16
1C
1D
0>"
1="
0@"
0?"
1_"
1`"
0]"
1^"
1]
0^
1a!
0_
1`
1[
0s!
1t!
0\
1`!
0(#
0,#
0]
0t!
1a
1_
0`
0a
#130000
0!
06
0C
0D
#131000
1!
16
1C
1D
1@"
0`"
0[
1s!
1t!
#132000
0!
06
0C
0D
#133000
1!
16
1C
1D
0@"
1?"
0_"
1`"
1[
0s!
0t!
1\
1]
1t!
0\
0]
#134000
0!
06
0C
0D
#135000
1!
16
1C
1D
1@"
0`"
0[
1s!
0t!
1\
1]
#136000
0!
06
0C
0D
#137000
1!
16
1C
1D
1>"
0@"
0?"
1_"
1`"
0^"
0]
1^
0a!
1[
0s!
1t!
0\
0`!
1(#
1,#
1]
0^
0t!
0_
1`
1a
1_
0`
0a
#138000
0!
06
0C
0D
#139000
1!
16
1C
1D
1@"
0`"
0[
1s!
1t!
#140000
0!
06
0C
0D
#141000
1!
16
1C
1D
0@"
1?"
0_"
1`"
1[
0s!
0t!
1\
0]
1^
1t!
0\
1]
0^
0_
1`
1a
1_
0`
0a
#142000
0!
06
0C
0D
#143000
1!
16
1C
1D
1@"
0`"
0[
1s!
0t!
1\
0]
1^
0_
1`
1a
#144000
0!
06
0C
0D
#145000
1!
16
1C
1D
0>"
0="
1<"
0@"
0?"
1_"
1`"
0\"
1]"
1^"
1]
0^
1a!
1_
0`
0a
1b
1b!
0c!
1[
0s!
1t!
0\
1`!
0(#
1&#
0'#
0,#
0]
0t!
1c
1a
0b
0_
0c
#146000
0!
06
0C
0D
#147000
1!
16
1C
1D
1@"
0`"
0[
1s!
1t!
#148000
0!
06
0C
0D
#149000
1!
16
1C
1D
0@"
1?"
0_"
1`"
1[
0s!
0t!
1\
1]
1t!
0\
0]
#150000
0!
06
0C
0D
#151000
1!
16
1C
1D
1@"
0`"
0[
1s!
0t!
1\
1]
#152000
0!
06
0C
0D
#153000
1!
16
1C
1D
1>"
0@"
0?"
1_"
1`"
0^"
0]
1^
1>!
0a!
1[
0s!
1t!
0\
0`!
1(#
1,#
0}"
1]
0^
0t!
1_
1g!
1d!
0v!
0_
1~"
0o"
0p"
1f!
1Y!
0\!
0m!
1k"
0m"
0h!
1r!
1l"
#154000
0!
06
0C
0D
#155000
1!
16
1C
1D
0>"
0<"
1Z!
0]!
14#
06#
1\"
1^"
0]
1`!
1a!
0a
0>!
0b!
1c!
1V!
1h!
1}!
0Y!
0f!
1m!
0k"
1m"
05#
0l"
0u"
0&#
1'#
1}"
0,#
0(#
1C!
0V!
0g!
0d!
1v!
1W!
0m!
0h!
0r!
1l"
1k"
0~"
1o"
1p"
1u"
0t"
0=
1h!
0W!
1Y!
1m!
1r!
0k"
0l"
0'
0r!
#156000
0!
06
0C
0D
#157000
1!
16
1C
1D
1@"
0`"
0[
1s!
1t!
#158000
0!
06
0C
0D
#159000
1!
16
1C
1D
0@"
1?"
0_"
1`"
1[
0s!
0t!
1\
1]
1t!
0\
0]
