modules/test/simulation/qsim/test.msim.vcd
$comment
	File created using the following command:
		vcd file test.msim.vcd -direction
$end
$date
	Wed Jul 19 13:26:19 2023
$end
$version
	ModelSim Version 10.5b
$end
$timescale
	1ps
$end

$scope module test_vlg_vec_tst $end
$var reg 1 ! clk $end
$var reg 16 " input_reg [15:0] $end
$var reg 1 # reset $end
$var wire 1 $ sum [15] $end
$var wire 1 % sum [14] $end
$var wire 1 & sum [13] $end
$var wire 1 ' sum [12] $end
$var wire 1 ( sum [11] $end
$var wire 1 ) sum [10] $end
$var wire 1 * sum [9] $end
$var wire 1 + sum [8] $end
$var wire 1 , sum [7] $end
$var wire 1 - sum [6] $end
$var wire 1 . sum [5] $end
$var wire 1 / sum [4] $end
$var wire 1 0 sum [3] $end
$var wire 1 1 sum [2] $end
$var wire 1 2 sum [1] $end
$var wire 1 3 sum [0] $end

$scope module i1 $end
$var wire 1 4 gnd $end
$var wire 1 5 vcc $end
$var wire 1 6 unknown $end
$var tri1 1 7 devclrn $end
$var tri1 1 8 devpor $end
$var tri1 1 9 devoe $end
$var wire 1 : ~QUARTUS_CREATED_GND~I_combout $end
$var wire 1 ; clk~input_o $end
$var wire 1 < clk~inputCLKENA0_outclk $end
$var wire 1 = input_reg[0]~input_o $end
$var wire 1 > sum[0]~reg0feeder_combout $end
$var wire 1 ? reset~input_o $end
$var wire 1 @ sum[0]~reg0_q $end
$var wire 1 A input_reg[1]~input_o $end
$var wire 1 B sum[1]~reg0feeder_combout $end
$var wire 1 C sum[1]~reg0_q $end
$var wire 1 D input_reg[2]~input_o $end
$var wire 1 E sum[2]~reg0_q $end
$var wire 1 F input_reg[3]~input_o $end
$var wire 1 G sum[3]~reg0feeder_combout $end
$var wire 1 H sum[3]~reg0_q $end
$var wire 1 I input_reg[4]~input_o $end
$var wire 1 J sum[4]~reg0_q $end
$var wire 1 K input_reg[5]~input_o $end
$var wire 1 L sum[5]~reg0_q $end
$var wire 1 M input_reg[6]~input_o $end
$var wire 1 N sum[6]~reg0feeder_combout $end
$var wire 1 O sum[6]~reg0_q $end
$var wire 1 P input_reg[7]~input_o $end
$var wire 1 Q sum[7]~reg0_q $end
$var wire 1 R input_reg[8]~input_o $end
$var wire 1 S sum[8]~reg0feeder_combout $end
$var wire 1 T sum[8]~reg0_q $end
$var wire 1 U input_reg[9]~input_o $end
$var wire 1 V sum[9]~reg0_q $end
$var wire 1 W input_reg[10]~input_o $end
$var wire 1 X sum[10]~reg0_q $end
$var wire 1 Y input_reg[11]~input_o $end
$var wire 1 Z sum[11]~reg0feeder_combout $end
$var wire 1 [ sum[11]~reg0_q $end
$var wire 1 \ input_reg[12]~input_o $end
$var wire 1 ] sum[12]~reg0feeder_combout $end
$var wire 1 ^ sum[12]~reg0_q $end
$var wire 1 _ input_reg[13]~input_o $end
$var wire 1 ` sum[13]~reg0_q $end
$var wire 1 a input_reg[14]~input_o $end
$var wire 1 b sum[14]~reg0_q $end
$var wire 1 c input_reg[15]~input_o $end
$var wire 1 d sum[15]~reg0_q $end
$upscope $end
$upscope $end
$enddefinitions $end
#0
$dumpvars
0!
b0 "
0#
03
02
01
00
0/
0.
0-
0,
0+
0*
0)
0(
0'
0&
0%
0$
04
15
x6
17
18
19
0:
0;
0<
0=
0>
0?
0@
0A
0B
0C
0D
0E
0F
0G
0H
0I
0J
0K
0L
0M
0N
0O
0P
0Q
0R
0S
0T
0U
0V
0W
0X
0Y
0Z
0[
0\
0]
0^
0_
0`
0a
0b
0c
0d
$end
#5000
1!
1;
1<
#10000
0!
0;
0<
#15000
1!
1;
1<
#20000
0!
0;
0<
#25000
1!
1;
1<
#30000
0!
0;
0<
#35000
1!
1;
1<
#40000
0!
0;
0<
#45000
1!
1;
1<
#50000
0!
0;
0<
#55000
1!
1;
1<
#60000
0!
0;
0<
#65000
1!
1;
1<
#70000
0!
0;
0<
#75000
1!
1;
1<
#80000
0!
0;
0<
#85000
1!
1;
1<
#90000
0!
0;
0<
#95000
1!
1;
1<
#100000
0!
0;
0<
#105000
1!
1;
1<
#110000
0!
0;
0<
#115000
1!
1;
1<
#120000
0!
0;
0<
#125000
1!
1;
1<
#130000
0!
0;
0<
#135000
1!
1;
1<
#140000
0!
0;
0<
#145000
1!
1;
1<
#150000
0!
0;
0<
#155000
1!
1;
1<
#160000
0!
0;
0<
#165000
1!
1;
1<
#170000
0!
0;
0<
#175000
1!
1;
1<
#180000
0!
0;
0<
#185000
1!
1;
1<
#190000
0!
0;
0<
#195000
1!
1;
1<
#200000
0!
0;
0<
#205000
1!
1;
1<
#210000
0!
0;
0<
#215000
1!
1;
1<
#220000
0!
0;
0<
#225000
1!
1;
1<
#230000
0!
0;
0<
#235000
1!
1;
1<
#240000
0!
0;
0<
#245000
1!
1;
1<
#250000
0!
0;
0<
#255000
1!
1;
1<
#260000
0!
0;
0<
#265000
1!
1;
1<
#270000
0!
0;
0<
#275000
1!
1;
1<
#280000
0!
0;
0<
#285000
1!
1;
1<
#290000
0!
0;
0<
#295000
1!
1;
1<
#300000
0!
0;
0<
#305000
1!
1;
1<
#310000
b1000000000000000 "
b1100000000000000 "
b1110000000000000 "
b1111000000000000 "
b1111100000000000 "
b1111110000000000 "
b1111111000000000 "
b1111111100000000 "
b1111111110000000 "
b1111111111000000 "
b1111111111100000 "
b1111111111110000 "
b1111111111111000 "
b1111111111111100 "
b1111111111111110 "
b1111111111111111 "
0!
1=
1A
1D
1F
1I
1K
1M
1P
1R
1U
1W
1Y
1\
1_
1a
1c
0;
0<
1]
1Z
1S
1N
1G
1B
1>
#315000
1!
1;
1<
1d
1b
1`
1^
1[
1X
1V
1T
1Q
1O
1L
1J
1H
1E
1C
1@
13
12
11
10
1/
1.
1-
1,
1+
1*
1)
1(
1'
1&
1%
1$
#320000
0!
0;
0<
#325000
1!
1;
1<
#330000
b111111111111111 "
b11111111111111 "
b1111111111111 "
b111111111111 "
b11111111111 "
b1111111111 "
b111111111 "
b11111111 "
b1111111 "
b111111 "
b11111 "
b1111 "
b111 "
b11 "
b1 "
b0 "
0!
0=
0A
0D
0F
0I
0K
0M
0P
0R
0U
0W
0Y
0\
0_
0a
0c
0;
0<
0]
0Z
0S
0N
0G
0B
0>
#335000
1!
1;
1<
0d
0b
0`
0^
0[
0X
0V
0T
0Q
0O
0L
0J
0H
0E
0C
0@
03
02
01
00
0/
0.
0-
0,
0+
0*
0)
0(
0'
0&
0%
0$
#340000
0!
0;
0<
#345000
1!
1;
1<
#350000
0!
0;
0<
#355000
1!
1;
1<
#360000
0!
0;
0<
#365000
1!
1;
1<
#370000
0!
0;
0<
#375000
1!
1;
1<
#380000
0!
0;
0<
#385000
1!
1;
1<
#390000
0!
0;
0<
#395000
1!
1;
1<
#400000
0!
0;
0<
#405000
1!
1;
1<
#410000
0!
0;
0<
#415000
1!
1;
1<
#420000
0!
0;
0<
#425000
1!
1;
1<
#430000
0!
0;
0<
#435000
1!
1;
1<
#440000
0!
0;
0<
#445000
1!
1;
1<
#450000
0!
0;
0<
#455000
1!
1;
1<
#460000
0!
0;
0<
#465000
1!
1;
1<
#470000
0!
0;
0<
#475000
1!
1;
1<
#480000
0!
0;
0<
#485000
1!
1;
1<
#490000
0!
0;
0<
#495000
1!
1;
1<
#500000
0!
0;
0<
#505000
1!
1;
1<
#510000
0!
0;
0<
#515000
1!
1;
1<
#520000
0!
0;
0<
#525000
1!
1;
1<
#530000
0!
0;
0<
#535000
1!
1;
1<
#540000
0!
0;
0<
#545000
1!
1;
1<
#550000
0!
0;
0<
#555000
1!
1;
1<
#560000
0!
0;
0<
#565000
1!
1;
1<
#570000
0!
0;
0<
#575000
1!
1;
1<
#580000
0!
0;
0<
#585000
1!
1;
1<
#590000
0!
0;
0<
#595000
1!
1;
1<
#600000
0!
0;
0<
#605000
1!
1;
1<
#610000
0!
0;
0<
#615000
1!
1;
1<
#620000
0!
0;
0<
#625000
1!
1;
1<
#630000
0!
0;
0<
#635000
1!
1;
1<
#640000
0!
0;
0<
#645000
1!
1;
1<
#650000
0!
0;
0<
#655000
1!
1;
1<
#660000
0!
0;
0<
#665000
1!
1;
1<
#670000
0!
0;
0<
#675000
1!
1;
1<
#680000
0!
0;
0<
#685000
1!
1;
1<
#690000
0!
0;
0<
#695000
1!
1;
1<
#700000
0!
0;
0<
#705000
1!
1;
1<
#710000
0!
0;
0<
#715000
1!
1;
1<
#720000
0!
0;
0<
#725000
1!
1;
1<
#730000
0!
0;
0<
#735000
1!
1;
1<
#740000
0!
0;
0<
#745000
1!
1;
1<
#750000
0!
0;
0<
#755000
1!
1;
1<
#760000
0!
0;
0<
#765000
1!
1;
1<
#770000
0!
0;
0<
#775000
1!
1;
1<
#780000
0!
0;
0<
#785000
1!
1;
1<
#790000
0!
0;
0<
#795000
1!
1;
1<
#800000
0!
0;
0<
#805000
1!
1;
1<
#810000
0!
0;
0<
#815000
1!
1;
1<
#820000
0!
0;
0<
#825000
1!
1;
1<
#830000
0!
0;
0<
#835000
1!
1;
1<
#840000
0!
0;
0<
#845000
1!
1;
1<
#850000
0!
0;
0<
#855000
1!
1;
1<
#860000
0!
0;
0<
#865000
1!
1;
1<
#870000
0!
0;
0<
#875000
1!
1;
1<
#880000
0!
0;
0<
#885000
1!
1;
1<
#890000
0!
0;
0<
#895000
1!
1;
1<
#900000
0!
0;
0<
#905000
1!
1;
1<
#910000
0!
0;
0<
#915000
1!
1;
1<
#920000
0!
0;
0<
#925000
1!
1;
1<
#930000
0!
0;
0<
#935000
1!
1;
1<
#940000
0!
0;
0<
#945000
1!
1;
1<
#950000
0!
0;
0<
#955000
1!
1;
1<
#960000
0!
0;
0<
#965000
1!
1;
1<
#970000
0!
0;
0<
#975000
1!
1;
1<
#980000
0!
0;
0<
#985000
1!
1;
1<
#990000
0!
0;
0<
#995000
1!
1;
1<
